<?xml version="1.0" encoding="UTF-8"?>
<!DOCTYPE svg PUBLIC "-//W3C//DTD SVG 1.1//EN" "http://www.w3.org/Graphics/SVG/1.1/DTD/svg11.dtd">
<!-- Creator: CorelDRAW X7 -->
<svg xmlns="http://www.w3.org/2000/svg" xml:space="preserve" width="31.8192mm" height="17.5562mm" version="1.1" style="shape-rendering:geometricPrecision; text-rendering:geometricPrecision; image-rendering:optimizeQuality; fill-rule:evenodd; clip-rule:evenodd"
viewBox="0 0 8688 4794"
 xmlns:xlink="http://www.w3.org/1999/xlink">
 <defs>
  <style type="text/css">
   <![CDATA[
    .str0 {stroke:#373435;stroke-width:48.1646}
    .str1 {stroke:#ED3237;stroke-width:48.1646}
    .str2 {stroke:#373435;stroke-width:48.1646;stroke-dasharray:240.822874 144.493724}
    .fil4 {fill:none}
    .fil2 {fill:#373435}
    .fil1 {fill:#373435;fill-rule:nonzero}
    .fil3 {fill:#ED3237;fill-rule:nonzero}
    .fil0 {fill:url(#id0)}
   ]]>
  </style>
  <linearGradient id="id0" gradientUnits="userSpaceOnUse" x1="2437.31" y1="3649.59" x2="4275.12" y2="1144.07">
   <stop offset="0" style="stop-opacity:1; stop-color:#91D8F7"/>
   <stop offset="1" style="stop-opacity:1; stop-color:#FEFEFE"/>
  </linearGradient>
 </defs>
 <g id="Layer_x0020_1">
  <metadata id="CorelCorpID_0Corel-Layer"/>
  <path class="fil0 str0" d="M4325 4686c-529,0 -1866,145 -2728,53 -862,-92 -1557,-396 -1510,-1589 70,-1768 -242,-2337 104,-2685 345,-347 3011,-192 3313,-176 302,16 1992,-265 2516,-265 1312,0 246,1638 480,2806 48,243 114,749 50,1150 -52,331 -193,590 -503,574 -663,-36 -1187,132 -1722,132z"/>
  <path class="fil1" d="M1201 1324l0 -36 -21 0c-70,0 -86,-8 -99,-47l-252 -728c-6,-15 -8,-24 -27,-24 -18,0 -22,7 -28,24l-241 697c-21,59 -67,77 -130,78l0 36 119 -4 134 4 0 -36c-59,0 -88,-29 -88,-60 0,-3 1,-15 2,-17l54 -153 288 0 62 178c1,5 3,12 3,17 0,35 -65,35 -97,35l0 36c42,-4 124,-4 168,-4l153 4zm-302 -302l-262 0 130 -379 132 379z"/>
  <circle class="fil2 str0" cx="1838" cy="3042" r="150"/>
  <path class="fil1" d="M1672 4000c0,-16 -15,-16 -33,-16 -28,0 -29,1 -37,30 -9,39 -30,126 -70,126 -14,0 -22,-9 -22,-36 0,-22 2,-32 7,-50l80 -323c5,-18 5,-20 5,-26 0,-36 -28,-50 -52,-50 -15,0 -61,7 -75,65l-80 328c-5,21 -6,26 -39,58 -16,15 -45,34 -80,34 -58,0 -61,-55 -61,-80 0,-70 40,-174 68,-248 10,-29 16,-43 16,-62 0,-66 -59,-104 -122,-104 -121,0 -179,157 -179,182 0,16 16,16 33,16 22,0 28,0 33,-15 9,-31 41,-141 107,-141 6,0 16,0 16,21 0,24 -14,60 -21,77 -37,100 -70,184 -70,249 0,106 76,147 173,147 32,0 81,-6 139,-60 22,41 74,60 120,60 54,0 83,-40 99,-63 30,-49 45,-114 45,-119z"/>
  <path id="1" class="fil1" d="M1877 4406l0 -18 -19 0c-52,0 -54,-7 -54,-28l0 -327c0,-14 0,-15 -14,-15 -36,37 -87,37 -106,37l0 18c12,0 46,0 77,-15l0 302c0,21 -2,28 -55,28l-18 0 0 18c20,-2 71,-2 94,-2 24,0 74,0 95,2z"/>
  <path class="fil3" d="M1359 1735c0,-55 -55,-92 -131,-92 -145,0 -179,127 -189,187l-21 114 -107 0c-20,0 -41,0 -41,34 0,21 20,21 37,21l100 0 -81 444c-12,61 -14,74 -29,133 -4,17 -20,79 -59,79 0,0 -18,0 -35,-10 39,-19 48,-55 48,-74 0,-32 -23,-54 -58,-54 -42,0 -83,36 -83,88 0,57 58,92 127,92 43,0 140,-25 195,-197 15,-50 21,-72 30,-124l70 -377 128 0c20,0 41,0 41,-34 0,-21 -21,-21 -37,-21l-122 0c10,-55 38,-213 46,-230 6,-15 23,-29 40,-29 4,0 21,1 37,9 -26,14 -47,42 -47,75 0,31 24,54 58,54 41,0 83,-35 83,-88z"/>
  <path id="1" class="fil3" d="M1443 2694l0 -18 -19 0c-52,0 -54,-6 -54,-28l0 -327c0,-14 0,-15 -14,-15 -36,38 -87,38 -106,38l0 18c12,0 46,0 77,-15l0 301c0,21 -2,28 -55,28l-18 0 0 18c20,-1 71,-1 94,-1 24,0 74,0 95,1z"/>
  <g id="_1919593278592">
   <path class="fil1" d="M7820 2516c0,-17 -15,-17 -32,-17 -28,0 -29,1 -38,31 -9,38 -30,125 -70,125 -14,0 -22,-9 -22,-36 0,-22 3,-31 7,-50l81 -323c4,-17 4,-19 4,-25 0,-36 -28,-50 -52,-50 -15,0 -61,7 -75,65l-80 327c-5,21 -6,26 -39,59 -16,15 -45,33 -80,33 -58,0 -61,-54 -61,-80 0,-70 40,-174 68,-247 11,-29 16,-43 16,-63 0,-65 -59,-104 -122,-104 -121,0 -178,158 -178,182 0,16 15,16 32,16 22,0 28,0 33,-15 9,-30 41,-141 107,-141 6,0 16,0 16,21 0,25 -14,61 -21,77 -37,100 -69,184 -69,250 0,106 75,146 172,146 33,0 82,-5 139,-59 22,41 74,59 120,59 55,0 84,-39 99,-63 30,-48 45,-114 45,-118z"/>
   <path id="1" class="fil1" d="M7989 1735c0,-21 -22,-40 -53,-40 -41,0 -90,30 -90,92l0 67 -46 0 0 18 46 0 0 189c0,26 -6,26 -46,26l0 18 67 -1c23,0 51,0 74,1l0 -18 -12 0c-43,0 -45,-6 -45,-27l0 -188 67 0 0 -18 -68 0 0 -67c0,-52 28,-80 53,-80 2,0 11,0 19,4 -7,3 -17,10 -17,25 0,13 9,25 25,25 17,0 26,-12 26,-26z"/>
   <path id="2" class="fil1" d="M8171 1883c0,-18 -18,-35 -43,-35 -43,0 -64,39 -72,64l0 -64 -81 6 0 18c41,0 46,4 46,33l0 156c0,26 -7,26 -46,26l0 18 67 -1c23,0 50,0 74,1l0 -18 -13 0c-43,0 -44,-6 -44,-27l0 -90c0,-58 25,-109 69,-109 4,0 5,0 6,0 -1,1 -13,8 -13,23 0,16 12,25 25,25 11,0 25,-7 25,-26l0 0z"/>
   <path id="3" class="fil1" d="M8429 2036c0,-6 -4,-7 -7,-7 -6,0 -7,4 -8,8 -20,60 -73,60 -79,60 -29,0 -52,-17 -65,-39 -18,-28 -18,-66 -18,-87l163 0c12,0 14,0 14,-12 0,-58 -31,-115 -104,-115 -68,0 -121,60 -121,133 0,78 61,135 128,135 71,0 97,-65 97,-76zm-38 -77l-138 0c3,-87 52,-102 72,-102 60,0 66,79 66,102z"/>
   <path id="4" class="fil1" d="M8688 2036c0,-6 -5,-7 -8,-7 -5,0 -6,4 -7,8 -21,60 -73,60 -79,60 -29,0 -52,-17 -66,-39 -17,-28 -17,-66 -17,-87l162 0c13,0 15,0 15,-12 0,-58 -32,-115 -104,-115 -68,0 -122,60 -122,133 0,78 62,135 129,135 71,0 97,-65 97,-76zm-38 -77l-139 0c4,-87 53,-102 73,-102 60,0 66,79 66,102z"/>
   <path class="fil1" d="M7820 2516c0,-17 -15,-17 -32,-17 -28,0 -29,1 -38,31 -9,38 -30,125 -70,125 -14,0 -22,-9 -22,-36 0,-22 3,-31 7,-50l81 -323c4,-17 4,-19 4,-25 0,-36 -28,-50 -52,-50 -15,0 -61,7 -75,65l-80 327c-5,21 -6,26 -39,59 -16,15 -45,33 -80,33 -58,0 -61,-54 -61,-80 0,-70 40,-174 68,-247 11,-29 16,-43 16,-63 0,-65 -59,-104 -122,-104 -121,0 -178,158 -178,182 0,16 15,16 32,16 22,0 28,0 33,-15 9,-30 41,-141 107,-141 6,0 16,0 16,21 0,25 -14,61 -21,77 -37,100 -69,184 -69,250 0,106 75,146 172,146 33,0 82,-5 139,-59 22,41 74,59 120,59 55,0 84,-39 99,-63 30,-48 45,-114 45,-118z"/>
   <path id="1" class="fil1" d="M8042 2820l-14 0c-3,17 -7,43 -13,52 -4,4 -43,4 -55,4l-105 0 61 -60c91,-80 126,-112 126,-170 0,-66 -52,-113 -123,-113 -66,0 -109,54 -109,106 0,32 29,32 31,32 10,0 30,-7 30,-31 0,-15 -11,-30 -31,-30 -5,0 -6,0 -7,1 13,-38 44,-60 78,-60 53,0 78,47 78,95 0,47 -29,93 -61,129l-112 125c-6,6 -6,7 -6,21l216 0 16 -101z"/>
  </g>
  <path class="fil4 str1" d="M2103 2794c105,142 100,247 20,407"/>
  <path class="fil4 str1" d="M2232 2625c244,306 75,604 60,666"/>
  <path class="fil4 str1" d="M1513 2941c-47,150 -21,235 89,329"/>
  <path class="fil4 str1" d="M1348 2844c-114,320 71,516 195,574"/>
  <path class="fil4 str2" d="M1838 3042c424,972 2534,526 3252,45 145,-97 1275,-805 1375,-766l5 -44"/>
  <circle class="fil2 str0" cx="6470" cy="2277" r="150"/>
 </g>
</svg>
