<?xml version="1.0" encoding="UTF-8"?>
<!DOCTYPE svg PUBLIC "-//W3C//DTD SVG 1.1//EN" "http://www.w3.org/Graphics/SVG/1.1/DTD/svg11.dtd">
<!-- Creator: CorelDRAW X7 -->
<svg xmlns="http://www.w3.org/2000/svg" xml:space="preserve" width="45.7682mm" height="17.6671mm" version="1.1" style="shape-rendering:geometricPrecision; text-rendering:geometricPrecision; image-rendering:optimizeQuality; fill-rule:evenodd; clip-rule:evenodd"
viewBox="0 0 513 198"
 xmlns:xlink="http://www.w3.org/1999/xlink">
 <defs>
  <style type="text/css">
   <![CDATA[
    .str0 {stroke:#373435;stroke-width:1.97746}
    .str2 {stroke:#373435;stroke-width:1.97746}
    .str1 {stroke:#ED3237;stroke-width:1.97746}
    .str3 {stroke:#373435;stroke-width:1.97746;stroke-dasharray:9.887315 5.932389}
    .fil5 {fill:none}
    .fil3 {fill:#373435}
    .fil6 {fill:#373435}
    .fil2 {fill:#373435;fill-rule:nonzero}
    .fil4 {fill:#ED3237;fill-rule:nonzero}
    .fil0 {fill:url(#id0)}
    .fil1 {fill:url(#id1)}
   ]]>
  </style>
  <linearGradient id="id0" gradientUnits="userSpaceOnUse" x1="100.067" y1="151.081" x2="175.521" y2="48.2147">
   <stop offset="0" style="stop-opacity:1; stop-color:#91D8F7"/>
   <stop offset="1" style="stop-opacity:1; stop-color:#FEFEFE"/>
  </linearGradient>
  <linearGradient id="id1" gradientUnits="userSpaceOnUse" x1="319.764" y1="162.647" x2="457.655" y2="29.2797">
   <stop offset="0" style="stop-opacity:1; stop-color:#0098DA"/>
   <stop offset="1" style="stop-opacity:1; stop-color:#FEFEFE"/>
  </linearGradient>
 </defs>
 <g id="Layer_x0020_1">
  <metadata id="CorelCorpID_0Corel-Layer"/>
  <path class="fil0 str0" d="M178 194c-22,0 -77,6 -112,2 -36,-4 -64,-16 -62,-65 2,-73 -10,-96 4,-111 14,-14 123,-8 136,-7 12,1 82,-11 103,-11 54,0 10,67 20,115 2,10 5,31 2,48 -2,13 -8,24 -21,23 -27,-1 -48,6 -70,6z"/>
  <path class="fil1 str0" d="M274 27c0,-33 64,-26 79,-24 15,1 131,3 141,3 10,0 18,2 18,14 -1,12 -9,40 -4,86 5,34 15,79 -40,76 -11,0 -22,0 -34,-1 -69,-4 -102,10 -128,10 -26,0 -40,-8 -37,-26 3,-17 0,-37 -2,-47 -6,-30 8,-67 7,-91z"/>
  <path class="fil2" d="M59 62l0 -2 -1 0c-3,0 -3,0 -4,-2l-10 -30c0,0 -1,-1 -1,-1 -1,0 -1,1 -1,1l-10 29c-1,2 -3,3 -6,3l0 2 5 -1 6 1 0 -2c-3,0 -4,-1 -4,-2 0,-1 0,-1 0,-1l2 -6 12 0 3 7c0,0 0,0 0,1 0,1 -3,1 -4,1l0 2c2,-1 5,-1 7,-1l6 1zm-12 -13l-11 0 5 -15 6 15z"/>
  <path class="fil2" d="M480 157c0,-4 -4,-7 -10,-8 5,-1 8,-4 8,-7 0,-5 -4,-9 -10,-9l-18 0 0 2 1 0c4,0 4,0 4,2l0 25c0,2 0,3 -4,3l-1 0 0 1 19 0c6,0 11,-4 11,-9l0 0zm-6 -15c0,3 -3,7 -8,7l-7 0 0 -12c0,-2 0,-2 2,-2l6 0c5,0 7,4 7,7l0 0zm1 15c0,4 -3,8 -8,8l-6 0c-2,0 -2,-1 -2,-2l0 -13 9 0c5,0 7,4 7,7l0 0z"/>
  <circle class="fil3 str0" cx="75" cy="126" r="6"/>
  <circle class="fil3 str0" cx="75" cy="126" r="6"/>
  <circle class="fil3 str0" cx="266" cy="95" r="6"/>
  <circle class="fil3 str0" cx="306" cy="140" r="6"/>
  <circle class="fil3 str0" cx="305" cy="54" r="6"/>
  <circle class="fil3 str0" cx="470" cy="39" r="6"/>
  <path class="fil4" d="M46 87c0,-2 -2,-4 -5,-4 -6,0 -8,5 -8,8l-1 5 -4 0c-1,0 -2,0 -2,1 0,1 1,1 1,1l5 0 -4 18c0,3 0,3 -1,6 0,0 -1,3 -2,3 0,0 -1,0 -2,-1 2,0 2,-2 2,-3 0,-1 -1,-2 -2,-2 -2,0 -4,2 -4,4 0,2 3,4 6,4 1,0 5,-1 8,-9 0,-2 0,-3 1,-5l3 -15 5 0c1,0 2,0 2,-2 0,0 -1,0 -2,0l-5 0c0,-3 2,-9 2,-10 0,0 1,-1 2,-1 0,0 0,0 1,0 -1,1 -2,2 -2,3 0,2 1,3 3,3 1,0 3,-2 3,-4z"/>
  <path id="1" class="fil4" d="M49 126l0 0 0 0c-3,0 -3,-1 -3,-1l0 -14c0,0 0,-1 0,-1 -2,2 -4,2 -4,2l0 1c0,0 1,0 3,-1l0 13c0,0 0,1 -3,1l0 0 0 0c0,0 3,0 4,0 0,0 3,0 3,0z"/>
  <path class="fil5 str1" d="M85 116c5,6 5,10 1,16"/>
  <path class="fil5 str1" d="M91 109c10,12 3,25 2,27"/>
  <path class="fil5 str1" d="M61 122c-2,6 -1,9 4,13"/>
  <path class="fil5 str1" d="M54 118c-4,13 3,21 8,23"/>
  <path class="fil6 str2" d="M293 77c4,-1 17,2 17,2 -1,-1 -5,-16 -6,-19 -3,6 -8,11 -11,17l0 0z"/>
  <path class="fil6 str2" d="M445 29c2,4 1,17 1,17 1,-1 15,-8 18,-9 -6,-2 -13,-6 -19,-8l0 0z"/>
  <path class="fil6 str2" d="M450 56c4,1 15,9 15,9 -1,-1 1,-17 2,-20 -5,4 -12,7 -17,11l0 0z"/>
  <path class="fil6 str2" d="M303 116c-3,3 -16,6 -16,6 1,1 12,12 14,15 0,-7 2,-14 2,-21l0 0z"/>
  <path class="fil6 str2" d="M332 146c-3,-3 -3,-17 -3,-17 -1,1 -14,9 -17,11 6,2 13,5 20,6l0 0z"/>
  <path class="fil6 str2" d="M331 57c-3,-3 -4,-17 -4,-17 -1,1 -13,10 -16,12 6,1 13,4 20,5l0 0z"/>
  <path class="fil5 str3" d="M306 140c113,-2 164,-101 164,-101l3 -1c-33,-8 -129,3 -168,16 -6,28 -16,65 1,93"/>
 </g>
</svg>
