<?xml version="1.0" encoding="UTF-16"?>
<!DOCTYPE svg PUBLIC "-//W3C//DTD SVG 1.0//EN" "http://www.w3.org/TR/2001/REC-SVG-20010904/DTD/svg10.dtd">
<!-- Creator: CorelDRAW X7 -->
<svg xmlns="http://www.w3.org/2000/svg" xml:space="preserve" width="100%" height="100%" version="1.0" style="shape-rendering:geometricPrecision; text-rendering:geometricPrecision; image-rendering:optimizeQuality; fill-rule:evenodd; clip-rule:evenodd"
viewBox="0 0 3473 3208"
 xmlns:xlink="http://www.w3.org/1999/xlink">
 <defs>
  <style type="text/css">
   <![CDATA[
    .str2 {stroke:#373435;stroke-width:7.78}
    .str1 {stroke:#727376;stroke-width:7.62}
    .str0 {stroke:#FEFEFE;stroke-width:7.62}
    .str3 {stroke:#373435;stroke-width:7.62;stroke-dasharray:76.200000 22.860000}
    .fil0 {fill:none}
    .fil24 {fill:none;fill-rule:nonzero}
    .fil15 {fill:#0098DA}
    .fil23 {fill:#00A859}
    .fil19 {fill:#ED3237}
    .fil2 {fill:#373435;fill-rule:nonzero}
    .fil21 {fill:#373435;fill-rule:nonzero;fill-opacity:0.400000}
    .fil17 {fill:#373435;fill-rule:nonzero;fill-opacity:0.501961}
    .fil5 {fill:url(#id0)}
    .fil16 {fill:url(#id1)}
    .fil12 {fill:url(#id2)}
    .fil6 {fill:url(#id3)}
    .fil9 {fill:url(#id4)}
    .fil7 {fill:url(#id5)}
    .fil10 {fill:url(#id6)}
    .fil4 {fill:url(#id7)}
    .fil13 {fill:url(#id8)}
    .fil14 {fill:url(#id9)}
    .fil22 {fill:url(#id10)}
    .fil8 {fill:url(#id11)}
    .fil3 {fill:url(#id12)}
    .fil18 {fill:url(#id13)}
    .fil11 {fill:url(#id14)}
    .fil20 {fill:url(#id15)}
    .fil1 {fill:url(#id16)}
   ]]>
  </style>
  <linearGradient id="id0" gradientUnits="userSpaceOnUse" x1="926.37" y1="941.9" x2="985.87" y2="902.22">
   <stop offset="0" style="stop-opacity:1; stop-color:#848688"/>
   <stop offset="0.580392" style="stop-opacity:1; stop-color:#C1C2C3"/>
   <stop offset="1" style="stop-opacity:1; stop-color:#FEFEFE"/>
  </linearGradient>
  <linearGradient id="id1" gradientUnits="userSpaceOnUse" x1="997.71" y1="2410.22" x2="2474.13" y2="799.02">
   <stop offset="0" style="stop-opacity:1; stop-color:#91D8F7"/>
   <stop offset="0.541176" style="stop-opacity:1; stop-color:#C7EBFA"/>
   <stop offset="1" style="stop-opacity:1; stop-color:#FEFEFE"/>
  </linearGradient>
  <linearGradient id="id2" gradientUnits="userSpaceOnUse" x1="1496.55" y1="1791.58" x2="1545.27" y2="1742.86">
   <stop offset="0" style="stop-opacity:1; stop-color:#848688"/>
   <stop offset="1" style="stop-opacity:1; stop-color:#FEFEFE"/>
  </linearGradient>
  <linearGradient id="id3" gradientUnits="userSpaceOnUse" xlink:href="#id2" x1="431.28" y1="1066.52" x2="480.46" y2="1017.34">
  </linearGradient>
  <linearGradient id="id4" gradientUnits="userSpaceOnUse" x1="1529.31" y1="1292.43" x2="1560.91" y2="1229.41">
   <stop offset="0" style="stop-opacity:1; stop-color:#848688"/>
   <stop offset="0.588235" style="stop-opacity:1; stop-color:#C1C2C3"/>
   <stop offset="1" style="stop-opacity:1; stop-color:#FEFEFE"/>
  </linearGradient>
  <linearGradient id="id5" gradientUnits="userSpaceOnUse" x1="359.03" y1="1565.93" x2="415.55" y2="1520.71">
   <stop offset="0" style="stop-opacity:1; stop-color:#848688"/>
   <stop offset="0.54902" style="stop-opacity:1; stop-color:#C1C2C3"/>
   <stop offset="1" style="stop-opacity:1; stop-color:#FEFEFE"/>
  </linearGradient>
  <linearGradient id="id6" gradientUnits="userSpaceOnUse" xlink:href="#id2" x1="2065.42" y1="1077.6" x2="2114.06" y2="1028.96">
  </linearGradient>
  <linearGradient id="id7" gradientUnits="userSpaceOnUse" xlink:href="#id2" x1="1500.59" y1="778.81" x2="1549.29" y2="730.23">
  </linearGradient>
  <linearGradient id="id8" gradientUnits="userSpaceOnUse" x1="983.58" y1="1903.14" x2="1033.54" y2="1853.18">
   <stop offset="0" style="stop-opacity:1; stop-color:#848688"/>
   <stop offset="0.521569" style="stop-opacity:1; stop-color:#C1C2C3"/>
   <stop offset="1" style="stop-opacity:1; stop-color:#FEFEFE"/>
  </linearGradient>
  <linearGradient id="id9" gradientUnits="userSpaceOnUse" xlink:href="#id2" x1="419.41" y1="2069.94" x2="468.13" y2="2021.22">
  </linearGradient>
  <linearGradient id="id10" gradientUnits="userSpaceOnUse" x1="2640.97" y1="1932.06" x2="2688.27" y2="1884.76">
   <stop offset="0" style="stop-opacity:1; stop-color:#848688"/>
   <stop offset="0.490196" style="stop-opacity:1; stop-color:#C1C2C3"/>
   <stop offset="1" style="stop-opacity:1; stop-color:#FEFEFE"/>
  </linearGradient>
  <linearGradient id="id11" gradientUnits="userSpaceOnUse" xlink:href="#id8" x1="942.32" y1="1386.81" x2="990.08" y2="1339.05">
  </linearGradient>
  <linearGradient id="id12" gradientUnits="userSpaceOnUse" xlink:href="#id4" x1="1980.95" y1="596.35" x2="2041.19" y2="566.19">
  </linearGradient>
  <linearGradient id="id13" gradientUnits="userSpaceOnUse" xlink:href="#id4" x1="2073.73" y1="1600.83" x2="2133.97" y2="1570.75">
  </linearGradient>
  <linearGradient id="id14" gradientUnits="userSpaceOnUse" xlink:href="#id8" x1="2019.1" y1="1599.91" x2="2067.59" y2="1551.29">
  </linearGradient>
  <linearGradient id="id15" gradientUnits="userSpaceOnUse" xlink:href="#id1" x1="1555.98" y1="2731.19" x2="3035.74" y2="1123.33">
  </linearGradient>
  <linearGradient id="id16" gradientUnits="userSpaceOnUse" xlink:href="#id1" x1="436.79" y1="2085.61" x2="1917.67" y2="476.55">
  </linearGradient>
 </defs>
 <g id="Layer_x0020_1">
  <metadata id="CorelCorpID_0Corel-Layer"/>
  <rect class="fil0 str0" x="137" y="4" width="3200" height="3200"/>
  <g id="_1760949453376">
   <g id="_2027834185680">
    <g>
     <path class="fil1" d="M1533 2066c-93,20 -258,72 -436,125 -177,52 -375,105 -528,125 -153,20 -291,16 -391,-49 -97,-64 -158,-189 -150,-411 12,-327 -8,-537 -16,-686 -12,-149 -8,-234 57,-310 60,-81 330,-158 597,-214 262,-61 524,-105 577,-113 52,-8 230,-69 411,-137 182,-65 375,-130 464,-150 226,-52 246,93 222,299 -28,206 -97,472 -57,674 17,84 37,258 17,407 -17,125 -65,230 -174,250 -226,40 -407,145 -593,190l0 0z"/>
     <path id="_1" class="fil2" d="M1101 2199l-8 -16 0 0 16 -4 21 -4 16 -8 16 -4 16 -4 16 -4 16 -5 12 -4 17 -8 16 -4 16 -4 16 -4 12 -4 16 -4 16 -4 12 -4 13 -4 16 -4 12 -4 12 -4 16 -4 12 -4 12 -4 12 -4 12 -4 8 0 13 -4 12 -4 8 0 8 -4 12 -4 8 0 4 16 -8 4 -8 0 -12 4 -8 4 -12 0 -12 4 -9 4 -12 4 -12 0 -12 4 -12 4 -12 4 -16 4 -12 4 -12 4 -17 4 -12 4 -16 4 -12 4 -16 4 -16 4 -16 9 -12 4 -17 4 -16 4 -16 4 -16 4 -16 8 -16 4 -16 4 -17 4 -16 4 0 0 0 0zm-528 125l-4 -20 0 0 16 0 12 -4 16 0 16 -4 12 0 17 -4 16 -4 16 -4 16 0 16 -4 16 -4 16 -4 17 -4 16 -5 20 -4 16 -4 16 -4 16 -4 16 -4 21 -4 16 -4 16 -4 16 -4 20 -8 16 -4 16 -4 17 -4 20 -4 16 -4 16 -8 16 -4 16 -4 8 16 -20 8 -16 4 -16 4 -16 4 -20 4 -16 4 -17 8 -16 4 -20 4 -16 4 -16 4 -16 4 -21 4 -16 4 -16 5 -16 8 -16 4 -20 4 -16 0 -17 4 -16 4 -16 4 -16 4 -16 4 -16 4 -16 0 -17 4 -16 4 -12 0 -16 4 -16 0 -12 4 0 0 0 0zm-400 -48l9 -17 0 0 12 8 8 4 8 5 12 4 8 4 12 4 8 4 12 4 12 4 12 0 8 4 13 4 12 0 12 4 12 0 12 0 12 4 12 0 12 0 12 0 17 0 12 0 12 0 12 0 16 0 12 0 16 -4 12 0 16 0 13 -4 16 0 12 -4 4 20 -16 0 -16 4 -13 0 -16 0 -12 4 -12 0 -16 0 -12 0 -16 0 -12 4 -12 0 -17 -4 -12 0 -12 0 -12 0 -12 0 -16 -4 -12 0 -12 0 -12 -4 -13 -4 -12 0 -8 -4 -12 -4 -12 -4 -12 -4 -8 -4 -12 -4 -12 -4 -8 -4 -12 -8 -9 -4 0 0 0 0zm-153 -420l20 0 0 0 -4 20 0 20 0 20 4 21 0 16 0 20 0 16 4 16 4 16 0 17 4 12 4 16 4 12 5 16 4 12 4 12 4 12 4 12 8 13 4 8 8 12 4 8 8 12 8 8 4 8 8 8 8 8 8 8 8 4 8 8 8 8 9 4 -9 17 -8 -9 -12 -4 -8 -8 -8 -8 -8 -8 -8 -8 -8 -8 -8 -8 -8 -12 -4 -8 -8 -12 -8 -12 -4 -8 -8 -13 -5 -12 -4 -12 -4 -16 -8 -12 -4 -12 -4 -16 0 -16 -4 -12 -4 -17 0 -20 -4 -16 0 -16 -4 -16 0 -20 0 -21 0 -20 0 -20 0 -20 0 0 0 0zm-20 -686l20 0 0 0 0 12 0 16 4 17 0 12 0 16 0 16 4 16 0 16 0 20 4 17 0 20 0 16 4 20 0 20 0 20 0 20 4 21 0 24 0 20 0 24 0 24 0 25 0 24 0 24 4 28 -4 25 0 28 0 28 0 28 0 29 0 32 0 28 -20 0 0 -28 4 -32 0 -29 0 -28 0 -28 0 -28 0 -25 0 -28 0 -24 0 -24 0 -25 0 -24 -4 -20 0 -24 0 -20 0 -25 0 -20 -4 -20 0 -20 0 -16 -4 -20 0 -20 0 -17 0 -16 -4 -16 0 -20 0 -16 -4 -12 0 -16 0 -17 0 -12 -4 -16 0 0zm61 -319l12 13 0 0 -4 8 -4 8 -9 4 -4 8 -4 8 -4 8 -4 8 0 8 -4 8 -4 8 0 8 -4 8 -4 8 0 8 0 9 -4 8 0 8 0 12 -4 8 0 12 0 8 0 12 0 8 0 12 0 12 0 13 0 12 0 12 0 12 4 12 0 12 0 16 -20 0 0 -12 0 -16 0 -12 0 -12 0 -12 0 -12 0 -13 0 -12 0 -12 0 -8 0 -12 0 -12 0 -8 0 -12 0 -8 4 -8 0 -12 4 -9 0 -8 4 -12 0 -8 4 -8 4 -8 4 -8 0 -8 4 -8 4 -8 8 -8 4 -8 4 -8 4 -8 9 -9 0 0zm601 -217l4 20 0 0 -25 4 -24 8 -24 4 -24 4 -24 8 -25 4 -24 8 -24 8 -24 4 -24 8 -25 4 -20 8 -24 8 -20 4 -20 9 -25 8 -16 4 -20 8 -20 8 -16 4 -20 8 -17 8 -12 8 -16 4 -12 8 -16 8 -8 8 -12 4 -8 8 -8 8 -8 9 -8 4 -13 -13 9 -8 8 -4 8 -8 8 -8 12 -8 12 -8 12 -8 16 -8 16 -4 16 -8 17 -8 16 -8 20 -4 16 -8 20 -8 20 -9 21 -4 20 -8 24 -8 20 -4 24 -8 25 -8 24 -4 20 -8 24 -4 24 -8 29 -4 24 -8 24 -4 24 -8 24 -4 25 -8 0 0 0 0zm581 -109l4 16 0 0 -8 4 -5 0 -8 0 -8 4 -12 0 -12 4 -12 0 -12 4 -12 0 -16 4 -16 0 -17 4 -16 4 -20 4 -16 4 -20 0 -20 4 -21 4 -24 4 -20 4 -20 4 -24 4 -25 4 -20 8 -24 4 -24 4 -24 4 -25 4 -24 9 -24 4 -24 4 -28 8 -4 -20 28 -5 24 -4 24 -8 24 -4 25 -4 24 -4 24 -8 24 -4 20 -4 25 -4 24 -4 20 -4 24 -4 20 -4 21 -4 20 -4 20 -4 16 -4 20 0 16 -4 17 -4 16 -4 16 0 12 -4 16 0 12 -4 8 0 12 -4 8 0 8 0 9 -4 4 0 0 0 0 0zm407 -137l8 20 0 0 -20 4 -16 8 -16 4 -17 8 -16 4 -16 4 -16 8 -16 4 -16 8 -16 4 -16 4 -17 8 -16 4 -12 4 -16 8 -12 4 -16 4 -12 4 -12 4 -13 5 -12 4 -12 4 -8 4 -12 0 -8 4 -12 4 -8 0 -8 4 -8 0 -4 4 -8 0 -4 0 -4 -16 4 0 8 0 4 -4 8 0 8 -4 8 0 8 -4 12 -5 8 -4 12 0 12 -4 12 -4 13 -4 12 -4 12 -4 12 -8 16 -4 12 -4 16 -4 16 -4 12 -8 17 -4 16 -4 16 -8 16 -4 16 -8 16 -4 16 -8 21 -4 16 -8 16 -4 16 -8 0 0 0 0zm464 -154l4 20 0 0 -8 0 -8 4 -8 0 -12 4 -12 4 -9 5 -12 4 -12 4 -16 0 -12 4 -12 8 -16 4 -12 4 -16 4 -17 4 -12 4 -16 8 -16 4 -16 4 -16 8 -16 4 -17 8 -16 4 -16 8 -20 4 -16 8 -16 4 -16 8 -21 4 -16 9 -16 4 -16 8 -8 -21 16 -4 20 -8 16 -4 17 -8 16 -4 20 -8 16 -4 16 -8 16 -4 16 -8 21 -4 16 -4 16 -8 16 -4 12 -4 16 -8 16 -4 17 -4 12 -4 16 -8 12 -5 16 -4 12 -4 12 -4 12 -4 12 -4 13 0 12 -4 8 -4 12 0 8 -4 8 -4 0 0 0 0zm234 311l-20 -4 0 0 4 -16 0 -20 4 -17 0 -20 0 -16 0 -16 0 -16 0 -16 0 -16 0 -13 -4 -16 0 -12 -4 -12 -4 -12 -4 -8 -4 -12 -8 -8 -4 -8 -8 -8 -9 -8 -8 -9 -8 -4 -12 -4 -12 -4 -12 -4 -12 0 -16 0 -12 -4 -16 4 -21 0 -20 4 -20 4 -4 -20 24 -4 20 0 16 -4 21 0 16 0 16 0 12 4 16 4 12 4 12 4 8 8 13 8 8 8 8 9 8 8 8 12 4 12 4 12 4 12 4 12 4 16 0 12 4 17 0 16 0 16 0 16 0 16 0 20 -4 16 0 21 -4 16 0 20 0 0 0 0zm-57 670l-16 4 0 0 -4 -17 -4 -20 -4 -20 0 -20 0 -20 0 -24 0 -21 0 -20 0 -20 0 -24 0 -20 4 -25 0 -20 4 -24 4 -20 0 -24 4 -20 4 -25 4 -20 4 -24 4 -20 0 -20 4 -25 5 -20 4 -20 4 -24 4 -20 4 -21 0 -20 4 -20 4 -20 0 -20 20 4 -4 20 0 20 -4 20 -4 21 -4 20 -4 20 0 20 -4 24 -4 20 -4 21 -4 24 -4 20 -4 24 -4 20 0 25 -5 20 -4 20 -4 24 0 20 -4 24 0 21 0 20 -4 24 0 20 0 20 0 21 0 20 0 20 4 20 0 20 4 20 4 17 0 0 0 0zm17 415l-17 -4 0 0 0 -12 4 -16 0 -12 0 -16 5 -13 0 -16 0 -16 0 -12 0 -16 0 -12 0 -16 0 -12 0 -17 0 -12 -5 -16 0 -12 0 -16 0 -12 -4 -12 0 -12 0 -12 -4 -17 0 -8 0 -12 -4 -12 0 -12 0 -8 -4 -12 0 -8 -4 -12 0 -8 0 -8 16 -4 0 12 4 8 0 8 5 8 0 12 0 8 4 12 0 12 0 12 4 12 0 13 4 12 0 12 0 16 0 12 4 12 0 16 0 12 0 16 0 17 0 12 0 16 0 12 0 16 0 16 0 12 0 16 0 17 -4 12 0 16 0 12 -4 16 0 0 0 0zm-178 254l-4 -16 0 0 8 -4 8 0 12 -4 8 -4 8 -4 9 -4 4 -4 8 -4 8 -8 4 -4 8 -8 8 -4 4 -8 4 -8 8 -5 4 -8 4 -8 4 -8 4 -12 4 -8 4 -8 4 -8 4 -12 4 -8 4 -12 4 -8 0 -12 4 -13 0 -8 4 -12 0 -12 4 -12 17 4 0 12 -4 12 0 8 -5 12 0 13 -4 12 -4 8 -4 12 -4 12 0 8 -4 12 -4 8 -8 8 -4 12 -4 8 -4 8 -8 9 -4 8 -8 8 -4 8 -8 8 -8 4 -4 8 -8 4 -8 8 -8 4 -9 4 -12 4 -8 4 -8 4 -12 4 -8 0 0 0 0 0zm-597 190l-4 -16 0 0 16 -4 20 -4 16 -8 17 -4 16 -5 20 -8 16 -4 16 -8 20 -4 16 -8 17 -4 20 -8 16 -8 20 -8 16 -4 20 -8 17 -8 20 -4 16 -8 20 -8 20 -4 16 -8 21 -9 20 -4 20 -8 20 -4 20 -4 20 -8 21 -4 20 -4 24 -4 20 -4 4 16 -24 4 -20 4 -20 4 -21 8 -20 4 -20 4 -20 9 -20 4 -16 8 -21 4 -20 8 -16 4 -20 8 -20 8 -16 8 -21 4 -16 8 -20 8 -16 4 -20 8 -16 8 -16 4 -21 8 -16 9 -20 4 -16 8 -16 4 -20 4 -17 8 -16 4 -20 4 -16 4 0 0z"/>
    </g>
    <path class="fil3" d="M2009 549c20,-4 36,8 36,24 0,20 -16,36 -36,40 -16,4 -32,-4 -32,-24 0,-16 16,-36 32,-40z"/>
    <path class="fil4" d="M1525 722c20,-4 36,4 36,25 0,16 -16,36 -36,40 -20,4 -36,-8 -36,-24 0,-20 16,-37 36,-41z"/>
    <path class="fil5" d="M956 888c20,-4 36,8 36,28 0,16 -16,36 -36,40 -20,4 -36,-8 -36,-24 0,-20 16,-40 36,-44l0 0z"/>
    <path class="fil6" d="M456 1009c20,-4 36,8 36,24 0,20 -16,36 -36,40 -20,8 -36,-4 -36,-24 0,-16 16,-36 36,-40z"/>
    <path class="fil7" d="M387 1509c20,-4 37,8 37,24 0,20 -17,41 -37,45 -20,4 -36,-8 -36,-29 0,-16 16,-36 36,-40l0 0z"/>
    <path class="fil8" d="M964 1332c20,-9 36,4 36,24 0,16 -16,36 -36,40 -16,4 -32,-8 -32,-24 0,-20 16,-36 32,-40z"/>
    <path class="fil9" d="M1545 1227c20,-4 36,8 36,24 0,20 -16,40 -36,44 -20,4 -36,-8 -36,-28 0,-16 16,-36 36,-40l0 0z"/>
    <path class="fil10" d="M2090 1021c20,-4 36,8 36,24 0,20 -16,36 -36,40 -20,4 -37,-4 -37,-24 0,-16 17,-36 37,-40z"/>
    <path class="fil11" d="M2045 1541c21,-4 33,8 33,29 0,16 -12,36 -33,40 -20,4 -36,-8 -36,-24 0,-20 16,-37 36,-45l0 0z"/>
    <path class="fil12" d="M1521 1735c20,-4 36,4 36,24 0,16 -16,36 -36,41 -20,4 -36,-5 -36,-25 0,-16 16,-36 36,-40z"/>
    <path class="fil13" d="M1009 1844c20,-4 36,8 36,28 0,16 -16,36 -36,40 -21,4 -37,-8 -37,-24 0,-20 16,-36 37,-44l0 0z"/>
    <path class="fil14" d="M444 2013c20,-4 36,4 36,25 0,16 -16,36 -36,40 -20,4 -37,-4 -37,-24 0,-16 17,-37 37,-41z"/>
    <line class="fil0 str1" x1="1525" y1="755" x2="1545" y2= "1259" />
    <polyline class="fil0 str1" points="2013,581 2090,1053 2045,1578 "/>
    <line class="fil0 str1" x1="1545" y1="1259" x2="1521" y2= "1767" />
    <polyline class="fil0 str1" points="956,924 964,1364 1009,1880 "/>
    <polyline class="fil0 str1" points="456,1041 387,1541 444,2046 "/>
    <polyline class="fil0 str1" points="2013,581 1525,755 956,924 456,1041 "/>
    <polyline class="fil0 str1" points="2090,1053 1545,1259 964,1364 387,1541 "/>
    <polyline class="fil0 str1" points="2045,1578 1521,1767 1009,1880 444,2046 "/>
    <line class="fil0 str1" x1="456" y1="1041" x2="16" y2= "1267" />
    <line class="fil0 str1" x1="387" y1="1541" x2="32" y2= "1634" />
    <line class="fil0 str1" x1="444" y1="2046" x2="40" y2= "2038" />
    <line class="fil0 str1" x1="2013" y1="581" x2="2332" y2= "601" />
    <line class="fil0 str1" x1="2090" y1="1053" x2="2271" y2= "1017" />
    <polyline class="fil0 str1" points="2308,1424 2045,1578 1997,1908 "/>
    <line class="fil0 str1" x1="1521" y1="1767" x2="1501" y2= "2074" />
    <line class="fil0 str1" x1="1009" y1="1880" x2="1097" y2= "2191" />
    <line class="fil0 str1" x1="444" y1="2046" x2="528" y2= "2320" />
    <line class="fil0 str1" x1="456" y1="1041" x2="508" y2= "682" />
    <line class="fil0 str1" x1="956" y1="924" x2="980" y2= "581" />
    <line class="fil0 str1" x1="1525" y1="755" x2="1497" y2= "452" />
    <line class="fil0 str1" x1="2013" y1="581" x2="1916" y2= "307" />
    <path class="fil15 str2" d="M1525 698c32,-8 60,12 60,45 0,28 -28,60 -60,68 -32,8 -61,-12 -61,-44 0,-33 29,-61 61,-69z"/>
    <path class="fil15 str2" d="M956 864c36,-9 61,12 61,44 0,32 -25,64 -61,73 -32,8 -60,-13 -60,-45 0,-32 28,-64 60,-72z"/>
    <path class="fil15 str2" d="M456 985c32,-8 60,12 60,44 0,32 -28,65 -60,73 -36,4 -65,-13 -65,-45 0,-32 29,-64 65,-72z"/>
    <path class="fil15 str2" d="M387 1485c33,-8 61,12 61,44 0,32 -28,65 -61,73 -36,8 -64,-12 -64,-45 0,-32 28,-64 64,-72z"/>
    <path class="fil15 str2" d="M964 1303c36,-4 65,12 65,45 0,32 -29,64 -65,72 -32,8 -60,-12 -60,-44 0,-32 28,-65 60,-73z"/>
    <path class="fil15 str2" d="M1545 1202c32,-8 61,13 61,45 0,32 -29,64 -61,72 -32,9 -60,-12 -60,-44 0,-32 28,-64 60,-73z"/>
    <path class="fil15 str2" d="M2090 997c32,-8 60,12 60,44 0,32 -28,61 -60,69 -33,8 -61,-12 -61,-41 0,-32 28,-64 61,-72z"/>
    <path class="fil15 str2" d="M2045 1517c33,-4 61,12 61,44 0,33 -28,65 -61,73 -32,8 -60,-12 -60,-44 0,-33 28,-65 60,-73z"/>
    <path class="fil15 str2" d="M1521 1711c36,-8 60,12 60,40 0,32 -24,65 -60,73 -32,8 -61,-12 -61,-41 0,-32 29,-64 61,-72z"/>
    <path class="fil15 str2" d="M1009 1820c36,-8 60,12 60,44 0,32 -24,65 -60,73 -33,8 -61,-12 -61,-45 0,-32 28,-64 61,-72z"/>
    <path class="fil15 str2" d="M444 1989c36,-8 64,8 64,40 0,33 -28,65 -64,73 -32,8 -61,-8 -61,-40 0,-33 29,-65 61,-73z"/>
    <path class="fil15 str2" d="M2009 525c36,-8 61,12 61,44 0,32 -25,61 -61,69 -32,8 -56,-12 -56,-45 0,-28 24,-60 56,-68z"/>
    <g>
     <path class="fil2" d="M1101 2199l-8 -16 0 0 16 -4 21 -4 16 -8 16 -4 16 -4 16 -4 16 -5 12 -4 17 -8 16 -4 16 -4 16 -4 12 -4 16 -4 16 -4 12 -4 13 -4 16 -4 12 -4 12 -4 16 -4 12 -4 12 -4 12 -4 12 -4 8 0 13 -4 12 -4 8 0 8 -4 12 -4 8 0 4 16 -8 4 -8 0 -12 4 -8 4 -12 0 -12 4 -9 4 -12 4 -12 0 -12 4 -12 4 -12 4 -16 4 -12 4 -12 4 -17 4 -12 4 -16 4 -12 4 -16 4 -16 4 -16 9 -12 4 -17 4 -16 4 -16 4 -16 4 -16 8 -16 4 -16 4 -17 4 -16 4 0 0 0 0zm-528 125l-4 -20 0 0 16 0 12 -4 16 0 16 -4 12 0 17 -4 16 -4 16 -4 16 0 16 -4 16 -4 16 -4 17 -4 16 -5 20 -4 16 -4 16 -4 16 -4 16 -4 21 -4 16 -4 16 -4 16 -4 20 -8 16 -4 16 -4 17 -4 20 -4 16 -4 16 -8 16 -4 16 -4 8 16 -20 8 -16 4 -16 4 -16 4 -20 4 -16 4 -17 8 -16 4 -20 4 -16 4 -16 4 -16 4 -21 4 -16 4 -16 5 -16 8 -16 4 -20 4 -16 0 -17 4 -16 4 -16 4 -16 4 -16 4 -16 4 -16 0 -17 4 -16 4 -12 0 -16 4 -16 0 -12 4 0 0 0 0zm-400 -48l9 -17 0 0 12 8 8 4 8 5 12 4 8 4 12 4 8 4 12 4 12 4 12 0 8 4 13 4 12 0 12 4 12 0 12 0 12 4 12 0 12 0 12 0 17 0 12 0 12 0 12 0 16 0 12 0 16 -4 12 0 16 0 13 -4 16 0 12 -4 4 20 -16 0 -16 4 -13 0 -16 0 -12 4 -12 0 -16 0 -12 0 -16 0 -12 4 -12 0 -17 -4 -12 0 -12 0 -12 0 -12 0 -16 -4 -12 0 -12 0 -12 -4 -13 -4 -12 0 -8 -4 -12 -4 -12 -4 -12 -4 -8 -4 -12 -4 -12 -4 -8 -4 -12 -8 -9 -4 0 0 0 0zm-153 -420l20 0 0 0 -4 20 0 20 0 20 4 21 0 16 0 20 0 16 4 16 4 16 0 17 4 12 4 16 4 12 5 16 4 12 4 12 4 12 4 12 8 13 4 8 8 12 4 8 8 12 8 8 4 8 8 8 8 8 8 8 8 4 8 8 8 8 9 4 -9 17 -8 -9 -12 -4 -8 -8 -8 -8 -8 -8 -8 -8 -8 -8 -8 -8 -8 -12 -4 -8 -8 -12 -8 -12 -4 -8 -8 -13 -5 -12 -4 -12 -4 -16 -8 -12 -4 -12 -4 -16 0 -16 -4 -12 -4 -17 0 -20 -4 -16 0 -16 -4 -16 0 -20 0 -21 0 -20 0 -20 0 -20 0 0 0 0zm-20 -686l20 0 0 0 0 12 0 16 4 17 0 12 0 16 0 16 4 16 0 16 0 20 4 17 0 20 0 16 4 20 0 20 0 20 0 20 4 21 0 24 0 20 0 24 0 24 0 25 0 24 0 24 4 28 -4 25 0 28 0 28 0 28 0 29 0 32 0 28 -20 0 0 -28 4 -32 0 -29 0 -28 0 -28 0 -28 0 -25 0 -28 0 -24 0 -24 0 -25 0 -24 -4 -20 0 -24 0 -20 0 -25 0 -20 -4 -20 0 -20 0 -16 -4 -20 0 -20 0 -17 0 -16 -4 -16 0 -20 0 -16 -4 -12 0 -16 0 -17 0 -12 -4 -16 0 0zm61 -319l12 13 0 0 -4 8 -4 8 -9 4 -4 8 -4 8 -4 8 -4 8 0 8 -4 8 -4 8 0 8 -4 8 -4 8 0 8 0 9 -4 8 0 8 0 12 -4 8 0 12 0 8 0 12 0 8 0 12 0 12 0 13 0 12 0 12 0 12 4 12 0 12 0 16 -20 0 0 -12 0 -16 0 -12 0 -12 0 -12 0 -12 0 -13 0 -12 0 -12 0 -8 0 -12 0 -12 0 -8 0 -12 0 -8 4 -8 0 -12 4 -9 0 -8 4 -12 0 -8 4 -8 4 -8 4 -8 0 -8 4 -8 4 -8 8 -8 4 -8 4 -8 4 -8 9 -9 0 0zm601 -217l4 20 0 0 -25 4 -24 8 -24 4 -24 4 -24 8 -25 4 -24 8 -24 8 -24 4 -24 8 -25 4 -20 8 -24 8 -20 4 -20 9 -25 8 -16 4 -20 8 -20 8 -16 4 -20 8 -17 8 -12 8 -16 4 -12 8 -16 8 -8 8 -12 4 -8 8 -8 8 -8 9 -8 4 -13 -13 9 -8 8 -4 8 -8 8 -8 12 -8 12 -8 12 -8 16 -8 16 -4 16 -8 17 -8 16 -8 20 -4 16 -8 20 -8 20 -9 21 -4 20 -8 24 -8 20 -4 24 -8 25 -8 24 -4 20 -8 24 -4 24 -8 29 -4 24 -8 24 -4 24 -8 24 -4 25 -8 0 0 0 0zm581 -109l4 16 0 0 -8 4 -5 0 -8 0 -8 4 -12 0 -12 4 -12 0 -12 4 -12 0 -16 4 -16 0 -17 4 -16 4 -20 4 -16 4 -20 0 -20 4 -21 4 -24 4 -20 4 -20 4 -24 4 -25 4 -20 8 -24 4 -24 4 -24 4 -25 4 -24 9 -24 4 -24 4 -28 8 -4 -20 28 -5 24 -4 24 -8 24 -4 25 -4 24 -4 24 -8 24 -4 20 -4 25 -4 24 -4 20 -4 24 -4 20 -4 21 -4 20 -4 20 -4 16 -4 20 0 16 -4 17 -4 16 -4 16 0 12 -4 16 0 12 -4 8 0 12 -4 8 0 8 0 9 -4 4 0 0 0 0 0zm407 -137l8 20 0 0 -20 4 -16 8 -16 4 -17 8 -16 4 -16 4 -16 8 -16 4 -16 8 -16 4 -16 4 -17 8 -16 4 -12 4 -16 8 -12 4 -16 4 -12 4 -12 4 -13 5 -12 4 -12 4 -8 4 -12 0 -8 4 -12 4 -8 0 -8 4 -8 0 -4 4 -8 0 -4 0 -4 -16 4 0 8 0 4 -4 8 0 8 -4 8 0 8 -4 12 -5 8 -4 12 0 12 -4 12 -4 13 -4 12 -4 12 -4 12 -8 16 -4 12 -4 16 -4 16 -4 12 -8 17 -4 16 -4 16 -8 16 -4 16 -8 16 -4 16 -8 21 -4 16 -8 16 -4 16 -8 0 0 0 0zm464 -154l4 20 0 0 -8 0 -8 4 -8 0 -12 4 -12 4 -9 5 -12 4 -12 4 -16 0 -12 4 -12 8 -16 4 -12 4 -16 4 -17 4 -12 4 -16 8 -16 4 -16 4 -16 8 -16 4 -17 8 -16 4 -16 8 -20 4 -16 8 -16 4 -16 8 -21 4 -16 9 -16 4 -16 8 -8 -21 16 -4 20 -8 16 -4 17 -8 16 -4 20 -8 16 -4 16 -8 16 -4 16 -8 21 -4 16 -4 16 -8 16 -4 12 -4 16 -8 16 -4 17 -4 12 -4 16 -8 12 -5 16 -4 12 -4 12 -4 12 -4 12 -4 13 0 12 -4 8 -4 12 0 8 -4 8 -4 0 0 0 0zm234 311l-20 -4 0 0 4 -16 0 -20 4 -17 0 -20 0 -16 0 -16 0 -16 0 -16 0 -16 0 -13 -4 -16 0 -12 -4 -12 -4 -12 -4 -8 -4 -12 -8 -8 -4 -8 -8 -8 -9 -8 -8 -9 -8 -4 -12 -4 -12 -4 -12 -4 -12 0 -16 0 -12 -4 -16 4 -21 0 -20 4 -20 4 -4 -20 24 -4 20 0 16 -4 21 0 16 0 16 0 12 4 16 4 12 4 12 4 8 8 13 8 8 8 8 9 8 8 8 12 4 12 4 12 4 12 4 12 4 16 0 12 4 17 0 16 0 16 0 16 0 16 0 20 -4 16 0 21 -4 16 0 20 0 0 0 0zm-57 670l-16 4 0 0 -4 -17 -4 -20 -4 -20 0 -20 0 -20 0 -24 0 -21 0 -20 0 -20 0 -24 0 -20 4 -25 0 -20 4 -24 4 -20 0 -24 4 -20 4 -25 4 -20 4 -24 4 -20 0 -20 4 -25 5 -20 4 -20 4 -24 4 -20 4 -21 0 -20 4 -20 4 -20 0 -20 20 4 -4 20 0 20 -4 20 -4 21 -4 20 -4 20 0 20 -4 24 -4 20 -4 21 -4 24 -4 20 -4 24 -4 20 0 25 -5 20 -4 20 -4 24 0 20 -4 24 0 21 0 20 -4 24 0 20 0 20 0 21 0 20 0 20 4 20 0 20 4 20 4 17 0 0 0 0zm17 415l-17 -4 0 0 0 -12 4 -16 0 -12 0 -16 5 -13 0 -16 0 -16 0 -12 0 -16 0 -12 0 -16 0 -12 0 -17 0 -12 -5 -16 0 -12 0 -16 0 -12 -4 -12 0 -12 0 -12 -4 -17 0 -8 0 -12 -4 -12 0 -12 0 -8 -4 -12 0 -8 -4 -12 0 -8 0 -8 16 -4 0 12 4 8 0 8 5 8 0 12 0 8 4 12 0 12 0 12 4 12 0 13 4 12 0 12 0 16 0 12 4 12 0 16 0 12 0 16 0 17 0 12 0 16 0 12 0 16 0 16 0 12 0 16 0 17 -4 12 0 16 0 12 -4 16 0 0 0 0zm-178 254l-4 -16 0 0 8 -4 8 0 12 -4 8 -4 8 -4 9 -4 4 -4 8 -4 8 -8 4 -4 8 -8 8 -4 4 -8 4 -8 8 -5 4 -8 4 -8 4 -8 4 -12 4 -8 4 -8 4 -8 4 -12 4 -8 4 -12 4 -8 0 -12 4 -13 0 -8 4 -12 0 -12 4 -12 17 4 0 12 -4 12 0 8 -5 12 0 13 -4 12 -4 8 -4 12 -4 12 0 8 -4 12 -4 8 -8 8 -4 12 -4 8 -4 8 -8 9 -4 8 -8 8 -4 8 -8 8 -8 4 -4 8 -8 4 -8 8 -8 4 -9 4 -12 4 -8 4 -8 4 -12 4 -8 0 0 0 0 0zm-597 190l-4 -16 0 0 16 -4 20 -4 16 -8 17 -4 16 -5 20 -8 16 -4 16 -8 20 -4 16 -8 17 -4 20 -8 16 -8 20 -8 16 -4 20 -8 17 -8 20 -4 16 -8 20 -8 20 -4 16 -8 21 -9 20 -4 20 -8 20 -4 20 -4 20 -8 21 -4 20 -4 24 -4 20 -4 4 16 -24 4 -20 4 -20 4 -21 8 -20 4 -20 4 -20 9 -20 4 -16 8 -21 4 -20 8 -16 4 -20 8 -20 8 -16 8 -21 4 -16 8 -20 8 -16 4 -20 8 -16 8 -16 4 -21 8 -16 9 -20 4 -16 8 -16 4 -20 4 -17 8 -16 4 -20 4 -16 4 0 0z"/>
    </g>
   </g>
   <g>
    <g>
     <path class="fil16" d="M2090 2393c-93,20 -254,72 -432,125 -181,52 -375,100 -528,121 -154,20 -295,16 -392,-45 -101,-64 -157,-189 -149,-411 12,-327 -8,-541 -20,-686 -8,-149 -4,-234 56,-311 65,-80 335,-157 601,-218 263,-56 525,-100 577,-108 53,-9 226,-73 412,-138 181,-64 371,-133 464,-153 222,-48 246,97 218,299 -25,205 -97,476 -57,677 20,81 40,259 20,408 -20,125 -68,230 -173,250 -230,40 -412,145 -597,190l0 0z"/>
     <path id="_1_0" class="fil17" d="M1658 2526l-4 -16 0 0 16 -5 16 -8 16 -4 17 -4 16 -4 16 -4 16 -8 16 -4 16 -4 16 -4 17 -4 12 -4 16 -4 16 -4 12 -8 16 -4 12 -4 16 -4 13 -4 12 -4 12 0 12 -4 12 -4 12 -4 12 -4 12 -4 12 0 8 -4 13 -4 8 0 8 -4 12 0 4 16 -8 0 -12 4 -8 4 -13 0 -8 4 -12 4 -12 0 -8 4 -12 4 -12 4 -12 4 -16 4 -12 4 -13 4 -16 4 -12 4 -12 4 -16 4 -16 4 -12 4 -16 4 -17 4 -16 4 -16 8 -12 4 -16 4 -16 4 -16 4 -16 5 -21 8 -16 4 -16 4 0 0 0 0zm-528 125l0 -20 0 0 12 0 16 -4 16 0 12 -5 16 -4 16 0 16 -4 17 -4 16 -4 16 0 16 -4 16 -4 16 -4 16 -4 17 -4 16 -4 20 -4 16 -4 16 -4 16 -4 16 -4 21 -8 16 -4 16 -4 16 -4 20 -4 16 -4 17 -4 16 -8 20 -4 16 -4 16 -4 4 16 -16 4 -16 4 -16 8 -20 4 -17 4 -16 4 -16 4 -20 8 -16 4 -16 4 -16 4 -21 4 -16 4 -16 4 -16 4 -20 4 -16 4 -16 4 -17 4 -16 4 -16 4 -16 5 -16 4 -16 4 -16 0 -17 4 -16 4 -16 0 -16 4 -12 4 -16 0 -16 4 0 0 0 0zm-396 -49l8 -16 0 0 8 4 12 8 9 4 12 4 8 4 12 4 8 4 12 4 8 4 12 0 12 5 12 0 12 4 13 0 12 4 12 0 12 0 12 4 12 0 12 0 12 0 16 0 12 0 13 0 16 -4 12 0 12 0 16 0 12 -4 16 0 12 0 17 -4 0 20 -13 0 -16 0 -12 4 -16 0 -12 0 -16 4 -12 0 -16 0 -13 0 -12 0 -16 0 -12 0 -12 0 -12 0 -16 0 -12 0 -12 -4 -12 0 -13 -4 -12 0 -12 -4 -12 0 -12 -4 -12 -4 -8 -4 -12 -4 -12 -4 -8 -5 -13 -4 -8 -8 -12 -4 -8 -4 0 0zm-153 -419l16 0 0 0 0 20 0 20 0 20 0 16 0 21 4 16 0 20 4 16 0 16 4 12 4 16 0 17 4 12 4 12 4 16 8 12 4 12 4 12 4 8 9 12 4 12 8 9 8 8 4 12 8 8 8 8 8 8 8 4 8 8 8 8 8 4 8 8 -8 16 -12 -8 -8 -8 -8 -4 -8 -8 -8 -8 -8 -8 -8 -8 -8 -12 -8 -8 -9 -12 -4 -8 -8 -13 -8 -12 -4 -8 -4 -12 -8 -16 -4 -12 -4 -12 -4 -16 -4 -12 -4 -17 -4 -16 0 -16 -4 -16 0 -16 -4 -16 0 -20 0 -17 0 -20 0 -20 0 -20 0 -20 0 0 0 0zm-20 -686l20 0 0 0 0 12 0 16 0 12 4 16 0 17 0 16 0 16 4 16 0 16 0 20 4 16 0 21 0 20 0 20 4 20 0 20 0 20 0 25 4 20 0 24 0 24 0 24 0 25 0 24 0 28 0 24 0 29 0 28 0 28 0 28 0 33 -4 28 -16 0 0 -32 0 -29 0 -28 4 -28 0 -28 0 -29 0 -24 0 -28 0 -24 0 -25 -4 -24 0 -24 0 -24 0 -20 0 -25 -4 -20 0 -20 0 -20 0 -20 -4 -20 0 -17 0 -20 0 -16 -4 -20 0 -16 0 -16 -4 -16 0 -17 0 -12 0 -16 -4 -16 0 -12 0 0zm56 -319l16 12 0 0 -4 8 -8 4 -4 8 -4 9 -4 8 -4 8 -4 8 -4 4 0 8 -4 8 -4 8 0 8 -4 8 0 12 -4 8 0 8 0 8 -4 13 0 8 0 8 0 12 0 8 0 12 0 12 0 12 0 12 0 8 0 16 0 13 0 12 0 12 4 16 -20 0 0 -16 0 -12 0 -12 -4 -13 0 -12 0 -12 0 -12 0 -12 0 -12 0 -12 0 -8 0 -12 4 -8 0 -12 0 -9 0 -12 4 -8 0 -8 4 -12 0 -8 4 -8 4 -8 0 -8 4 -8 4 -8 4 -8 4 -8 4 -8 4 -9 8 -8 4 -8 4 -8 0 0zm605 -218l4 17 0 0 -24 8 -24 4 -24 8 -28 4 -25 8 -24 4 -24 8 -24 4 -25 8 -20 4 -24 8 -24 8 -20 4 -24 8 -21 8 -20 4 -20 8 -20 8 -16 5 -20 8 -17 8 -16 8 -16 4 -12 8 -16 8 -12 8 -12 4 -8 8 -13 8 -8 8 -8 4 -4 8 -16 -12 8 -8 8 -8 12 -8 8 -8 13 -4 12 -8 12 -8 16 -8 12 -8 16 -4 16 -8 20 -9 17 -8 20 -4 20 -8 20 -8 20 -8 20 -4 25 -8 20 -8 24 -4 20 -8 24 -4 25 -8 24 -8 24 -4 24 -8 24 -4 29 -8 24 -5 24 -4 24 -8 0 0 0 0zm581 -109l0 17 0 0 -4 0 -8 4 -8 0 -8 0 -8 4 -12 0 -12 4 -12 0 -16 4 -13 4 -16 0 -16 4 -20 4 -16 0 -20 4 -20 4 -21 4 -20 4 -20 4 -20 4 -24 4 -21 4 -24 4 -24 4 -24 8 -24 4 -25 4 -24 4 -24 4 -24 8 -24 4 -25 4 -4 -16 25 -4 24 -8 24 -4 28 -4 24 -4 25 -8 24 -4 20 -4 24 -4 24 -4 21 -4 24 -4 20 -4 24 -4 20 -4 21 -4 16 -4 20 -4 20 -4 16 0 16 -4 16 -4 13 -4 16 0 12 -4 12 0 12 -5 8 0 12 0 8 -4 4 0 8 0 0 0zm408 -137l4 16 0 0 -16 8 -16 5 -17 8 -16 4 -20 8 -16 4 -16 8 -16 4 -16 4 -17 8 -12 4 -16 4 -16 8 -16 4 -12 4 -16 4 -12 8 -13 4 -12 4 -12 4 -12 4 -12 4 -12 0 -8 4 -12 4 -8 4 -8 0 -8 4 -9 0 -8 5 -4 0 -8 0 0 -17 4 0 4 -4 8 0 8 -4 9 0 8 -4 8 0 8 -4 12 -4 12 -4 8 -4 12 -4 12 -4 12 -4 16 -4 13 -4 12 -4 16 -4 16 -4 12 -8 16 -4 16 -4 16 -8 17 -4 16 -8 16 -4 16 -4 16 -9 16 -4 16 -8 21 -4 16 -8 0 0 0 0zm464 -153l4 20 0 0 -8 0 -8 4 -13 0 -8 4 -12 4 -12 0 -12 4 -12 4 -12 4 -12 4 -16 4 -12 4 -17 8 -12 5 -16 4 -16 4 -12 4 -16 8 -16 4 -16 8 -17 4 -16 4 -20 8 -16 4 -16 8 -16 4 -16 8 -21 4 -16 8 -16 4 -16 8 -20 4 -4 -16 16 -4 16 -8 20 -4 16 -8 16 -4 17 -8 20 -4 16 -8 16 -4 16 -8 16 -4 16 -8 17 -4 16 -4 16 -9 16 -4 16 -4 12 -8 16 -4 17 -4 12 -4 12 -4 16 -4 12 -4 12 -4 12 -4 12 -4 12 0 8 -4 13 -4 8 0 8 -4 0 0 0 0zm234 311l-20 -4 0 0 4 -21 0 -16 4 -20 0 -16 0 -16 0 -16 0 -16 0 -17 0 -16 -4 -12 0 -16 -4 -12 0 -12 -5 -12 -4 -12 -8 -8 -4 -13 -8 -8 -4 -8 -8 -4 -8 -8 -12 -4 -8 -4 -12 -4 -12 -4 -12 0 -16 -4 -17 0 -16 0 -16 4 -20 4 -20 4 -4 -20 20 -4 20 -4 20 0 16 0 17 0 16 0 16 4 12 0 12 8 12 4 12 4 8 8 12 8 8 12 9 8 4 13 8 8 4 12 4 16 4 12 0 12 4 16 0 16 0 16 4 17 0 16 -4 16 0 16 0 20 0 16 -4 20 0 21 0 0 0 0zm-57 669l-20 4 0 0 -4 -20 0 -20 -4 -20 0 -20 -4 -21 0 -20 0 -20 0 -20 0 -24 4 -20 0 -21 4 -24 0 -20 4 -24 0 -20 4 -25 4 -20 4 -24 0 -20 4 -24 4 -20 4 -25 4 -20 4 -20 4 -24 4 -20 4 -21 0 -20 4 -20 4 -20 0 -20 4 -20 21 4 -4 20 -4 16 0 20 -4 24 -4 20 -5 21 -4 20 -4 20 -4 24 0 20 -4 21 -4 24 -4 20 -4 24 -4 20 0 24 -4 21 -4 24 0 20 -4 20 0 24 -4 21 0 24 0 20 0 20 0 20 0 20 0 21 4 20 0 20 4 20 4 16 0 0zm16 416l-20 -4 0 0 4 -16 0 -12 4 -17 0 -12 0 -16 0 -12 4 -16 0 -12 0 -16 0 -16 0 -13 0 -16 -4 -12 0 -16 0 -12 0 -16 0 -12 -4 -12 0 -12 0 -17 -4 -12 0 -12 0 -12 -4 -12 0 -8 0 -12 -4 -12 0 -8 -4 -12 0 -9 0 -8 -4 -8 20 -4 0 8 0 8 4 13 0 8 4 12 0 8 0 12 4 12 0 12 4 12 0 12 0 12 4 13 0 12 0 16 0 12 4 16 0 12 0 16 0 12 0 16 0 13 0 16 0 16 0 12 0 16 0 16 -4 12 0 16 0 13 -4 16 0 16 0 0 0 0zm-181 254l-4 -20 0 0 12 0 8 -4 8 0 8 -4 8 -4 8 -4 8 -4 8 -8 8 -4 4 -4 9 -9 4 -4 8 -8 4 -8 4 -8 8 -8 4 -8 4 -8 4 -8 4 -8 4 -8 4 -12 4 -8 4 -12 0 -9 4 -12 4 -8 0 -12 4 -12 4 -8 0 -12 0 -12 20 4 -4 8 0 12 -4 12 0 12 -4 12 0 8 -4 13 -4 12 -4 8 -4 12 -4 8 -4 12 -4 8 -4 8 -4 12 -8 8 -4 8 -4 8 -8 8 -4 9 -8 4 -8 8 -9 8 -8 4 -8 4 -8 8 -8 4 -8 4 -8 4 -12 4 -8 0 -12 4 0 0 0 0zm-593 190l-4 -17 0 0 16 -8 16 -4 20 -4 16 -4 16 -8 17 -4 20 -4 16 -8 16 -8 20 -4 16 -8 17 -4 20 -8 16 -8 20 -8 16 -4 20 -8 16 -8 21 -5 20 -8 16 -8 20 -4 20 -8 20 -4 21 -8 20 -4 20 -8 20 -4 20 -4 20 -4 21 -8 20 -4 4 20 -20 4 -21 4 -20 4 -20 4 -20 8 -20 4 -20 4 -21 8 -20 4 -16 8 -20 9 -20 4 -16 8 -20 8 -21 4 -16 8 -20 8 -16 4 -20 8 -16 8 -17 4 -20 8 -16 8 -16 4 -20 8 -16 4 -20 8 -17 4 -16 4 -20 9 -16 4 -16 4 0 0 0 0z"/>
    </g>
    <path class="fil18" d="M2106 1553c16,-4 32,8 32,25 0,20 -16,36 -32,40 -20,4 -36,-4 -36,-24 0,-16 16,-37 36,-41z"/>
    <line class="fil0 str1" x1="2086" y1="1081" x2="2106" y2= "1586" />
    <polyline class="fil0 str1" points="2570,908 2650,1380 2606,1900 "/>
    <line class="fil0 str1" x1="2106" y1="1586" x2="2082" y2= "2094" />
    <polyline class="fil0 str1" points="1517,1247 1525,1691 1569,2203 "/>
    <polyline class="fil0 str1" points="1013,1368 944,1868 1005,2372 "/>
    <polyline class="fil0 str1" points="2570,908 2086,1081 1517,1247 1013,1368 "/>
    <polyline class="fil0 str1" points="2650,1380 2106,1586 1525,1691 944,1868 "/>
    <polyline class="fil0 str1" points="2606,1900 2082,2094 1569,2203 1005,2372 "/>
    <line class="fil0 str1" x1="1013" y1="1368" x2="577" y2= "1594" />
    <line class="fil0 str1" x1="944" y1="1868" x2="593" y2= "1961" />
    <line class="fil0 str1" x1="1005" y1="2372" x2="601" y2= "2360" />
    <line class="fil0 str1" x1="2570" y1="908" x2="2889" y2= "928" />
    <line class="fil0 str1" x1="2650" y1="1380" x2="2832" y2= "1344" />
    <polyline class="fil0 str1" points="2864,1747 2606,1900 2554,2231 "/>
    <line class="fil0 str1" x1="2082" y1="2094" x2="2062" y2= "2401" />
    <line class="fil0 str1" x1="1569" y1="2203" x2="1658" y2= "2518" />
    <line class="fil0 str1" x1="1005" y1="2372" x2="1085" y2= "2647" />
    <line class="fil0 str1" x1="1013" y1="1368" x2="1069" y2= "1009" />
    <line class="fil0 str1" x1="1517" y1="1247" x2="1541" y2= "904" />
    <line class="fil0 str1" x1="2086" y1="1081" x2="2053" y2= "779" />
    <line class="fil0 str1" x1="2570" y1="908" x2="2477" y2= "630" />
    <path class="fil19 str2" d="M2098 1529c36,-8 60,12 60,45 0,32 -24,64 -60,72 -32,8 -61,-12 -61,-44 0,-32 29,-65 61,-73z"/>
    <path class="fil19 str2" d="M2570 851c36,-8 60,13 60,41 0,32 -24,64 -60,72 -32,8 -61,-12 -61,-44 0,-32 29,-60 61,-69z"/>
    <path class="fil19 str2" d="M2606 1844c32,-8 61,12 61,44 0,33 -29,65 -61,73 -36,4 -64,-12 -64,-45 0,-32 28,-64 64,-72z"/>
    <path class="fil19 str2" d="M1005 2316c32,-8 60,8 60,40 0,32 -28,65 -60,73 -33,8 -61,-12 -61,-45 0,-32 28,-64 61,-68z"/>
    <g>
     <path class="fil2" d="M1658 2526l-4 -16 0 0 16 -5 16 -8 16 -4 17 -4 16 -4 16 -4 16 -8 16 -4 16 -4 16 -4 17 -4 12 -4 16 -4 16 -4 12 -8 16 -4 12 -4 16 -4 13 -4 12 -4 12 0 12 -4 12 -4 12 -4 12 -4 12 -4 12 0 8 -4 13 -4 8 0 8 -4 12 0 4 16 -8 0 -12 4 -8 4 -13 0 -8 4 -12 4 -12 0 -8 4 -12 4 -12 4 -12 4 -16 4 -12 4 -13 4 -16 4 -12 4 -12 4 -16 4 -16 4 -12 4 -16 4 -17 4 -16 4 -16 8 -12 4 -16 4 -16 4 -16 4 -16 5 -21 8 -16 4 -16 4 0 0 0 0zm-528 125l0 -20 0 0 12 0 16 -4 16 0 12 -5 16 -4 16 0 16 -4 17 -4 16 -4 16 0 16 -4 16 -4 16 -4 16 -4 17 -4 16 -4 20 -4 16 -4 16 -4 16 -4 16 -4 21 -8 16 -4 16 -4 16 -4 20 -4 16 -4 17 -4 16 -8 20 -4 16 -4 16 -4 4 16 -16 4 -16 4 -16 8 -20 4 -17 4 -16 4 -16 4 -20 8 -16 4 -16 4 -16 4 -21 4 -16 4 -16 4 -16 4 -20 4 -16 4 -16 4 -17 4 -16 4 -16 4 -16 5 -16 4 -16 4 -16 0 -17 4 -16 4 -16 0 -16 4 -12 4 -16 0 -16 4 0 0 0 0zm-396 -49l8 -16 0 0 8 4 12 8 9 4 12 4 8 4 12 4 8 4 12 4 8 4 12 0 12 5 12 0 12 4 13 0 12 4 12 0 12 0 12 4 12 0 12 0 12 0 16 0 12 0 13 0 16 -4 12 0 12 0 16 0 12 -4 16 0 12 0 17 -4 0 20 -13 0 -16 0 -12 4 -16 0 -12 0 -16 4 -12 0 -16 0 -13 0 -12 0 -16 0 -12 0 -12 0 -12 0 -16 0 -12 0 -12 -4 -12 0 -13 -4 -12 0 -12 -4 -12 0 -12 -4 -12 -4 -8 -4 -12 -4 -12 -4 -8 -5 -13 -4 -8 -8 -12 -4 -8 -4 0 0zm-153 -419l16 0 0 0 0 20 0 20 0 20 0 16 0 21 4 16 0 20 4 16 0 16 4 12 4 16 0 17 4 12 4 12 4 16 8 12 4 12 4 12 4 8 9 12 4 12 8 9 8 8 4 12 8 8 8 8 8 8 8 4 8 8 8 8 8 4 8 8 -8 16 -12 -8 -8 -8 -8 -4 -8 -8 -8 -8 -8 -8 -8 -8 -8 -12 -8 -8 -9 -12 -4 -8 -8 -13 -8 -12 -4 -8 -4 -12 -8 -16 -4 -12 -4 -12 -4 -16 -4 -12 -4 -17 -4 -16 0 -16 -4 -16 0 -16 -4 -16 0 -20 0 -17 0 -20 0 -20 0 -20 0 -20 0 0 0 0zm-20 -686l20 0 0 0 0 12 0 16 0 12 4 16 0 17 0 16 0 16 4 16 0 16 0 20 4 16 0 21 0 20 0 20 4 20 0 20 0 20 0 25 4 20 0 24 0 24 0 24 0 25 0 24 0 28 0 24 0 29 0 28 0 28 0 28 0 33 -4 28 -16 0 0 -32 0 -29 0 -28 4 -28 0 -28 0 -29 0 -24 0 -28 0 -24 0 -25 -4 -24 0 -24 0 -24 0 -20 0 -25 -4 -20 0 -20 0 -20 0 -20 -4 -20 0 -17 0 -20 0 -16 -4 -20 0 -16 0 -16 -4 -16 0 -17 0 -12 0 -16 -4 -16 0 -12 0 0zm56 -319l16 12 0 0 -4 8 -8 4 -4 8 -4 9 -4 8 -4 8 -4 8 -4 4 0 8 -4 8 -4 8 0 8 -4 8 0 12 -4 8 0 8 0 8 -4 13 0 8 0 8 0 12 0 8 0 12 0 12 0 12 0 12 0 8 0 16 0 13 0 12 0 12 4 16 -20 0 0 -16 0 -12 0 -12 -4 -13 0 -12 0 -12 0 -12 0 -12 0 -12 0 -12 0 -8 0 -12 4 -8 0 -12 0 -9 0 -12 4 -8 0 -8 4 -12 0 -8 4 -8 4 -8 0 -8 4 -8 4 -8 4 -8 4 -8 4 -8 4 -9 8 -8 4 -8 4 -8 0 0zm605 -218l4 17 0 0 -24 8 -24 4 -24 8 -28 4 -25 8 -24 4 -24 8 -24 4 -25 8 -20 4 -24 8 -24 8 -20 4 -24 8 -21 8 -20 4 -20 8 -20 8 -16 5 -20 8 -17 8 -16 8 -16 4 -12 8 -16 8 -12 8 -12 4 -8 8 -13 8 -8 8 -8 4 -4 8 -16 -12 8 -8 8 -8 12 -8 8 -8 13 -4 12 -8 12 -8 16 -8 12 -8 16 -4 16 -8 20 -9 17 -8 20 -4 20 -8 20 -8 20 -8 20 -4 25 -8 20 -8 24 -4 20 -8 24 -4 25 -8 24 -8 24 -4 24 -8 24 -4 29 -8 24 -5 24 -4 24 -8 0 0 0 0zm581 -109l0 17 0 0 -4 0 -8 4 -8 0 -8 0 -8 4 -12 0 -12 4 -12 0 -16 4 -13 4 -16 0 -16 4 -20 4 -16 0 -20 4 -20 4 -21 4 -20 4 -20 4 -20 4 -24 4 -21 4 -24 4 -24 4 -24 8 -24 4 -25 4 -24 4 -24 4 -24 8 -24 4 -25 4 -4 -16 25 -4 24 -8 24 -4 28 -4 24 -4 25 -8 24 -4 20 -4 24 -4 24 -4 21 -4 24 -4 20 -4 24 -4 20 -4 21 -4 16 -4 20 -4 20 -4 16 0 16 -4 16 -4 13 -4 16 0 12 -4 12 0 12 -5 8 0 12 0 8 -4 4 0 8 0 0 0zm408 -137l4 16 0 0 -16 8 -16 5 -17 8 -16 4 -20 8 -16 4 -16 8 -16 4 -16 4 -17 8 -12 4 -16 4 -16 8 -16 4 -12 4 -16 4 -12 8 -13 4 -12 4 -12 4 -12 4 -12 4 -12 0 -8 4 -12 4 -8 4 -8 0 -8 4 -9 0 -8 5 -4 0 -8 0 0 -17 4 0 4 -4 8 0 8 -4 9 0 8 -4 8 0 8 -4 12 -4 12 -4 8 -4 12 -4 12 -4 12 -4 16 -4 13 -4 12 -4 16 -4 16 -4 12 -8 16 -4 16 -4 16 -8 17 -4 16 -8 16 -4 16 -4 16 -9 16 -4 16 -8 21 -4 16 -8 0 0 0 0zm464 -153l4 20 0 0 -8 0 -8 4 -13 0 -8 4 -12 4 -12 0 -12 4 -12 4 -12 4 -12 4 -16 4 -12 4 -17 8 -12 5 -16 4 -16 4 -12 4 -16 8 -16 4 -16 8 -17 4 -16 4 -20 8 -16 4 -16 8 -16 4 -16 8 -21 4 -16 8 -16 4 -16 8 -20 4 -4 -16 16 -4 16 -8 20 -4 16 -8 16 -4 17 -8 20 -4 16 -8 16 -4 16 -8 16 -4 16 -8 17 -4 16 -4 16 -9 16 -4 16 -4 12 -8 16 -4 17 -4 12 -4 12 -4 16 -4 12 -4 12 -4 12 -4 12 -4 12 0 8 -4 13 -4 8 0 8 -4 0 0 0 0zm234 311l-20 -4 0 0 4 -21 0 -16 4 -20 0 -16 0 -16 0 -16 0 -16 0 -17 0 -16 -4 -12 0 -16 -4 -12 0 -12 -5 -12 -4 -12 -8 -8 -4 -13 -8 -8 -4 -8 -8 -4 -8 -8 -12 -4 -8 -4 -12 -4 -12 -4 -12 0 -16 -4 -17 0 -16 0 -16 4 -20 4 -20 4 -4 -20 20 -4 20 -4 20 0 16 0 17 0 16 0 16 4 12 0 12 8 12 4 12 4 8 8 12 8 8 12 9 8 4 13 8 8 4 12 4 16 4 12 0 12 4 16 0 16 0 16 4 17 0 16 -4 16 0 16 0 20 0 16 -4 20 0 21 0 0 0 0zm-57 669l-20 4 0 0 -4 -20 0 -20 -4 -20 0 -20 -4 -21 0 -20 0 -20 0 -20 0 -24 4 -20 0 -21 4 -24 0 -20 4 -24 0 -20 4 -25 4 -20 4 -24 0 -20 4 -24 4 -20 4 -25 4 -20 4 -20 4 -24 4 -20 4 -21 0 -20 4 -20 4 -20 0 -20 4 -20 21 4 -4 20 -4 16 0 20 -4 24 -4 20 -5 21 -4 20 -4 20 -4 24 0 20 -4 21 -4 24 -4 20 -4 24 -4 20 0 24 -4 21 -4 24 0 20 -4 20 0 24 -4 21 0 24 0 20 0 20 0 20 0 20 0 21 4 20 0 20 4 20 4 16 0 0zm16 416l-20 -4 0 0 4 -16 0 -12 4 -17 0 -12 0 -16 0 -12 4 -16 0 -12 0 -16 0 -16 0 -13 0 -16 -4 -12 0 -16 0 -12 0 -16 0 -12 -4 -12 0 -12 0 -17 -4 -12 0 -12 0 -12 -4 -12 0 -8 0 -12 -4 -12 0 -8 -4 -12 0 -9 0 -8 -4 -8 20 -4 0 8 0 8 4 13 0 8 4 12 0 8 0 12 4 12 0 12 4 12 0 12 0 12 4 13 0 12 0 16 0 12 4 16 0 12 0 16 0 12 0 16 0 13 0 16 0 16 0 12 0 16 0 16 -4 12 0 16 0 13 -4 16 0 16 0 0 0 0zm-181 254l-4 -20 0 0 12 0 8 -4 8 0 8 -4 8 -4 8 -4 8 -4 8 -8 8 -4 4 -4 9 -9 4 -4 8 -8 4 -8 4 -8 8 -8 4 -8 4 -8 4 -8 4 -8 4 -8 4 -12 4 -8 4 -12 0 -9 4 -12 4 -8 0 -12 4 -12 4 -8 0 -12 0 -12 20 4 -4 8 0 12 -4 12 0 12 -4 12 0 8 -4 13 -4 12 -4 8 -4 12 -4 8 -4 12 -4 8 -4 8 -4 12 -8 8 -4 8 -4 8 -8 8 -4 9 -8 4 -8 8 -9 8 -8 4 -8 4 -8 8 -8 4 -8 4 -8 4 -12 4 -8 0 -12 4 0 0 0 0zm-593 190l-4 -17 0 0 16 -8 16 -4 20 -4 16 -4 16 -8 17 -4 20 -4 16 -8 16 -8 20 -4 16 -8 17 -4 20 -8 16 -8 20 -8 16 -4 20 -8 16 -8 21 -5 20 -8 16 -8 20 -4 20 -8 20 -4 21 -8 20 -4 20 -8 20 -4 20 -4 20 -4 21 -8 20 -4 4 20 -20 4 -21 4 -20 4 -20 4 -20 8 -20 4 -20 4 -21 8 -20 4 -16 8 -20 9 -20 4 -16 8 -20 8 -21 4 -16 8 -20 8 -16 4 -20 8 -16 8 -17 4 -20 8 -16 8 -16 4 -20 8 -16 4 -20 8 -17 4 -16 4 -20 9 -16 4 -16 4 0 0 0 0z"/>
    </g>
   </g>
   <g>
    <g>
     <path class="fil20" d="M2650 2715c-92,20 -258,73 -435,125 -178,53 -371,101 -525,121 -153,21 -294,16 -391,-44 -101,-65 -157,-190 -149,-412 12,-330 -12,-540 -20,-689 -8,-146 -4,-230 56,-311 61,-77 331,-153 597,-214 266,-60 529,-101 581,-109 53,-8 226,-72 408,-137 185,-64 375,-133 463,-153 226,-49 247,93 222,298 -24,206 -96,476 -56,674 16,85 40,262 16,412 -16,125 -65,229 -169,246 -230,44 -412,149 -598,193l0 0z"/>
     <path id="_1_1" class="fil21" d="M2219 2848l-4 -16 0 0 16 -8 16 -4 16 -4 16 -4 17 -4 16 -8 16 -4 16 -4 16 -4 16 -4 12 -4 16 -4 17 -8 12 -4 16 -4 12 -4 16 -4 12 -4 16 -4 12 -4 13 -4 12 -5 12 0 12 -4 12 -4 12 -4 8 -4 12 0 8 -4 12 -4 8 0 8 -4 5 20 -9 0 -8 4 -8 0 -12 4 -8 5 -12 0 -12 4 -12 4 -12 4 -12 4 -12 4 -13 4 -12 4 -12 0 -16 4 -12 8 -16 4 -12 4 -16 4 -17 4 -12 4 -16 4 -16 4 -16 4 -16 8 -16 4 -16 4 -17 4 -16 4 -16 4 -16 8 -16 4 0 0zm-529 121l-4 -16 0 0 16 -4 17 0 12 -4 16 0 16 -4 16 -4 16 0 12 -4 17 -4 16 -4 16 -4 20 0 16 -4 16 -4 16 -4 17 -4 16 -4 16 -4 20 -4 16 -4 16 -8 16 -4 21 -4 16 -4 16 -4 16 -4 20 -4 16 -9 16 -4 17 -4 16 -4 20 -4 4 17 -16 4 -16 4 -21 4 -16 8 -16 4 -16 4 -20 4 -16 4 -16 4 -17 8 -20 4 -16 4 -16 4 -16 4 -20 4 -16 4 -17 4 -16 4 -16 4 -16 4 -20 4 -16 4 -16 4 -17 0 -16 4 -16 4 -12 4 -16 0 -16 4 -16 0 -13 4 -16 0 0 0zm-399 -48l12 -12 0 0 8 4 8 4 12 8 8 4 12 4 9 4 12 4 8 4 12 0 12 4 12 4 12 0 8 4 12 0 12 4 12 0 13 0 12 0 16 0 12 4 12 0 12 0 16 0 12 -4 12 0 17 0 12 0 12 0 16 -4 12 0 16 -4 12 0 4 16 -16 4 -12 0 -16 4 -12 0 -16 0 -12 0 -17 4 -12 0 -12 0 -16 0 -12 0 -12 0 -16 0 -12 0 -12 0 -13 -4 -12 0 -12 0 -12 -4 -12 0 -12 -4 -12 -4 -12 0 -12 -4 -12 -4 -8 -4 -13 -4 -12 -4 -8 -4 -12 -8 -8 -4 -12 -8 0 0zm-153 -416l20 0 0 0 0 21 0 20 0 20 0 16 0 20 0 16 4 17 0 16 4 16 4 16 0 16 4 16 4 12 4 12 4 13 4 16 4 12 8 8 4 12 8 12 4 8 8 12 4 8 8 8 9 8 8 9 4 8 8 8 8 8 12 8 8 4 8 8 -12 12 -8 -4 -8 -8 -8 -8 -12 -4 -8 -8 -9 -8 -8 -12 -8 -8 -4 -9 -8 -12 -8 -8 -4 -12 -8 -12 -4 -12 -8 -12 -4 -12 -4 -12 -4 -12 -4 -17 -4 -12 -4 -16 -4 -16 0 -16 -4 -16 -4 -16 0 -21 0 -16 -4 -20 0 -16 0 -20 0 -20 0 -20 0 0 0 -1zm-16 -685l16 -4 0 0 4 16 0 12 0 16 0 16 4 16 0 16 0 17 0 16 4 16 0 20 0 16 4 20 0 21 0 20 0 20 4 20 0 20 0 20 0 25 0 24 4 24 0 24 0 24 0 25 0 24 0 28 0 28 0 29 0 28 -4 28 0 28 0 33 -20 0 4 -33 0 -28 0 -28 0 -28 0 -29 0 -28 0 -28 0 -24 0 -25 0 -24 0 -24 0 -24 0 -24 0 -21 -4 -24 0 -20 0 -20 0 -20 -4 -20 0 -21 0 -20 0 -16 -4 -16 0 -20 0 -16 -4 -17 0 -16 0 -16 0 -16 -4 -12 0 -16 0 -12 0 0 0 0zm56 -319l16 12 0 0 -8 4 -4 8 -4 8 -4 8 -4 8 -4 4 -4 8 -4 9 -4 8 0 8 -4 8 -4 8 0 8 -4 8 0 8 0 12 -4 8 0 8 0 12 0 8 0 13 -4 8 0 12 0 12 0 8 0 12 4 12 0 12 0 12 0 16 0 13 0 12 -16 4 0 -16 -4 -13 0 -12 0 -12 0 -16 0 -12 0 -8 0 -12 0 -12 0 -12 0 -12 0 -9 0 -12 4 -8 0 -12 0 -8 4 -8 0 -12 0 -8 4 -8 4 -8 0 -8 4 -8 4 -8 4 -13 4 -8 4 -8 4 -4 4 -8 4 -8 8 -8 4 -8 0 0 0 0zm605 -218l4 16 0 0 -24 8 -28 4 -24 8 -25 4 -24 9 -24 4 -24 8 -25 4 -24 8 -24 4 -20 8 -24 8 -21 4 -24 8 -20 4 -20 8 -20 8 -20 8 -17 4 -20 8 -16 8 -16 4 -16 9 -16 8 -12 8 -12 4 -13 8 -12 8 -8 8 -8 4 -8 8 -4 8 -16 -12 8 -8 8 -8 8 -8 12 -8 12 -8 12 -4 13 -8 12 -9 16 -8 16 -8 16 -4 16 -8 20 -8 21 -8 16 -4 20 -8 24 -8 20 -4 20 -8 25 -8 20 -4 24 -8 24 -8 24 -4 25 -9 24 -4 24 -8 24 -4 24 -8 25 -4 28 -8 24 -4 0 0zm577 -109l4 16 0 0 -4 0 -8 0 -8 4 -8 0 -12 4 -8 0 -12 4 -17 0 -12 4 -16 0 -16 4 -16 5 -16 0 -16 4 -21 4 -20 4 -20 4 -20 4 -20 4 -24 4 -21 4 -24 4 -20 4 -24 4 -24 4 -25 8 -24 4 -24 4 -24 4 -24 8 -25 4 -24 4 -4 -16 24 -4 25 -8 24 -4 24 -4 24 -8 24 -4 25 -4 24 -4 24 -4 24 -4 20 -8 25 -4 20 -4 20 -5 20 -4 20 0 20 -4 21 -4 16 -4 20 -4 16 0 16 -4 12 -4 16 0 13 -4 12 0 12 -4 8 0 8 -4 8 0 8 0 4 0 0 0 0 0zm412 -137l4 16 0 0 -17 8 -16 4 -20 8 -16 4 -16 8 -16 4 -16 4 -17 9 -16 4 -16 8 -16 4 -16 4 -12 8 -16 4 -12 4 -17 4 -12 4 -12 4 -16 8 -12 4 -12 0 -8 4 -12 4 -12 4 -9 4 -8 0 -8 4 -8 4 -8 0 -8 0 -4 4 -8 0 -4 -16 8 -4 4 0 8 0 4 -4 8 0 12 -4 8 -4 9 0 12 -4 8 -4 12 -4 12 -4 12 -4 12 -4 12 -4 16 -4 12 -4 17 -4 12 -8 16 -4 16 -4 16 -9 16 -4 12 -4 16 -8 21 -4 16 -8 16 -4 16 -8 16 -4 16 -8 21 -4 0 0 0 0zm463 -153l4 16 0 0 -8 4 -12 0 -8 4 -12 4 -8 0 -12 4 -12 4 -12 4 -12 4 -12 4 -17 4 -12 4 -16 4 -12 8 -16 4 -16 4 -16 4 -16 8 -17 4 -16 4 -16 9 -16 4 -16 8 -16 4 -16 8 -17 4 -20 8 -16 4 -16 8 -16 4 -20 8 -16 4 -5 -16 17 -8 16 -4 16 -8 20 -4 16 -8 16 -4 17 -8 16 -4 20 -9 16 -4 16 -4 16 -8 16 -4 17 -8 16 -4 16 -4 12 -4 16 -8 16 -4 12 -4 16 -4 13 -4 12 -4 16 -4 12 -4 12 -4 8 -4 12 -4 12 0 8 -4 12 0 8 -4 0 0zm230 306l-16 0 0 0 0 -20 4 -16 0 -20 4 -16 0 -16 0 -21 0 -16 0 -12 -4 -16 0 -16 0 -12 -4 -12 -4 -12 -4 -13 -4 -12 -4 -8 -4 -12 -8 -8 -8 -8 -8 -4 -8 -8 -8 -4 -12 -4 -8 -4 -12 -4 -17 -4 -12 0 -16 0 -16 0 -20 4 -16 0 -20 4 -5 -16 21 -4 20 -4 20 0 16 0 16 0 16 0 17 0 12 4 12 4 12 8 12 4 8 8 8 8 8 8 8 12 8 8 4 12 4 12 4 13 4 16 4 12 4 16 0 12 0 16 0 16 0 16 0 21 0 16 0 20 -4 16 0 20 -4 16 0 0 0 0zm-56 674l-16 4 0 0 -4 -20 -4 -20 0 -20 -4 -21 0 -20 0 -20 0 -20 0 -24 0 -20 0 -21 4 -24 0 -20 4 -24 0 -20 4 -25 4 -20 4 -24 0 -20 4 -24 4 -21 4 -20 4 -24 4 -20 4 -24 4 -20 0 -21 4 -20 4 -20 4 -20 4 -20 0 -21 4 -20 16 0 0 20 -4 21 -4 20 -4 20 0 20 -4 24 -4 21 -4 20 -4 24 -4 20 -4 20 -4 24 0 21 -4 24 -4 20 -4 24 0 20 -4 21 -4 24 0 20 -4 24 0 20 0 21 -4 24 0 20 0 20 4 20 0 20 0 21 4 20 0 16 4 20 0 0zm20 412l-20 0 0 0 4 -17 0 -12 0 -16 4 -12 0 -16 0 -12 0 -16 0 -16 0 -13 0 -16 0 -12 0 -16 0 -12 0 -16 0 -12 0 -16 -4 -13 0 -12 0 -16 -4 -12 0 -12 0 -12 -4 -12 0 -12 0 -12 -4 -8 0 -13 -4 -8 0 -12 0 -8 -4 -8 0 -8 16 -4 4 8 0 8 4 8 0 12 0 8 4 13 0 12 0 12 4 8 0 12 4 16 0 12 0 12 4 12 0 16 0 13 0 12 0 16 4 12 0 16 0 16 0 12 0 16 0 17 0 12 0 16 -4 12 0 16 0 16 0 12 -4 16 0 13 0 0 0 0zm-181 258l-4 -20 0 0 12 0 8 -4 8 -5 8 0 8 -4 8 -4 8 -4 8 -8 4 -4 8 -4 4 -8 8 -8 4 -4 8 -8 4 -8 4 -8 9 -8 4 -8 4 -8 4 -8 4 -12 4 -9 4 -8 0 -12 4 -8 4 -12 4 -12 0 -8 4 -12 0 -12 4 -8 0 -12 20 0 -4 12 0 12 -4 12 0 12 -4 8 -4 12 -4 12 0 12 -4 8 -4 13 -4 8 -4 12 -4 8 -4 8 -8 8 -4 12 -4 8 -8 8 -5 8 -8 4 -4 8 -8 8 -8 4 -8 8 -8 4 -8 9 -8 4 -8 4 -12 4 -8 0 -8 4 -12 4 0 0 0 0zm-598 189l-4 -20 0 0 21 -4 16 -4 16 -4 20 -4 16 -8 16 -4 17 -8 20 -4 16 -8 16 -4 20 -8 16 -8 20 -4 17 -8 20 -9 16 -4 20 -8 16 -8 20 -8 17 -4 20 -8 20 -4 20 -8 16 -8 20 -4 20 -8 21 -4 20 -4 20 -4 24 -8 20 -4 21 -4 4 20 -21 4 -20 4 -24 4 -20 4 -20 4 -16 8 -21 4 -20 8 -20 4 -20 8 -16 4 -20 8 -21 8 -16 4 -20 8 -16 9 -20 4 -16 8 -21 8 -16 8 -20 4 -16 8 -16 4 -20 8 -16 8 -17 4 -20 8 -16 4 -20 4 -16 4 -16 8 -21 4 0 0z"/>
    </g>
    <path class="fil22" d="M2663 1876c20,-4 36,4 36,24 0,21 -16,37 -36,41 -21,4 -33,-4 -33,-25 0,-20 12,-36 33,-40z"/>
    <line class="fil0 str1" x1="2642" y1="1400" x2="2663" y2= "1908" />
    <polyline class="fil0 str1" points="3131,1231 3207,1703 3163,2223 "/>
    <line class="fil0 str1" x1="2663" y1="1908" x2="2642" y2= "2417" />
    <polyline class="fil0 str1" points="2074,1570 2086,2009 2130,2526 "/>
    <polyline class="fil0 str1" points="1573,1691 1505,2191 1565,2695 "/>
    <polyline class="fil0 str1" points="3131,1231 2642,1400 2074,1570 1573,1691 "/>
    <polyline class="fil0 str1" points="3207,1703 2663,1908 2086,2009 1505,2191 "/>
    <polyline class="fil0 str1" points="3163,2223 2642,2417 2130,2526 1565,2695 "/>
    <line class="fil0 str1" x1="1573" y1="1691" x2="1138" y2= "1912" />
    <line class="fil0 str1" x1="1505" y1="2191" x2="1154" y2= "2280" />
    <line class="fil0 str1" x1="1565" y1="2695" x2="1158" y2= "2683" />
    <line class="fil0 str1" x1="3131" y1="1231" x2="3449" y2= "1251" />
    <line class="fil0 str1" x1="3207" y1="1703" x2="3393" y2= "1666" />
    <polyline class="fil0 str1" points="3425,2070 3163,2223 3114,2554 "/>
    <line class="fil0 str1" x1="2642" y1="2417" x2="2618" y2= "2719" />
    <line class="fil0 str1" x1="2130" y1="2526" x2="2215" y2= "2840" />
    <line class="fil0 str1" x1="1565" y1="2695" x2="1646" y2= "2965" />
    <line class="fil0 str1" x1="1573" y1="1691" x2="1630" y2= "1327" />
    <line class="fil0 str1" x1="2074" y1="1570" x2="2102" y2= "1227" />
    <line class="fil0 str1" x1="2642" y1="1400" x2="2614" y2= "1102" />
    <line class="fil0 str1" x1="3131" y1="1231" x2="3038" y2= "952" />
    <path class="fil23 str2" d="M2663 1852c36,-8 60,12 60,44 0,29 -24,61 -60,69 -33,8 -61,-12 -61,-44 0,-29 28,-61 61,-69z"/>
    <path class="fil23 str2" d="M3131 1170c32,-4 60,12 60,45 0,32 -28,64 -60,72 -33,8 -61,-12 -61,-44 0,-32 28,-65 61,-73z"/>
    <path class="fil23 str2" d="M1565 2635c33,-8 61,12 61,44 0,32 -28,65 -61,73 -36,8 -60,-13 -60,-45 0,-32 24,-64 60,-72z"/>
    <path class="fil23 str2" d="M3163 2167c36,-8 60,12 60,44 0,28 -24,61 -60,69 -32,8 -61,-13 -61,-41 0,-32 29,-64 61,-72z"/>
    <g>
     <path class="fil2" d="M2219 2848l-4 -16 0 0 16 -8 16 -4 16 -4 16 -4 17 -4 16 -8 16 -4 16 -4 16 -4 16 -4 12 -4 16 -4 17 -8 12 -4 16 -4 12 -4 16 -4 12 -4 16 -4 12 -4 13 -4 12 -5 12 0 12 -4 12 -4 12 -4 8 -4 12 0 8 -4 12 -4 8 0 8 -4 5 20 -9 0 -8 4 -8 0 -12 4 -8 5 -12 0 -12 4 -12 4 -12 4 -12 4 -12 4 -13 4 -12 4 -12 0 -16 4 -12 8 -16 4 -12 4 -16 4 -17 4 -12 4 -16 4 -16 4 -16 4 -16 8 -16 4 -16 4 -17 4 -16 4 -16 4 -16 8 -16 4 0 0zm-529 121l-4 -16 0 0 16 -4 17 0 12 -4 16 0 16 -4 16 -4 16 0 12 -4 17 -4 16 -4 16 -4 20 0 16 -4 16 -4 16 -4 17 -4 16 -4 16 -4 20 -4 16 -4 16 -8 16 -4 21 -4 16 -4 16 -4 16 -4 20 -4 16 -9 16 -4 17 -4 16 -4 20 -4 4 17 -16 4 -16 4 -21 4 -16 8 -16 4 -16 4 -20 4 -16 4 -16 4 -17 8 -20 4 -16 4 -16 4 -16 4 -20 4 -16 4 -17 4 -16 4 -16 4 -16 4 -20 4 -16 4 -16 4 -17 0 -16 4 -16 4 -12 4 -16 0 -16 4 -16 0 -13 4 -16 0 0 0zm-399 -48l12 -12 0 0 8 4 8 4 12 8 8 4 12 4 9 4 12 4 8 4 12 0 12 4 12 4 12 0 8 4 12 0 12 4 12 0 13 0 12 0 16 0 12 4 12 0 12 0 16 0 12 -4 12 0 17 0 12 0 12 0 16 -4 12 0 16 -4 12 0 4 16 -16 4 -12 0 -16 4 -12 0 -16 0 -12 0 -17 4 -12 0 -12 0 -16 0 -12 0 -12 0 -16 0 -12 0 -12 0 -13 -4 -12 0 -12 0 -12 -4 -12 0 -12 -4 -12 -4 -12 0 -12 -4 -12 -4 -8 -4 -13 -4 -12 -4 -8 -4 -12 -8 -8 -4 -12 -8 0 0zm-153 -416l20 0 0 0 0 21 0 20 0 20 0 16 0 20 0 16 4 17 0 16 4 16 4 16 0 16 4 16 4 12 4 12 4 13 4 16 4 12 8 8 4 12 8 12 4 8 8 12 4 8 8 8 9 8 8 9 4 8 8 8 8 8 12 8 8 4 8 8 -12 12 -8 -4 -8 -8 -8 -8 -12 -4 -8 -8 -9 -8 -8 -12 -8 -8 -4 -9 -8 -12 -8 -8 -4 -12 -8 -12 -4 -12 -8 -12 -4 -12 -4 -12 -4 -12 -4 -17 -4 -12 -4 -16 -4 -16 0 -16 -4 -16 -4 -16 0 -21 0 -16 -4 -20 0 -16 0 -20 0 -20 0 -20 0 0 0 -1zm-16 -685l16 -4 0 0 4 16 0 12 0 16 0 16 4 16 0 16 0 17 0 16 4 16 0 20 0 16 4 20 0 21 0 20 0 20 4 20 0 20 0 20 0 25 0 24 4 24 0 24 0 24 0 25 0 24 0 28 0 28 0 29 0 28 -4 28 0 28 0 33 -20 0 4 -33 0 -28 0 -28 0 -28 0 -29 0 -28 0 -28 0 -24 0 -25 0 -24 0 -24 0 -24 0 -24 0 -21 -4 -24 0 -20 0 -20 0 -20 -4 -20 0 -21 0 -20 0 -16 -4 -16 0 -20 0 -16 -4 -17 0 -16 0 -16 0 -16 -4 -12 0 -16 0 -12 0 0 0 0zm56 -319l16 12 0 0 -8 4 -4 8 -4 8 -4 8 -4 8 -4 4 -4 8 -4 9 -4 8 0 8 -4 8 -4 8 0 8 -4 8 0 8 0 12 -4 8 0 8 0 12 0 8 0 13 -4 8 0 12 0 12 0 8 0 12 4 12 0 12 0 12 0 16 0 13 0 12 -16 4 0 -16 -4 -13 0 -12 0 -12 0 -16 0 -12 0 -8 0 -12 0 -12 0 -12 0 -12 0 -9 0 -12 4 -8 0 -12 0 -8 4 -8 0 -12 0 -8 4 -8 4 -8 0 -8 4 -8 4 -8 4 -13 4 -8 4 -8 4 -4 4 -8 4 -8 8 -8 4 -8 0 0 0 0zm605 -218l4 16 0 0 -24 8 -28 4 -24 8 -25 4 -24 9 -24 4 -24 8 -25 4 -24 8 -24 4 -20 8 -24 8 -21 4 -24 8 -20 4 -20 8 -20 8 -20 8 -17 4 -20 8 -16 8 -16 4 -16 9 -16 8 -12 8 -12 4 -13 8 -12 8 -8 8 -8 4 -8 8 -4 8 -16 -12 8 -8 8 -8 8 -8 12 -8 12 -8 12 -4 13 -8 12 -9 16 -8 16 -8 16 -4 16 -8 20 -8 21 -8 16 -4 20 -8 24 -8 20 -4 20 -8 25 -8 20 -4 24 -8 24 -8 24 -4 25 -9 24 -4 24 -8 24 -4 24 -8 25 -4 28 -8 24 -4 0 0zm577 -109l4 16 0 0 -4 0 -8 0 -8 4 -8 0 -12 4 -8 0 -12 4 -17 0 -12 4 -16 0 -16 4 -16 5 -16 0 -16 4 -21 4 -20 4 -20 4 -20 4 -20 4 -24 4 -21 4 -24 4 -20 4 -24 4 -24 4 -25 8 -24 4 -24 4 -24 4 -24 8 -25 4 -24 4 -4 -16 24 -4 25 -8 24 -4 24 -4 24 -8 24 -4 25 -4 24 -4 24 -4 24 -4 20 -8 25 -4 20 -4 20 -5 20 -4 20 0 20 -4 21 -4 16 -4 20 -4 16 0 16 -4 12 -4 16 0 13 -4 12 0 12 -4 8 0 8 -4 8 0 8 0 4 0 0 0 0 0zm412 -137l4 16 0 0 -17 8 -16 4 -20 8 -16 4 -16 8 -16 4 -16 4 -17 9 -16 4 -16 8 -16 4 -16 4 -12 8 -16 4 -12 4 -17 4 -12 4 -12 4 -16 8 -12 4 -12 0 -8 4 -12 4 -12 4 -9 4 -8 0 -8 4 -8 4 -8 0 -8 0 -4 4 -8 0 -4 -16 8 -4 4 0 8 0 4 -4 8 0 12 -4 8 -4 9 0 12 -4 8 -4 12 -4 12 -4 12 -4 12 -4 12 -4 16 -4 12 -4 17 -4 12 -8 16 -4 16 -4 16 -9 16 -4 12 -4 16 -8 21 -4 16 -8 16 -4 16 -8 16 -4 16 -8 21 -4 0 0 0 0zm463 -153l4 16 0 0 -8 4 -12 0 -8 4 -12 4 -8 0 -12 4 -12 4 -12 4 -12 4 -12 4 -17 4 -12 4 -16 4 -12 8 -16 4 -16 4 -16 4 -16 8 -17 4 -16 4 -16 9 -16 4 -16 8 -16 4 -16 8 -17 4 -20 8 -16 4 -16 8 -16 4 -20 8 -16 4 -5 -16 17 -8 16 -4 16 -8 20 -4 16 -8 16 -4 17 -8 16 -4 20 -9 16 -4 16 -4 16 -8 16 -4 17 -8 16 -4 16 -4 12 -4 16 -8 16 -4 12 -4 16 -4 13 -4 12 -4 16 -4 12 -4 12 -4 8 -4 12 -4 12 0 8 -4 12 0 8 -4 0 0zm230 306l-16 0 0 0 0 -20 4 -16 0 -20 4 -16 0 -16 0 -21 0 -16 0 -12 -4 -16 0 -16 0 -12 -4 -12 -4 -12 -4 -13 -4 -12 -4 -8 -4 -12 -8 -8 -8 -8 -8 -4 -8 -8 -8 -4 -12 -4 -8 -4 -12 -4 -17 -4 -12 0 -16 0 -16 0 -20 4 -16 0 -20 4 -5 -16 21 -4 20 -4 20 0 16 0 16 0 16 0 17 0 12 4 12 4 12 8 12 4 8 8 8 8 8 8 8 12 8 8 4 12 4 12 4 13 4 16 4 12 4 16 0 12 0 16 0 16 0 16 0 21 0 16 0 20 -4 16 0 20 -4 16 0 0 0 0zm-56 674l-16 4 0 0 -4 -20 -4 -20 0 -20 -4 -21 0 -20 0 -20 0 -20 0 -24 0 -20 0 -21 4 -24 0 -20 4 -24 0 -20 4 -25 4 -20 4 -24 0 -20 4 -24 4 -21 4 -20 4 -24 4 -20 4 -24 4 -20 0 -21 4 -20 4 -20 4 -20 4 -20 0 -21 4 -20 16 0 0 20 -4 21 -4 20 -4 20 0 20 -4 24 -4 21 -4 20 -4 24 -4 20 -4 20 -4 24 0 21 -4 24 -4 20 -4 24 0 20 -4 21 -4 24 0 20 -4 24 0 20 0 21 -4 24 0 20 0 20 4 20 0 20 0 21 4 20 0 16 4 20 0 0zm20 412l-20 0 0 0 4 -17 0 -12 0 -16 4 -12 0 -16 0 -12 0 -16 0 -16 0 -13 0 -16 0 -12 0 -16 0 -12 0 -16 0 -12 0 -16 -4 -13 0 -12 0 -16 -4 -12 0 -12 0 -12 -4 -12 0 -12 0 -12 -4 -8 0 -13 -4 -8 0 -12 0 -8 -4 -8 0 -8 16 -4 4 8 0 8 4 8 0 12 0 8 4 13 0 12 0 12 4 8 0 12 4 16 0 12 0 12 4 12 0 16 0 13 0 12 0 16 4 12 0 16 0 16 0 12 0 16 0 17 0 12 0 16 -4 12 0 16 0 16 0 12 -4 16 0 13 0 0 0 0zm-181 258l-4 -20 0 0 12 0 8 -4 8 -5 8 0 8 -4 8 -4 8 -4 8 -8 4 -4 8 -4 4 -8 8 -8 4 -4 8 -8 4 -8 4 -8 9 -8 4 -8 4 -8 4 -8 4 -12 4 -9 4 -8 0 -12 4 -8 4 -12 4 -12 0 -8 4 -12 0 -12 4 -8 0 -12 20 0 -4 12 0 12 -4 12 0 12 -4 8 -4 12 -4 12 0 12 -4 8 -4 13 -4 8 -4 12 -4 8 -4 8 -8 8 -4 12 -4 8 -8 8 -5 8 -8 4 -4 8 -8 8 -8 4 -8 8 -8 4 -8 9 -8 4 -8 4 -12 4 -8 0 -8 4 -12 4 0 0 0 0zm-598 189l-4 -20 0 0 21 -4 16 -4 16 -4 20 -4 16 -8 16 -4 17 -8 20 -4 16 -8 16 -4 20 -8 16 -8 20 -4 17 -8 20 -9 16 -4 20 -8 16 -8 20 -8 17 -4 20 -8 20 -4 20 -8 16 -8 20 -4 20 -8 21 -4 20 -4 20 -4 24 -8 20 -4 21 -4 4 20 -21 4 -20 4 -24 4 -20 4 -20 4 -16 8 -21 4 -20 8 -20 4 -20 8 -16 4 -20 8 -21 8 -16 4 -20 8 -16 9 -20 4 -16 8 -21 8 -16 8 -20 4 -16 8 -16 4 -20 8 -16 8 -17 4 -20 8 -16 4 -20 4 -16 4 -16 8 -21 4 0 0z"/>
    </g>
   </g>
   <line class="fil24 str3" x1="2013" y1="581" x2="3131" y2= "1231" />
   <line class="fil24 str3" x1="1545" y1="1259" x2="2663" y2= "1908" />
   <line class="fil24 str3" x1="444" y1="2046" x2="1565" y2= "2695" />
   <line class="fil24 str3" x1="2045" y1="1578" x2="3163" y2= "2223" />
  </g>
 </g>
</svg>
