<?xml version="1.0" encoding="UTF-8"?>
<!DOCTYPE svg PUBLIC "-//W3C//DTD SVG 1.1//EN" "http://www.w3.org/Graphics/SVG/1.1/DTD/svg11.dtd">
<!-- Creator: CorelDRAW X7 -->
<svg xmlns="http://www.w3.org/2000/svg" xml:space="preserve" width="71.7519mm" height="36.271mm" version="1.1" style="shape-rendering:geometricPrecision; text-rendering:geometricPrecision; image-rendering:optimizeQuality; fill-rule:evenodd; clip-rule:evenodd"
viewBox="0 0 751 380"
 xmlns:xlink="http://www.w3.org/1999/xlink">
 <defs>
  <style type="text/css">
   <![CDATA[
    .str1 {stroke:#373435;stroke-width:3.69333}
    .str3 {stroke:#ED3237;stroke-width:1.84614}
    .str5 {stroke:#E6E7E8;stroke-width:1.84719}
    .str4 {stroke:#373435;stroke-width:1.84719}
    .str2 {stroke:#ED3237;stroke-width:1.84719}
    .str6 {stroke:#D2D3D5;stroke-width:0.797936}
    .str0 {stroke:#373435;stroke-width:0.797936}
    .str7 {stroke:#373435;stroke-width:0.797936}
    .fil1 {fill:none}
    .fil11 {fill:none;fill-rule:nonzero}
    .fil7 {fill:#FEFEFE}
    .fil3 {fill:#E6E7E8}
    .fil4 {fill:#D2D3D5}
    .fil6 {fill:#BDBFC1}
    .fil16 {fill:#373435}
    .fil0 {fill:#ED3237}
    .fil8 {fill:#D2E28B}
    .fil2 {fill:#A8CF45}
    .fil9 {fill:#0098DA}
    .fil5 {fill:#373435;fill-rule:nonzero}
    .fil14 {fill:#F5886C;fill-rule:nonzero}
    .fil10 {fill:#F06277;fill-rule:nonzero}
    .fil17 {fill:#ED3237;fill-rule:nonzero}
    .fil15 {fill:#A8CF45;fill-rule:nonzero}
    .fil18 {fill:#228F4F;fill-rule:nonzero}
    .fil12 {fill:#00A859;fill-rule:nonzero}
    .fil13 {fill:#0098DA;fill-rule:nonzero}
   ]]>
  </style>
 </defs>
 <g id="Extensions_2">
  <metadata id="CorelCorpID_0Corel-Layer"/>
  <path class="fil0 str0" d="M551 267c-1,0 -2,-3 -6,-3 -1,0 -11,0 -8,3 -2,-1 3,-13 3,-15 0,-1 2,-8 2,-8 1,4 10,20 9,23z"/>
  <path class="fil0 str0" d="M544 271c19,-4 -6,-11 -7,-4 -3,0 5,5 7,4z"/>
  <path class="fil1 str1" d="M546 347c0,0 -2,-69 -2,-78l0 -1"/>
  <path class="fil1 str2" d="M546 345c0,0 -2,-66 -2,-74l0 -2"/>
  <path class="fil1 str1" d="M662 118c-1,6 -39,54 -45,62"/>
  <path class="fil1 str3" d="M661 120c-1,5 -37,50 -42,58"/>
  <path class="fil1 str1" d="M551 113c-1,5 -39,53 -45,62"/>
  <path class="fil1 str3" d="M549 115c0,5 -36,50 -42,58"/>
  <path class="fil2 str4" d="M635 245c1,0 16,-1 13,1 2,5 -1,7 0,10 -2,0 -2,3 -10,1 0,0 -3,-7 -3,-12z"/>
  <path class="fil3 str5" d="M667 182c2,8 -15,24 -20,30 -11,15 -36,42 -43,56 -8,15 -26,34 -36,51 0,-2 3,-43 3,-43 -1,-5 20,-34 25,-40 3,-5 50,-64 50,-65 4,-8 26,-31 23,-38 2,4 -2,50 -2,49z"/>
  <path class="fil4 str6" d="M568 318c0,-8 3,-40 2,-41 0,0 1,-1 1,-1 -1,0 -61,1 -70,-1 -13,-2 -104,-1 -122,0 -9,1 -65,1 -67,1 0,1 5,-53 4,-55l0 0c1,-2 -66,-1 -74,-1 -20,1 -162,-4 -167,0 2,54 34,62 42,106l1 0 0 0 0 0c0,0 1,0 1,0 0,0 0,0 0,0 1,0 1,0 1,0l3 0c0,0 1,0 1,1l0 -1 1 0c0,0 0,0 0,0l0 0c0,0 1,1 1,1l0 0 2 0c1,0 1,0 1,0l2 0c0,0 0,0 0,0l1 0c0,0 0,-1 0,-1l1 0c1,0 1,0 1,0 0,0 0,0 0,0l0 0c1,0 1,0 1,0l8 0c0,0 0,0 0,0l2 0c0,0 1,0 1,0 0,0 0,0 0,0 1,0 1,0 1,0l0 0 4 0c0,0 0,0 0,0l0 0 0 0c1,0 1,0 1,0l0 0 0 0c1,0 1,0 1,0 0,0 0,0 1,0l0 0c0,-1 0,-1 0,-1l0 0c0,0 0,0 1,0l1 0c0,0 1,0 1,0 0,0 0,0 0,0l3 0c1,0 2,0 3,0 0,0 0,0 0,0l0 0c1,0 1,0 1,0 1,0 1,0 1,0l0 0c1,0 1,0 1,0l1 0c4,-1 8,-2 12,-2l0 0c2,0 3,0 5,0 0,0 0,0 0,0l1 0c0,0 0,0 0,0l0 0 0 0c1,0 1,0 1,0 0,0 1,0 1,0l7 0c1,0 1,0 1,0 0,0 0,-1 0,-1l1 0c1,0 1,0 1,0 0,0 0,0 1,0 0,0 0,0 0,0l0 0c0,0 0,0 1,0l6 0c0,0 0,0 0,0l1 0c0,0 0,0 0,0l4 0c0,0 0,0 1,0l-1 0 1 0c0,0 0,0 1,0l0 0 2 0c0,0 0,0 0,0l1 0c0,0 0,0 1,0 0,0 0,0 0,0l1 0c0,0 0,0 0,0l0 0 1 0c0,0 0,0 0,0 0,-1 1,-1 1,-1l3 0c0,0 0,1 0,1l3 0c0,0 0,-1 1,-1l4 0c0,0 1,0 1,0 0,0 0,0 0,0 0,0 0,0 1,0l0 0 0 0c0,0 0,0 0,0 1,0 1,0 1,0 0,0 1,0 1,0l1 0c0,0 1,0 1,0l4 0c1,0 1,0 1,0l0 0 2 0c0,0 0,0 0,0l4 0c0,0 1,0 1,0 0,0 0,0 1,0 0,0 0,0 0,0 1,0 1,0 1,0 0,0 0,0 0,0l4 0c0,0 0,0 0,0l1 0c0,0 0,0 0,0 0,0 1,0 1,0l2 0c2,0 4,0 5,0 1,0 1,0 1,0l0 0 0 0 0 0 0 0 0 0 0 0 0 0c0,0 0,0 1,0 0,0 0,0 0,0 0,0 0,0 1,0 0,0 0,0 1,0l0 0 0 0c0,0 0,0 0,0l0 0 0 0c0,0 0,0 0,0l0 0c1,0 1,0 1,0 0,0 1,0 1,0l0 0 0 0c0,0 0,0 0,0 0,0 0,0 1,0l0 0 0 0 0 0c0,0 0,0 0,0l0 0c1,0 1,0 1,0l0 0c0,0 0,0 0,0 0,0 0,0 1,0 0,0 0,0 0,0l3 0c0,0 0,0 0,0 1,0 1,0 1,0l1 0c0,0 0,0 0,0 1,0 1,0 1,0l1 0c1,0 1,0 2,0l4 0c0,0 0,0 0,0l0 0c0,0 1,0 1,0 0,0 0,0 0,0 0,0 0,0 1,0 0,0 0,0 0,0 0,0 1,0 1,0l3 0c0,0 0,0 0,0 0,0 1,0 1,0 0,1 0,0 1,0 0,1 1,1 1,1l1 0c0,0 0,0 0,0l2 0c0,0 0,0 0,0 0,0 0,0 0,0 0,0 1,0 1,0 0,0 0,0 0,0 0,0 0,0 0,0l2 0c1,0 1,0 1,0l1 0c0,0 0,0 0,0l0 0 0 0c0,0 0,0 0,0 1,0 1,0 1,0 0,0 0,0 0,0 0,0 1,0 1,0 0,0 0,0 0,0 0,0 0,0 0,0 1,0 1,0 1,0 0,0 0,0 1,0 0,0 0,0 1,0 0,0 0,0 0,0 1,0 2,0 3,1l0 0 0 0 1 0c0,0 0,0 0,0 0,0 0,-1 0,-1l2 0c0,0 0,0 0,0 2,-2 118,-5 131,-5 16,0 48,1 64,3 10,1 45,0 56,-1 1,0 7,0 7,0l-3 -1z"/>
  <path class="fil5" d="M67 71c0,0 0,0 0,0 -1,0 -2,0 -3,0 -1,0 -2,0 -3,0 0,0 0,0 0,0 0,1 0,1 0,1 1,0 1,0 1,0 0,1 -1,2 -1,2l-7 9 -3 -10c0,-1 0,-1 0,-1 0,0 1,0 1,0 1,0 1,0 1,-1 0,0 0,0 0,0 -2,0 -3,0 -4,0 -1,0 -2,0 -4,0 0,0 0,0 0,0 0,1 0,1 1,1 1,0 1,0 2,1l3 11c0,0 0,0 0,0 0,0 -1,6 -1,6 -1,2 -1,2 -3,2 -1,0 -1,0 -1,1 0,0 0,0 1,0 1,0 2,0 3,0 2,0 3,0 4,0 1,0 1,0 1,0 0,-1 0,-1 -1,-1 -1,0 -2,0 -2,0 0,-1 1,-2 1,-3l1 -4c0,-1 0,-1 0,-1l8 -10c2,-2 3,-2 4,-2 1,0 1,0 1,-1z"/>
  <path class="fil5" d="M31 191c0,0 0,0 0,0 -1,0 -1,0 -1,1 -1,4 -2,7 -8,7l-5 0 17 -21c0,0 0,0 0,-1 0,0 0,0 0,0l-13 0c-1,0 -1,0 -1,1l-2 6c0,0 0,0 0,0 0,1 0,1 0,1 1,0 1,0 1,-1 1,-3 2,-6 8,-6l4 0 -17 21c0,0 0,0 0,1 0,0 0,0 0,0l14 0c1,0 1,0 1,-1l2 -7c0,0 0,-1 0,-1z"/>
  <path class="fil5" d="M125 136c0,-1 -1,-1 -1,-1 -2,0 -2,0 -2,-1l-4 -11 5 -6 1 0c0,-1 2,-2 4,-3 1,0 1,0 1,0 0,0 0,-1 -1,-1 -1,0 -2,1 -2,1 -2,0 -3,-1 -4,-1 0,0 -1,0 -1,1 0,0 1,0 1,0 0,1 1,1 1,1 0,1 0,1 -1,2l-5 5 -2 -6 0 -1c0,0 1,0 2,-1 0,0 0,0 0,0 0,0 0,-1 0,-1 -1,0 -3,1 -4,1 -1,0 -2,-1 -3,-1 -1,0 -1,0 -1,1 0,0 0,0 1,0 2,0 2,1 2,2l3 9 -7 8c-2,2 -3,2 -4,2 -1,0 -1,1 -1,1 0,0 0,0 1,0 0,0 1,0 2,0 2,0 3,0 4,0 0,0 0,0 0,0 0,-1 0,-1 0,-1 -1,0 -1,-1 -1,-1 0,0 0,0 0,-1 0,0 0,0 0,0l0 0 7 -7 3 8c0,0 0,0 0,0 0,0 -1,1 -2,1 0,0 -1,0 -1,1 0,0 1,0 1,0 1,0 2,0 4,0 1,0 2,0 3,0 0,0 1,0 1,0z"/>
  <path class="fil6" d="M76 221c0,-2 211,0 240,0 9,-19 124,-123 137,-151 -84,0 -172,-4 -257,-2 -6,6 -50,13 -56,56 -4,34 -9,42 -36,59 -11,6 -33,23 -30,37l2 1z"/>
  <path class="fil1 str4" d="M196 68c85,-2 173,2 257,2 -13,28 -128,132 -137,151 -29,0 -240,-2 -240,0"/>
  <path class="fil3 str4" d="M313 263c0,0 0,0 0,0 -1,4 -1,7 -1,12l0 0c7,-8 135,-136 137,-146 0,-19 4,-39 4,-59 4,3 -60,71 -67,77 -15,14 -29,30 -45,44 -2,3 -16,18 -23,26 -1,2 -1,3 -2,4 0,13 -3,27 -3,42z"/>
  <path class="fil6 str4" d="M312 275l0 0c27,5 172,-5 188,-1 4,2 69,-1 70,3 -3,-3 7,-12 8,-15 6,-15 40,-54 48,-67 5,-10 46,-55 43,-62 2,-2 -16,-1 -19,-1 -30,0 -115,1 -139,-2 -18,-2 -50,3 -62,-1 1,7 -23,26 -29,33 -4,6 -18,18 -21,25 0,0 -44,43 -48,48 -10,11 -23,25 -34,35 -1,1 -4,5 -5,5z"/>
  <path class="fil2 str4" d="M337 67c2,2 8,11 9,14 2,-5 6,-9 6,-14 0,-5 -7,-7 -10,-5 -1,0 -5,5 -5,5z"/>
  <path class="fil1 str4" d="M570 277c0,7 -2,37 -2,40"/>
  <path class="fil1 str4" d="M669 133c1,3 0,45 -2,49 -1,11 -83,107 -93,128 0,1 -5,6 -6,8 0,0 -61,1 -67,1 -38,-2 -92,-2 -131,1 -6,1 -56,2 -58,2"/>
  <path class="fil1 str0" d="M196 68c-6,6 -50,13 -56,56 -4,34 -9,42 -36,59 -11,6 -33,23 -30,37l2 1"/>
  <path class="fil3 str4" d="M469 211c-8,-12 24,-35 42,-36 11,-1 56,-10 56,15 0,20 -51,30 -66,32 -12,1 -24,0 -32,-11z"/>
  <path class="fil7 str4" d="M556 205c0,1 -14,8 -17,8 -6,1 -16,6 -24,6 -3,0 -11,4 -20,3 -2,-1 -12,-1 -13,-1 12,-9 10,-11 27,-15 7,-2 37,-6 42,-3 0,0 5,1 5,2z"/>
  <path class="fil1 str0" d="M74 220c2,54 34,62 42,107"/>
  <path class="fil8" d="M663 197c1,5 -8,12 -12,15 0,-5 0,29 -1,35 3,-2 14,-16 14,-16l0 -1c0,-10 1,-24 -1,-33z"/>
  <path class="fil8" d="M617 214c4,0 35,-3 34,-2 4,-3 14,-10 12,-14 -4,0 -29,0 -30,0 -1,-1 -12,13 -16,16z"/>
  <path class="fil8 str4" d="M615 247c7,-1 35,0 35,0 0,-6 2,-32 1,-35 -4,0 -32,1 -34,2 0,2 -2,27 -2,33z"/>
  <path class="fil1 str4" d="M651 212c4,-3 14,-10 12,-14 -4,0 -29,0 -30,0 -1,-1 -12,13 -16,16"/>
  <path class="fil1 str4" d="M650 246c3,-2 14,-15 15,-15l-1 -2c0,-9 2,-24 -1,-32"/>
  <path class="fil8" d="M347 68c-4,-1 -12,8 -14,11 4,0 -30,1 -35,2 2,-3 15,-14 16,-15l1 1c9,0 24,-2 32,1z"/>
  <path class="fil8" d="M331 114c-1,-4 2,-35 2,-35 2,-3 10,-13 14,-11 0,4 0,29 0,30 0,1 -14,12 -16,16z"/>
  <path class="fil8 str4" d="M298 115c1,-6 -1,-34 -1,-34 6,0 32,-2 36,-2 -1,5 -1,33 -2,35 -2,-1 -28,1 -33,1z"/>
  <path class="fil1 str4" d="M333 79c2,-3 10,-13 14,-11 0,4 0,29 0,30 0,1 -14,12 -16,16"/>
  <path class="fil1 str4" d="M298 81c2,-3 16,-15 16,-15l1 0c9,0 24,-1 33,1"/>
  <path class="fil9 str4" d="M511 210c-12,-5 15,-21 16,-5 0,6 -12,6 -16,5z"/>
  <path class="fil2 str4" d="M450 327c1,0 15,-1 13,1 1,5 -1,7 -1,10 -2,0 -2,3 -10,1 0,0 -2,-7 -2,-12z"/>
  <path class="fil8" d="M477 279c1,5 -8,12 -12,15 0,-5 0,29 -1,35 3,-2 14,-16 14,-16l0 -2c0,-9 1,-23 -1,-32z"/>
  <path class="fil8" d="M431 296c3,0 35,-3 34,-2 4,-3 14,-10 12,-14 -4,0 -29,0 -31,0 0,-1 -11,13 -15,16z"/>
  <path class="fil8 str4" d="M429 329c6,-1 35,0 35,0 0,-6 2,-32 1,-35 -4,0 -32,1 -34,2 0,2 -2,27 -2,33z"/>
  <path class="fil1 str4" d="M465 294c4,-3 14,-10 12,-14 -4,0 -29,0 -31,0 0,-1 -11,13 -15,16"/>
  <path class="fil1 str4" d="M464 328c3,-2 14,-15 15,-15l-1 -2c0,-9 2,-24 -1,-32"/>
  <path class="fil1 str1" d="M457 340c6,23 -9,24 -21,39"/>
  <path class="fil1 str1" d="M643 258c0,35 6,49 13,56 10,10 33,20 46,44"/>
  <path class="fil0 str0" d="M368 241c1,0 3,3 7,3 1,0 10,0 8,-3 1,1 -3,12 -4,14 0,1 -2,7 -2,8 0,-4 -9,-19 -9,-22z"/>
  <path class="fil0 str0" d="M375 237c-19,4 6,10 8,4 2,0 -6,-4 -8,-4z"/>
  <path class="fil1 str1" d="M373 168c1,1 2,63 3,71l0 2"/>
  <path class="fil1 str2" d="M373 170c1,0 2,60 3,68l0 1"/>
  <path class="fil0 str0" d="M589 146c2,0 3,3 7,3 1,0 10,0 8,-2 2,0 -3,11 -3,13 -1,1 -2,7 -3,8 0,-4 -9,-19 -9,-22z"/>
  <path class="fil0 str0" d="M596 143c-18,3 7,10 8,4 3,-1 -5,-5 -8,-4z"/>
  <path class="fil1 str1" d="M595 73c0,1 1,63 2,71l0 2"/>
  <path class="fil1 str2" d="M595 75c0,0 1,60 2,68l0 1"/>
  <path class="fil0 str0" d="M678 164c0,1 -3,3 -3,7 0,1 0,10 2,8 0,1 -11,-3 -13,-4 -1,0 -7,-2 -8,-2 4,-1 19,-9 22,-9z"/>
  <path class="fil0 str0" d="M681 171c-3,-19 -10,6 -4,8 1,2 5,-6 4,-8z"/>
  <path class="fil1 str1" d="M751 169c-1,1 -63,2 -71,3l-2 0"/>
  <path class="fil1 str2" d="M749 169c0,1 -60,2 -68,3l-1 0"/>
  <path class="fil0 str0" d="M613 264c0,1 -3,3 -3,7 0,1 0,10 2,8 0,1 -11,-3 -13,-4 -1,0 -7,-1 -8,-2 4,0 19,-9 22,-9z"/>
  <path class="fil0 str0" d="M616 271c-3,-18 -10,6 -4,8 1,2 5,-5 4,-8z"/>
  <path class="fil1 str1" d="M686 270c-1,0 -63,1 -71,2l-2 0"/>
  <path class="fil1 str2" d="M684 270c0,0 -60,1 -68,2l-1 0"/>
  <path class="fil0 str0" d="M448 111c0,1 -3,2 -3,6 0,2 1,11 3,8 -1,2 -12,-3 -14,-3 -1,0 -7,-2 -7,-2 3,-1 18,-10 21,-9z"/>
  <path class="fil0 str0" d="M452 118c-4,-19 -10,6 -4,7 0,3 4,-5 4,-7z"/>
  <path class="fil1 str1" d="M521 116c-1,0 -63,2 -71,2l-1 0"/>
  <path class="fil1 str2" d="M519 116c0,0 -60,2 -67,2l-2 0"/>
  <path class="fil0 str0" d="M512 304c-1,-4 2,-9 8,-10 4,-1 8,0 9,5 3,15 -17,11 -17,5z"/>
  <path class="fil0 str0" d="M518 294c8,-4 13,5 10,11l1 0c0,-1 5,-19 3,-20 0,0 -10,6 -14,9l0 0z"/>
  <path class="fil1 str1" d="M521 301c-1,6 -39,54 -45,63"/>
  <path class="fil1 str3" d="M519 303c0,5 -36,50 -41,59"/>
  <path class="fil10" d="M431 231c0,-1 -1,-1 -1,-1 0,0 0,0 0,1 0,0 -1,3 -2,3 -1,0 -1,-1 -1,-1 0,-1 1,-1 1,-2 0,-1 1,-3 1,-5 0,-2 -1,-2 -2,-2 -2,0 -2,1 -3,1l1 -6c0,0 1,0 1,0 0,-1 -1,-1 -1,-1 0,0 0,0 0,0l-2 1c-1,0 -1,0 -1,0 0,0 0,0 1,0 1,0 1,1 1,1 0,0 0,0 0,0l-4 13c0,0 0,0 0,0 0,1 1,1 1,1 0,0 1,0 1,-1l1 -3c0,-1 0,-1 0,-2 0,-1 0,-1 1,-1 0,-1 1,-3 3,-3 1,0 1,1 1,2 0,1 -1,4 -2,5 0,1 0,1 0,1 0,1 1,2 2,2 2,0 3,-3 3,-3z"/>
  <path id="1" class="fil11 str0" d="M431 231c0,-1 -1,-1 -1,-1 0,0 0,0 0,1 0,0 -1,3 -2,3 -1,0 -1,-1 -1,-1 0,-1 1,-1 1,-2 0,-1 1,-3 1,-5 0,-2 -1,-2 -2,-2 -2,0 -2,1 -3,1l1 -6c0,0 1,0 1,0 0,-1 -1,-1 -1,-1 0,0 0,0 0,0l-2 1c-1,0 -1,0 -1,0 0,0 0,0 1,0 1,0 1,1 1,1 0,0 0,0 0,0l-4 13c0,0 0,0 0,0 0,1 1,1 1,1 0,0 1,0 1,-1l1 -3c0,-1 0,-1 0,-2 0,-1 0,-1 1,-1 0,-1 1,-3 3,-3 1,0 1,1 1,2 0,1 -1,4 -2,5 0,1 0,1 0,1 0,1 1,2 2,2 2,0 3,-3 3,-3z"/>
  <path class="fil10" d="M419 234c0,-2 -2,-3 -4,-3 -2,0 -3,1 -5,2 0,-1 -2,-2 -3,-2 -2,0 -3,1 -3,2 -1,1 -1,3 -1,3 0,1 0,1 1,1 0,0 0,0 1,-1 0,-1 1,-4 2,-4 0,0 0,1 0,2 0,0 0,0 0,1l-2 9c0,1 0,1 0,1 0,1 0,2 1,2 0,0 2,0 2,-2l2 -9c1,-1 2,-4 4,-4 1,0 2,1 2,1 -1,1 -1,2 -1,2 0,1 0,2 1,2 2,0 3,-1 3,-3z"/>
  <path id="1" class="fil11 str0" d="M419 234c0,-2 -2,-3 -4,-3 -2,0 -3,1 -5,2 0,-1 -2,-2 -3,-2 -2,0 -3,1 -3,2 -1,1 -1,3 -1,3 0,1 0,1 1,1 0,0 0,0 1,-1 0,-1 1,-4 2,-4 0,0 0,1 0,2 0,0 0,0 0,1l-2 9c0,1 0,1 0,1 0,1 0,2 1,2 0,0 2,0 2,-2l2 -9c1,-1 2,-4 4,-4 1,0 2,1 2,1 -1,1 -1,2 -1,2 0,1 0,2 1,2 2,0 3,-1 3,-3z"/>
  <path class="fil12" d="M323 2l4 10 0 0 0 0 -1 0 0 0 0 0 0 0 -1 0 0 -1 0 0 0 0 -1 0 0 0 0 0 -1 0 0 0 0 0 0 0 -1 0 0 0 0 0 0 0 -1 0 0 0 0 0 -1 0 0 0 0 1 0 0 -1 0 0 0 0 0 0 0 -1 0 5 -10zm-1 91l0 -82 2 0 0 82 -1 1 -1 -1zm1 1l-1 0 0 -1 1 1zm79 0l-79 0 0 -2 79 0 0 2zm8 -1l-10 4 0 0 1 -1 0 0 0 0 0 0 0 -1 0 0 0 0 0 0 0 -1 0 0 0 0 0 -1 0 0 0 0 0 0 0 -1 0 0 0 0 0 0 0 -1 0 0 0 0 0 0 0 -1 0 0 0 0 0 -1 0 0 0 0 -1 0 0 -1 0 0 10 5z"/>
  <path class="fil13" d="M517 150l5 10 0 0 -1 0 0 0 0 0 0 0 -1 0 0 0 0 -1 -1 0 0 0 0 0 0 0 -1 0 0 0 0 0 0 0 -1 0 0 0 0 0 0 0 -1 0 0 0 0 0 -1 0 0 0 0 0 0 1 -1 0 0 0 0 0 0 0 -1 0 0 0 4 -10zm-1 54l0 -45 2 0 0 45 -1 1 -1 -1zm1 1l-1 0 0 -1 1 1zm44 0l-44 0 0 -2 44 0 0 2zm9 -1l-10 5 0 -1 0 0 0 0 0 0 0 -1 1 0 0 0 0 0 0 -1 0 0 0 0 0 -1 0 0 0 0 0 0 0 -1 0 0 0 0 0 0 0 -1 0 0 0 0 0 0 0 -1 0 0 0 0 -1 -1 0 0 0 0 0 0 0 -1 0 0 0 0 10 4z"/>
  <path class="fil12" d="M285 133l37 -41 1 1 -37 42 -1 -2zm-5 7l3 -10 0 0 0 1 0 0 1 0 0 0 0 1 0 0 0 0 0 0 0 0 1 1 0 0 0 0 0 0 0 0 1 1 0 0 0 0 0 0 0 0 1 0 0 1 0 0 0 0 1 0 0 0 0 0 0 0 1 0 0 1 0 0 0 0 0 0 -9 4z"/>
  <path class="fil13" d="M487 236l30 -32 1 1 -29 32 -2 -1zm-5 7l4 -10 0 0 0 0 0 1 0 0 0 0 1 0 0 1 0 0 0 0 0 0 0 1 1 0 0 0 0 0 0 0 0 1 0 0 1 0 0 0 0 0 0 0 1 1 0 0 0 0 0 0 1 0 0 0 0 0 0 0 1 0 0 1 0 0 0 0 -10 4z"/>
  <path class="fil2 str4" d="M323 88c2,0 4,2 4,5 0,2 -2,4 -4,4 -3,0 -5,-2 -5,-4 0,-3 2,-5 5,-5z"/>
  <path class="fil14" d="M376 302l0 -39 2 0 0 39 -2 0zm1 9l-4 -11 0 1 0 0 1 0 0 0 0 0 0 0 1 0 0 0 0 0 1 0 0 0 0 0 0 1 1 0 0 0 0 0 0 0 1 0 0 0 0 -1 0 0 1 0 0 0 0 0 1 0 0 0 0 0 0 0 1 0 0 0 0 0 0 -1 0 0 -4 11z"/>
  <path class="fil10" d="M385 259l132 -55 1 1 -132 56 -1 -2zm-7 5l7 -8 0 0 0 0 0 1 0 0 0 0 1 0 0 1 0 0 0 0 0 0 0 1 0 0 0 0 0 1 0 0 0 0 0 0 0 1 1 0 0 0 0 0 0 0 0 1 0 0 0 0 1 0 0 1 0 0 0 0 0 0 1 0 0 1 0 0 -11 0z"/>
  <path class="fil14" d="M370 299c0,-1 -1,-1 -1,-1 0,0 0,0 0,1 0,0 -1,2 -2,2 -1,0 -1,0 -1,0 0,-1 1,-1 1,-2 0,-1 1,-4 1,-5 0,-2 -1,-2 -2,-2 -2,0 -2,1 -3,1l1 -6c1,0 1,0 1,0 0,-1 -1,-1 -1,-1 0,0 0,0 0,0l-2 1c-1,0 -1,0 -1,0 0,0 0,0 1,0 1,0 1,0 1,1 0,0 0,0 0,0l-4 13c0,0 0,0 0,0 0,1 1,1 1,1 1,0 1,0 1,-1l1 -4c0,0 0,0 0,-1 0,-1 0,-1 1,-2 0,0 1,-2 3,-2 1,0 1,1 1,2 0,1 -1,4 -2,5 0,0 0,1 0,1 0,1 1,2 2,2 2,0 3,-3 3,-3z"/>
  <path id="1" class="fil11 str0" d="M370 299c0,-1 -1,-1 -1,-1 0,0 0,0 0,1 0,0 -1,2 -2,2 -1,0 -1,0 -1,0 0,-1 1,-1 1,-2 0,-1 1,-4 1,-5 0,-2 -1,-2 -2,-2 -2,0 -2,1 -3,1l1 -6c1,0 1,0 1,0 0,-1 -1,-1 -1,-1 0,0 0,0 0,0l-2 1c-1,0 -1,0 -1,0 0,0 0,0 1,0 1,0 1,0 1,1 0,0 0,0 0,0l-4 13c0,0 0,0 0,0 0,1 1,1 1,1 1,0 1,0 1,-1l1 -4c0,0 0,0 0,-1 0,-1 0,-1 1,-2 0,0 1,-2 3,-2 1,0 1,1 1,2 0,1 -1,4 -2,5 0,0 0,1 0,1 0,1 1,2 2,2 2,0 3,-3 3,-3z"/>
  <path class="fil14" d="M355 310c0,0 0,-1 -1,-1 0,0 0,0 0,1 -3,2 -6,2 -7,2 -1,0 -2,-1 -2,-3 0,-1 0,-2 0,-3l2 0c2,0 8,0 8,-5 0,-2 -2,-3 -4,-3 -6,0 -10,5 -10,10 0,3 2,6 6,6 1,0 3,-1 5,-1 2,-1 3,-2 3,-3zm-2 -9c0,4 -5,4 -8,4 1,-2 1,-3 2,-4 1,-1 3,-2 4,-2 1,0 2,1 2,2z"/>
  <path id="1" class="fil11 str0" d="M355 310c0,0 0,-1 -1,-1 0,0 0,0 0,1 -3,2 -6,2 -7,2 -1,0 -2,-1 -2,-3 0,-1 0,-2 0,-3l2 0c2,0 8,0 8,-5 0,-2 -2,-3 -4,-3 -6,0 -10,5 -10,10 0,3 2,6 6,6 1,0 3,-1 5,-1 2,-1 3,-2 3,-3zm-2 -9c0,4 -5,4 -8,4 1,-2 1,-3 2,-4 1,-1 3,-2 4,-2 1,0 2,1 2,2z"/>
  <path class="fil15" d="M380 85l2 -9c0,0 0,0 0,0 0,0 0,0 0,0 -1,0 -1,0 -1,0l-2 7c0,0 -1,2 -2,2 -1,0 -1,-1 -1,-2 0,-1 0,-3 1,-5 0,0 0,-1 0,-1 0,-1 -1,-2 -2,-2 -2,0 -2,4 -2,4 0,0 0,0 0,0 0,0 0,0 0,0 1,-1 1,-3 2,-3 1,0 1,0 1,0 0,1 0,2 -1,2 0,2 -1,4 -1,5 0,2 1,2 3,2 1,0 1,0 2,-1 -1,4 -3,5 -4,5 -1,0 -1,-1 -1,-1 0,0 0,0 0,0 1,0 1,-1 1,-1 0,0 -1,-1 -1,-1 0,0 -1,0 -1,2 0,1 1,2 2,2 2,0 4,-3 5,-5l0 0z"/>
  <path id="1" class="fil11 str7" d="M380 85l2 -9c0,0 0,0 0,0 0,0 0,0 0,0 -1,0 -1,0 -1,0l-2 7c0,0 -1,2 -2,2 -1,0 -1,-1 -1,-2 0,-1 0,-3 1,-5 0,0 0,-1 0,-1 0,-1 -1,-2 -2,-2 -2,0 -2,4 -2,4 0,0 0,0 0,0 0,0 0,0 0,0 1,-1 1,-3 2,-3 1,0 1,0 1,0 0,1 0,2 -1,2 0,2 -1,4 -1,5 0,2 1,2 3,2 1,0 1,0 2,-1 -1,4 -3,5 -4,5 -1,0 -1,-1 -1,-1 0,0 0,0 0,0 1,0 1,-1 1,-1 0,0 -1,-1 -1,-1 0,0 -1,0 -1,2 0,1 1,2 2,2 2,0 4,-3 5,-5l0 0z"/>
  <path class="fil15" d="M382 66c0,0 0,0 0,0 0,0 0,0 -1,0 0,1 0,3 -1,3 -1,0 -1,-1 -1,-1 0,-1 0,-1 0,-1 0,-1 0,-1 0,-1 0,-2 -1,-2 -3,-2 1,-1 1,-1 2,-2 1,-1 2,-2 3,-2 1,0 1,0 1,0 -1,0 -1,1 -1,1 0,1 0,1 0,1 1,0 2,0 2,-1 0,-1 -1,-2 -2,-2 -1,0 -2,1 -3,2 -1,2 -1,2 -2,2l2 -9c0,0 0,0 0,0 0,0 0,0 0,0 0,0 0,0 0,0l-3 0c0,0 0,0 0,0 0,1 0,1 0,1 1,0 1,0 1,0 0,0 0,0 0,0l-3 14c0,0 0,0 0,0 0,0 0,0 1,0 0,0 0,0 1,0l1 -5c0,0 2,1 2,2 0,0 0,0 0,1 0,0 0,0 0,0 0,2 1,2 2,2 1,0 1,0 1,-1 1,-1 1,-2 1,-2z"/>
  <path id="1" class="fil11 str7" d="M382 66c0,0 0,0 0,0 0,0 0,0 -1,0 0,1 0,3 -1,3 -1,0 -1,-1 -1,-1 0,-1 0,-1 0,-1 0,-1 0,-1 0,-1 0,-2 -1,-2 -3,-2 1,-1 1,-1 2,-2 1,-1 2,-2 3,-2 1,0 1,0 1,0 -1,0 -1,1 -1,1 0,1 0,1 0,1 1,0 2,0 2,-1 0,-1 -1,-2 -2,-2 -1,0 -2,1 -3,2 -1,2 -1,2 -2,2l2 -9c0,0 0,0 0,0 0,0 0,0 0,0 0,0 0,0 0,0l-3 0c0,0 0,0 0,0 0,1 0,1 0,1 1,0 1,0 1,0 0,0 0,0 0,0l-3 14c0,0 0,0 0,0 0,0 0,0 1,0 0,0 0,0 1,0l1 -5c0,0 2,1 2,2 0,0 0,0 0,1 0,0 0,0 0,0 0,2 1,2 2,2 1,0 1,0 1,-1 1,-1 1,-2 1,-2z"/>
  <path class="fil15" d="M369 77c0,-1 -1,-1 -1,-1 0,0 -1,0 -1,0 -2,3 -6,3 -6,3 -2,0 -3,-1 -3,-3 0,-1 0,-3 1,-4l1 0c2,0 9,0 9,-4 0,-2 -2,-3 -5,-3 -6,0 -9,4 -9,9 0,4 2,6 6,6 1,0 3,0 5,-1 1,-1 3,-2 3,-2zm-3 -9c0,3 -5,3 -7,3 0,-2 1,-3 2,-4 1,-1 2,-1 3,-1 2,0 2,1 2,2z"/>
  <path id="1" class="fil11 str7" d="M369 77c0,-1 -1,-1 -1,-1 0,0 -1,0 -1,0 -2,3 -6,3 -6,3 -2,0 -3,-1 -3,-3 0,-1 0,-3 1,-4l1 0c2,0 9,0 9,-4 0,-2 -2,-3 -5,-3 -6,0 -9,4 -9,9 0,4 2,6 6,6 1,0 3,0 5,-1 1,-1 3,-2 3,-2zm-3 -9c0,3 -5,3 -7,3 0,-2 1,-3 2,-4 1,-1 2,-1 3,-1 2,0 2,1 2,2z"/>
  <path class="fil15" d="M313 59c0,-1 0,-1 0,-1 0,0 0,0 -1,1 0,2 -1,3 -2,3 -1,0 -1,-1 -1,-2 0,0 0,-1 0,-2l1 -3c0,-1 1,-3 2,-3 0,0 1,0 1,1 -1,0 -1,1 -1,1 0,0 0,1 1,1 0,0 1,-1 1,-2 0,-1 -1,-1 -2,-1 -1,0 -2,1 -2,2 -1,-2 -2,-2 -2,-2 -3,0 -4,3 -4,3 0,1 0,1 1,1 0,0 0,0 0,-1 1,-2 2,-3 3,-3 0,0 1,1 1,2 0,0 -1,2 -1,2l0 2c-1,2 -1,4 -2,4 -1,0 -1,0 -1,-1 0,0 0,0 0,-1 0,0 0,-1 0,-1 -1,0 -1,1 -1,2 0,1 0,1 2,1 1,0 1,-1 2,-1 0,1 1,1 2,1 2,0 3,-3 3,-3z"/>
  <path id="1" class="fil11 str7" d="M313 59c0,-1 0,-1 0,-1 0,0 0,0 -1,1 0,2 -1,3 -2,3 -1,0 -1,-1 -1,-2 0,0 0,-1 0,-2l1 -3c0,-1 1,-3 2,-3 0,0 1,0 1,1 -1,0 -1,1 -1,1 0,0 0,1 1,1 0,0 1,-1 1,-2 0,-1 -1,-1 -2,-1 -1,0 -2,1 -2,2 -1,-2 -2,-2 -2,-2 -3,0 -4,3 -4,3 0,1 0,1 1,1 0,0 0,0 0,-1 1,-2 2,-3 3,-3 0,0 1,1 1,2 0,0 -1,2 -1,2l0 2c-1,2 -1,4 -2,4 -1,0 -1,0 -1,-1 0,0 0,0 0,-1 0,0 0,-1 0,-1 -1,0 -1,1 -1,2 0,1 0,1 2,1 1,0 1,-1 2,-1 0,1 1,1 2,1 2,0 3,-3 3,-3z"/>
  <path class="fil15" d="M315 41c0,-1 0,-1 -1,-1 0,0 0,1 0,1 0,1 -1,3 -2,3 0,0 0,-1 0,-1 0,-1 0,-1 0,-2 0,0 0,0 0,0 0,-2 -2,-2 -3,-3 1,0 1,0 2,-1 1,-1 2,-2 3,-2 0,0 0,0 0,0 -1,0 -1,1 -1,1 0,0 1,1 1,1 1,0 1,-1 1,-2 0,0 0,-1 -1,-1 -1,0 -2,1 -3,2 -1,1 -2,2 -2,2l2 -9c0,0 0,0 0,0 0,0 0,-1 0,-1 -1,0 -1,1 -1,1l-2 0c0,0 -1,0 -1,0 0,0 1,0 1,0 1,0 1,1 1,1 0,0 0,0 0,0l-3 13c0,0 0,1 0,1 0,0 0,0 0,0 1,0 1,-1 1,-1l1 -4c1,0 3,0 3,2 0,0 0,0 0,0 -1,1 -1,1 -1,1 0,2 1,2 2,2 1,0 2,-1 2,-1 0,-1 1,-2 1,-2z"/>
  <path id="1" class="fil11 str7" d="M315 41c0,-1 0,-1 -1,-1 0,0 0,1 0,1 0,1 -1,3 -2,3 0,0 0,-1 0,-1 0,-1 0,-1 0,-2 0,0 0,0 0,0 0,-2 -2,-2 -3,-3 1,0 1,0 2,-1 1,-1 2,-2 3,-2 0,0 0,0 0,0 -1,0 -1,1 -1,1 0,0 1,1 1,1 1,0 1,-1 1,-2 0,0 0,-1 -1,-1 -1,0 -2,1 -3,2 -1,1 -2,2 -2,2l2 -9c0,0 0,0 0,0 0,0 0,-1 0,-1 -1,0 -1,1 -1,1l-2 0c0,0 -1,0 -1,0 0,0 1,0 1,0 1,0 1,1 1,1 0,0 0,0 0,0l-3 13c0,0 0,1 0,1 0,0 0,0 0,0 1,0 1,-1 1,-1l1 -4c1,0 3,0 3,2 0,0 0,0 0,0 -1,1 -1,1 -1,1 0,2 1,2 2,2 1,0 2,-1 2,-1 0,-1 1,-2 1,-2z"/>
  <path class="fil15" d="M300 53c0,0 0,-1 -1,-1 0,0 0,0 0,0 -2,3 -6,3 -6,3 -2,0 -3,-1 -3,-3 0,-1 0,-2 0,-4l2 0c2,0 8,0 8,-4 0,-2 -2,-3 -4,-3 -6,0 -10,4 -10,9 0,4 3,6 7,6 1,0 3,0 4,-1 2,-1 3,-2 3,-2zm-2 -9c0,3 -5,3 -7,3 0,-1 1,-2 1,-4 1,-1 3,-1 4,-1 1,0 2,1 2,2z"/>
  <path id="1" class="fil11 str7" d="M300 53c0,0 0,-1 -1,-1 0,0 0,0 0,0 -2,3 -6,3 -6,3 -2,0 -3,-1 -3,-3 0,-1 0,-2 0,-4l2 0c2,0 8,0 8,-4 0,-2 -2,-3 -4,-3 -6,0 -10,4 -10,9 0,4 3,6 7,6 1,0 3,0 4,-1 2,-1 3,-2 3,-2zm-2 -9c0,3 -5,3 -7,3 0,-1 1,-2 1,-4 1,-1 3,-1 4,-1 1,0 2,1 2,2z"/>
  <path class="fil12" d="M309 143c0,0 0,0 0,0 -1,0 -1,0 -1,0 0,1 -1,3 -2,3 0,0 0,-1 0,-1 0,-1 0,-1 0,-1 0,-1 0,-1 0,-1 0,-2 -1,-2 -3,-3 1,0 1,0 2,-1 1,-1 2,-2 3,-2 0,0 0,0 0,0 0,0 -1,1 -1,1 0,0 1,1 1,1 1,0 1,-1 1,-1 0,-1 0,-2 -1,-2 -1,0 -2,1 -3,2 -1,1 -2,2 -2,2l2 -9c0,0 0,0 0,0 0,0 0,0 0,0 0,0 -1,0 -1,0l-2 0c0,0 0,0 0,0 0,1 0,1 0,1 1,0 1,0 1,0 0,0 0,0 0,0l-3 13c0,0 0,1 0,1 0,0 0,0 0,0 1,0 1,0 1,-1l1 -4c1,0 3,1 3,2 0,0 0,0 0,0 0,1 0,1 0,1 0,2 1,2 1,2 1,0 2,0 2,-1 1,-1 1,-2 1,-2z"/>
  <path id="1" class="fil11 str7" d="M309 143c0,0 0,0 0,0 -1,0 -1,0 -1,0 0,1 -1,3 -2,3 0,0 0,-1 0,-1 0,-1 0,-1 0,-1 0,-1 0,-1 0,-1 0,-2 -1,-2 -3,-3 1,0 1,0 2,-1 1,-1 2,-2 3,-2 0,0 0,0 0,0 0,0 -1,1 -1,1 0,0 1,1 1,1 1,0 1,-1 1,-1 0,-1 0,-2 -1,-2 -1,0 -2,1 -3,2 -1,1 -2,2 -2,2l2 -9c0,0 0,0 0,0 0,0 0,0 0,0 0,0 -1,0 -1,0l-2 0c0,0 0,0 0,0 0,1 0,1 0,1 1,0 1,0 1,0 0,0 0,0 0,0l-3 13c0,0 0,1 0,1 0,0 0,0 0,0 1,0 1,0 1,-1l1 -4c1,0 3,1 3,2 0,0 0,0 0,0 0,1 0,1 0,1 0,2 1,2 1,2 1,0 2,0 2,-1 1,-1 1,-2 1,-2z"/>
  <path class="fil12" d="M295 153c0,0 0,0 0,0 -1,0 -1,0 -1,0 0,2 -1,4 -2,4 -1,0 -1,0 -1,-1 0,0 0,-1 0,-2l3 -9c0,0 0,-1 0,-1 0,0 0,-1 -1,-1 -1,0 -1,1 -1,2l-3 9c0,1 0,1 0,1 -1,1 -2,2 -3,2 -2,0 -2,-1 -2,-2 0,-2 1,-5 2,-7 0,-1 0,-2 0,-2 0,-2 -1,-3 -2,-3 -3,0 -5,5 -5,5 0,1 1,1 1,1 0,0 0,-1 1,-1 0,-1 1,-4 3,-4 0,0 0,0 0,1 0,1 0,1 0,3 -1,2 -2,5 -2,6 0,3 2,4 4,4 1,0 2,-1 3,-2 1,2 2,2 3,2 1,0 2,-1 2,-2 1,-1 1,-3 1,-3z"/>
  <path id="1" class="fil11 str7" d="M295 153c0,0 0,0 0,0 -1,0 -1,0 -1,0 0,2 -1,4 -2,4 -1,0 -1,0 -1,-1 0,0 0,-1 0,-2l3 -9c0,0 0,-1 0,-1 0,0 0,-1 -1,-1 -1,0 -1,1 -1,2l-3 9c0,1 0,1 0,1 -1,1 -2,2 -3,2 -2,0 -2,-1 -2,-2 0,-2 1,-5 2,-7 0,-1 0,-2 0,-2 0,-2 -1,-3 -2,-3 -3,0 -5,5 -5,5 0,1 1,1 1,1 0,0 0,-1 1,-1 0,-1 1,-4 3,-4 0,0 0,0 0,1 0,1 0,1 0,3 -1,2 -2,5 -2,6 0,3 2,4 4,4 1,0 2,-1 3,-2 1,2 2,2 3,2 1,0 2,-1 2,-2 1,-1 1,-3 1,-3z"/>
  <path class="fil12" d="M307 160c0,0 0,0 0,0 0,0 0,0 0,0 -1,1 -2,2 -3,2 0,0 -1,0 -1,-1 -1,0 -1,0 -1,0 -1,0 -1,0 -1,0 0,0 1,-1 1,-1l4 -4c1,-1 2,-2 2,-3 0,0 0,0 0,0 -1,0 -1,0 -1,0 0,2 -1,2 -1,2 0,0 -1,0 -1,-1 0,0 -1,-1 -1,-1 -2,0 -3,2 -3,3 0,0 0,0 0,0 1,0 1,0 1,0 0,-1 0,-1 1,-1 1,0 1,0 2,0 0,0 1,0 1,0 0,1 -1,1 -1,1l-4 4c-1,1 -2,3 -2,3 0,0 0,0 0,0 1,0 1,0 1,0 0,-1 1,-2 2,-2 0,0 0,1 1,1 0,1 0,1 1,1 2,0 3,-3 3,-3z"/>
  <path id="1" class="fil11 str7" d="M307 160c0,0 0,0 0,0 0,0 0,0 0,0 -1,1 -2,2 -3,2 0,0 -1,0 -1,-1 -1,0 -1,0 -1,0 -1,0 -1,0 -1,0 0,0 1,-1 1,-1l4 -4c1,-1 2,-2 2,-3 0,0 0,0 0,0 -1,0 -1,0 -1,0 0,2 -1,2 -1,2 0,0 -1,0 -1,-1 0,0 -1,-1 -1,-1 -2,0 -3,2 -3,3 0,0 0,0 0,0 1,0 1,0 1,0 0,-1 0,-1 1,-1 1,0 1,0 2,0 0,0 1,0 1,0 0,1 -1,1 -1,1l-4 4c-1,1 -2,3 -2,3 0,0 0,0 0,0 1,0 1,0 1,0 0,-1 1,-2 2,-2 0,0 0,1 1,1 0,1 0,1 1,1 2,0 3,-3 3,-3z"/>
  <path class="fil15" d="M284 122c0,0 -1,0 -1,0 0,0 0,0 0,1 0,1 -2,1 -3,1 0,0 0,0 -1,0 0,0 -1,0 -1,0 0,0 0,0 -1,0 1,-1 1,-1 2,-2l3 -3c1,-1 2,-3 2,-3 0,0 0,0 0,0 0,0 0,0 0,0 -1,1 -1,1 -2,1 0,0 0,0 -1,0 0,-1 0,-1 -1,-1 -2,0 -3,2 -3,2 0,0 0,1 1,1 0,0 0,-1 0,-1 0,0 1,-1 2,-1 0,0 0,0 1,1 1,0 1,0 1,0 0,0 0,1 -1,1l-3 3c-2,2 -3,3 -3,4 0,0 1,0 1,0 0,0 0,0 0,0 0,-1 1,-2 2,-2 0,0 1,0 1,1 0,0 1,1 1,1 2,0 4,-3 4,-4z"/>
  <path id="1" class="fil11 str7" d="M284 122c0,0 -1,0 -1,0 0,0 0,0 0,1 0,1 -2,1 -3,1 0,0 0,0 -1,0 0,0 -1,0 -1,0 0,0 0,0 -1,0 1,-1 1,-1 2,-2l3 -3c1,-1 2,-3 2,-3 0,0 0,0 0,0 0,0 0,0 0,0 -1,1 -1,1 -2,1 0,0 0,0 -1,0 0,-1 0,-1 -1,-1 -2,0 -3,2 -3,2 0,0 0,1 1,1 0,0 0,-1 0,-1 0,0 1,-1 2,-1 0,0 0,0 1,1 1,0 1,0 1,0 0,0 0,1 -1,1l-3 3c-2,2 -3,3 -3,4 0,0 1,0 1,0 0,0 0,0 0,0 0,-1 1,-2 2,-2 0,0 1,0 1,1 0,0 1,1 1,1 2,0 4,-3 4,-4z"/>
  <path class="fil15" d="M286 105c0,-1 -1,-1 -1,-1 0,0 0,0 0,1 0,1 -1,3 -2,3 0,0 0,-1 0,-1 0,-1 0,-2 0,-2 0,0 0,0 0,0 0,-2 -2,-2 -3,-3 0,0 1,0 2,-1 1,-1 2,-2 3,-2 0,0 0,0 0,0 -1,0 -1,1 -1,1 0,0 0,1 1,1 0,0 1,-1 1,-2 0,0 0,-1 -1,-1 -2,0 -2,1 -3,2 -1,1 -2,2 -3,2l3 -9c0,0 0,0 0,0 0,0 0,-1 -1,-1 0,0 0,0 0,0l-2 1c0,0 -1,0 -1,0 0,0 1,0 1,0 1,0 1,1 1,1 0,0 0,0 0,0l-3 13c0,0 0,0 0,0 0,1 0,1 0,1 1,0 1,-1 1,-1l1 -4c1,0 2,0 2,2 0,0 0,0 0,0 0,1 0,1 0,1 0,2 1,2 2,2 1,0 2,-1 2,-1 0,-1 1,-2 1,-2z"/>
  <path id="1" class="fil11 str7" d="M286 105c0,-1 -1,-1 -1,-1 0,0 0,0 0,1 0,1 -1,3 -2,3 0,0 0,-1 0,-1 0,-1 0,-2 0,-2 0,0 0,0 0,0 0,-2 -2,-2 -3,-3 0,0 1,0 2,-1 1,-1 2,-2 3,-2 0,0 0,0 0,0 -1,0 -1,1 -1,1 0,0 0,1 1,1 0,0 1,-1 1,-2 0,0 0,-1 -1,-1 -2,0 -2,1 -3,2 -1,1 -2,2 -3,2l3 -9c0,0 0,0 0,0 0,0 0,-1 -1,-1 0,0 0,0 0,0l-2 1c0,0 -1,0 -1,0 0,0 1,0 1,0 1,0 1,1 1,1 0,0 0,0 0,0l-3 13c0,0 0,0 0,0 0,1 0,1 0,1 1,0 1,-1 1,-1l1 -4c1,0 2,0 2,2 0,0 0,0 0,0 0,1 0,1 0,1 0,2 1,2 2,2 1,0 2,-1 2,-1 0,-1 1,-2 1,-2z"/>
  <path class="fil15" d="M271 115c0,0 0,-1 -1,-1 0,0 0,0 0,1 -3,2 -6,2 -6,2 -2,0 -3,-1 -3,-3 0,-1 0,-2 0,-3l2 0c2,0 8,0 8,-5 0,-2 -2,-3 -4,-3 -6,0 -10,5 -10,10 0,3 2,6 7,6 1,0 3,-1 4,-1 2,-1 3,-2 3,-3zm-2 -9c0,4 -5,4 -7,4 0,-2 0,-3 1,-4 1,-1 3,-2 4,-2 1,0 2,1 2,2z"/>
  <path id="1" class="fil11 str7" d="M271 115c0,0 0,-1 -1,-1 0,0 0,0 0,1 -3,2 -6,2 -6,2 -2,0 -3,-1 -3,-3 0,-1 0,-2 0,-3l2 0c2,0 8,0 8,-5 0,-2 -2,-3 -4,-3 -6,0 -10,5 -10,10 0,3 2,6 7,6 1,0 3,-1 4,-1 2,-1 3,-2 3,-3zm-2 -9c0,4 -5,4 -7,4 0,-2 0,-3 1,-4 1,-1 3,-2 4,-2 1,0 2,1 2,2z"/>
  <path class="fil16 str4" d="M518 204c0,0 0,0 0,1 0,0 0,0 0,0 -1,0 -1,0 -1,0 0,-1 0,-1 1,-1z"/>
  <path class="fil17" d="M371 191c0,-1 0,-1 0,-1 0,0 0,0 -1,1 0,0 0,2 -2,2 0,0 0,0 0,0 0,-1 0,-1 0,-2 1,-1 2,-4 2,-5 0,-2 -2,-2 -3,-2 -1,0 -2,1 -3,1l2 -6c0,0 0,0 0,0 0,-1 0,-1 0,-1 0,0 -1,0 -1,0l-2 1c0,0 0,0 0,0 0,0 0,0 0,0 1,0 1,0 1,1 0,0 0,0 0,0l-3 13c0,0 0,0 0,0 0,1 0,1 1,1 0,0 0,0 0,-1l1 -4c0,0 1,0 1,-1 0,-1 0,-1 0,-2 1,0 2,-2 3,-2 1,0 1,1 1,2 0,1 -1,4 -1,5 0,0 0,1 0,1 0,1 0,2 1,2 2,0 3,-3 3,-3z"/>
  <path id="1" class="fil11 str0" d="M371 191c0,-1 0,-1 0,-1 0,0 0,0 -1,1 0,0 0,2 -2,2 0,0 0,0 0,0 0,-1 0,-1 0,-2 1,-1 2,-4 2,-5 0,-2 -2,-2 -3,-2 -1,0 -2,1 -3,1l2 -6c0,0 0,0 0,0 0,-1 0,-1 0,-1 0,0 -1,0 -1,0l-2 1c0,0 0,0 0,0 0,0 0,0 0,0 1,0 1,0 1,1 0,0 0,0 0,0l-3 13c0,0 0,0 0,0 0,1 0,1 1,1 0,0 0,0 0,-1l1 -4c0,0 1,0 1,-1 0,-1 0,-1 0,-2 1,0 2,-2 3,-2 1,0 1,1 1,2 0,1 -1,4 -1,5 0,0 0,1 0,1 0,1 0,2 1,2 2,0 3,-3 3,-3z"/>
  <path class="fil17" d="M357 195c0,-2 -1,-3 -3,-3 -5,0 -6,5 -6,7l-1 5 -3 0c-1,0 -1,0 -1,1 0,0 0,0 1,0l3 0 -3 17c-1,2 -1,4 -2,5 0,2 -1,4 -2,4 -1,0 -2,0 -2,-1 1,0 2,-1 2,-2 0,-1 -1,-1 -2,-1 -1,0 -2,0 -2,2 0,2 2,3 4,3 4,0 6,-9 6,-11l4 -16 3 0c1,0 1,0 1,-1 0,0 0,0 -1,0l-3 0 1 -7c1,-2 1,-4 3,-4 0,0 1,0 2,0 -2,1 -2,2 -2,3 0,1 0,1 1,1 1,0 2,-1 2,-2z"/>
  <path id="1" class="fil11 str0" d="M357 195c0,-2 -1,-3 -3,-3 -5,0 -6,5 -6,7l-1 5 -3 0c-1,0 -1,0 -1,1 0,0 0,0 1,0l3 0 -3 17c-1,2 -1,4 -2,5 0,2 -1,4 -2,4 -1,0 -2,0 -2,-1 1,0 2,-1 2,-2 0,-1 -1,-1 -2,-1 -1,0 -2,0 -2,2 0,2 2,3 4,3 4,0 6,-9 6,-11l4 -16 3 0c1,0 1,0 1,-1 0,0 0,0 -1,0l-3 0 1 -7c1,-2 1,-4 3,-4 0,0 1,0 2,0 -2,1 -2,2 -2,3 0,1 0,1 1,1 1,0 2,-1 2,-2z"/>
  <path class="fil13" d="M476 226l0 -11 0 0 0 0 1 1 0 0 0 0 0 0 0 0 1 1 0 0 0 0 0 0 1 0 0 0 0 1 0 0 0 0 1 0 0 0 0 0 0 0 1 0 0 0 0 0 1 0 0 1 0 0 0 0 1 0 0 0 0 0 0 0 1 0 0 0 -8 7zm27 -11l-1 2 0 0 0 -1 -1 0 -1 -1 -1 0 0 0 -1 0 -1 -1 -1 0 -1 0 0 0 -1 0 -1 0 -1 0 -1 0 -1 0 -1 0 0 1 -1 0 -1 0 -1 0 -1 0 0 1 -1 0 -1 0 0 1 -1 0 0 0 -1 0 0 1 0 0 0 0 -1 1 -1 -1 0 -1 0 0 1 -1 0 0 1 0 0 -1 1 0 1 0 0 -1 1 0 1 0 1 -1 0 0 1 0 1 0 1 0 1 -1 1 0 1 0 1 0 1 0 1 0 1 0 1 0 0 1 1 0 1 0 1 0 1 1 1 0 1 1 0 0zm2 30l-1 -1 1 -1 1 -1 0 -1 1 -1 1 -1 0 0 0 -1 1 -1 0 -1 1 -1 0 -1 0 -1 0 -1 0 0 0 -1 0 -1 0 -1 0 -1 0 -1 -1 -1 0 0 0 -1 -1 -1 0 -1 -1 -1 0 -1 -1 0 -1 -1 0 -1 -1 -1 -1 -1 -1 0 1 -2 1 1 1 1 1 1 1 1 1 0 0 1 1 1 1 1 0 1 0 1 1 1 0 1 1 1 0 1 0 1 0 1 0 1 0 1 0 1 0 1 0 1 -1 1 0 1 0 1 -1 0 0 1 -1 1 -1 1 0 1 -1 1 -1 1 -1 1z"/>
  <path class="fil13" d="M506 142l-3 -7c0,0 0,-1 0,-1 0,-1 -1,-1 -1,-1 0,0 -1,0 -1,0l0 0 3 -1 0 0 3 8 2 -3c0,-1 0,-2 0,-2 0,0 0,-1 0,-1 0,-1 0,-1 0,-1 0,-1 0,-1 1,-1 1,0 1,0 1,1 0,0 0,2 -1,4l-4 5 0 0z"/>
  <path id="1" class="fil11 str0" d="M506 142l-3 -7c0,0 0,-1 0,-1 0,-1 -1,-1 -1,-1 0,0 -1,0 -1,0l0 0 3 -1 0 0 3 8 2 -3c0,-1 0,-2 0,-2 0,0 0,-1 0,-1 0,-1 0,-1 0,-1 0,-1 0,-1 1,-1 1,0 1,0 1,1 0,0 0,2 -1,4l-4 5 0 0z"/>
  <path class="fil13" d="M496 159c0,-1 0,-1 -1,-1 -2,0 -2,0 -2,0 0,0 0,-1 1,-1l4 -18c0,0 0,0 0,0 0,-1 0,-1 0,-1 -1,0 -2,1 -2,2 -1,-1 -2,-2 -3,-2 -4,0 -8,5 -8,10 0,3 2,5 4,5 2,0 3,-1 4,-1 -1,2 -1,2 -2,5 0,1 0,1 -2,1 0,0 -1,0 -1,1 0,0 0,0 1,0 1,0 2,0 3,0 1,0 2,0 3,0 0,0 1,0 1,0zm-3 -10c0,1 -2,4 -4,4 -1,0 -2,-2 -2,-3 0,-2 2,-6 2,-7 1,-2 2,-4 4,-4 0,0 1,0 1,1 1,0 1,1 1,2 0,0 0,0 0,0l-2 7z"/>
  <path id="1" class="fil11 str0" d="M496 159c0,-1 0,-1 -1,-1 -2,0 -2,0 -2,0 0,0 0,-1 1,-1l4 -18c0,0 0,0 0,0 0,-1 0,-1 0,-1 -1,0 -2,1 -2,2 -1,-1 -2,-2 -3,-2 -4,0 -8,5 -8,10 0,3 2,5 4,5 2,0 3,-1 4,-1 -1,2 -1,2 -2,5 0,1 0,1 -2,1 0,0 -1,0 -1,1 0,0 0,0 1,0 1,0 2,0 3,0 1,0 2,0 3,0 0,0 1,0 1,0zm-3 -10c0,1 -2,4 -4,4 -1,0 -2,-2 -2,-3 0,-2 2,-6 2,-7 1,-2 2,-4 4,-4 0,0 1,0 1,1 1,0 1,1 1,2 0,0 0,0 0,0l-2 7z"/>
  <path class="fil13" d="M591 206l-2 -7c0,-1 -1,-1 -1,-2 0,0 -1,0 -1,0 0,0 0,0 -1,0l0 -1 3 -1 0 0 3 9 2 -4c0,-1 0,-1 0,-2 0,0 0,0 0,-1 0,0 0,0 0,-1 0,0 1,-1 1,-1 1,0 1,1 1,1 0,1 0,2 -1,4l-3 6 -1 0z"/>
  <path id="1" class="fil11 str0" d="M591 206l-2 -7c0,-1 -1,-1 -1,-2 0,0 -1,0 -1,0 0,0 0,0 -1,0l0 -1 3 -1 0 0 3 9 2 -4c0,-1 0,-1 0,-2 0,0 0,0 0,-1 0,0 0,0 0,-1 0,0 1,-1 1,-1 1,0 1,1 1,1 0,1 0,2 -1,4l-3 6 -1 0z"/>
  <path class="fil13" d="M581 222c0,0 0,0 -1,0 -1,0 -1,0 -1,-1 0,0 0,0 0,0l4 -19c0,0 0,0 0,0 0,0 0,0 0,0 0,0 -1,1 -2,2 0,-1 -1,-2 -3,-2 -4,0 -7,5 -7,10 0,2 1,5 4,5 1,0 2,-1 3,-2 -1,3 -1,3 -1,5 -1,2 -1,2 -3,2 0,0 -1,0 -1,0 0,1 1,1 1,1 1,0 2,0 3,0 1,0 3,0 4,0 0,0 0,0 0,-1zm-2 -10c-1,1 -3,4 -4,4 -2,0 -2,-2 -2,-3 0,-2 1,-6 1,-7 1,-2 3,-4 4,-4 0,0 1,0 2,1 0,1 0,2 0,2 0,1 0,1 0,1l-1 6z"/>
  <path id="1" class="fil11 str0" d="M581 222c0,0 0,0 -1,0 -1,0 -1,0 -1,-1 0,0 0,0 0,0l4 -19c0,0 0,0 0,0 0,0 0,0 0,0 0,0 -1,1 -2,2 0,-1 -1,-2 -3,-2 -4,0 -7,5 -7,10 0,2 1,5 4,5 1,0 2,-1 3,-2 -1,3 -1,3 -1,5 -1,2 -1,2 -3,2 0,0 -1,0 -1,0 0,1 1,1 1,1 1,0 2,0 3,0 1,0 3,0 4,0 0,0 0,0 0,-1zm-2 -10c-1,1 -3,4 -4,4 -2,0 -2,-2 -2,-3 0,-2 1,-6 1,-7 1,-2 3,-4 4,-4 0,0 1,0 2,1 0,1 0,2 0,2 0,1 0,1 0,1l-1 6z"/>
  <path class="fil13" d="M475 243l-3 -7c0,-1 0,-1 0,-2 -1,0 -1,0 -1,0 -1,0 -1,0 -1,0l0 -1 3 -1 0 0 3 9 2 -4c0,-1 0,-1 0,-1 0,-1 0,-1 0,-2 0,0 0,0 0,-1 0,0 0,-1 1,-1 1,0 1,1 1,1 0,1 -1,2 -1,4l-4 6 0 0z"/>
  <path id="1" class="fil11 str0" d="M475 243l-3 -7c0,-1 0,-1 0,-2 -1,0 -1,0 -1,0 -1,0 -1,0 -1,0l0 -1 3 -1 0 0 3 9 2 -4c0,-1 0,-1 0,-1 0,-1 0,-1 0,-2 0,0 0,0 0,-1 0,0 0,-1 1,-1 1,0 1,1 1,1 0,1 -1,2 -1,4l-4 6 0 0z"/>
  <path class="fil13" d="M465 259c0,0 0,0 -1,0 -2,0 -2,0 -2,-1 0,0 0,0 0,0l5 -18c0,-1 0,-1 0,-1 0,0 0,0 0,0 -1,0 -2,1 -2,2 -1,-1 -2,-2 -3,-2 -4,0 -8,5 -8,10 0,2 2,5 4,5 2,0 3,-1 4,-2 -1,3 -1,3 -2,5 0,2 0,2 -2,2 -1,0 -1,0 -1,0 0,1 0,1 1,1 1,0 2,0 3,0 1,0 2,0 3,0 0,0 1,0 1,-1zm-3 -10c0,1 -2,4 -4,4 -1,0 -2,-2 -2,-3 0,-2 1,-5 2,-7 1,-2 2,-4 4,-4 0,0 1,0 1,1 1,1 1,2 1,3 0,0 0,0 0,0l-2 6z"/>
  <path id="1" class="fil11 str0" d="M465 259c0,0 0,0 -1,0 -2,0 -2,0 -2,-1 0,0 0,0 0,0l5 -18c0,-1 0,-1 0,-1 0,0 0,0 0,0 -1,0 -2,1 -2,2 -1,-1 -2,-2 -3,-2 -4,0 -8,5 -8,10 0,2 2,5 4,5 2,0 3,-1 4,-2 -1,3 -1,3 -2,5 0,2 0,2 -2,2 -1,0 -1,0 -1,0 0,1 0,1 1,1 1,0 2,0 3,0 1,0 2,0 3,0 0,0 1,0 1,-1zm-3 -10c0,1 -2,4 -4,4 -1,0 -2,-2 -2,-3 0,-2 1,-5 2,-7 1,-2 2,-4 4,-4 0,0 1,0 1,1 1,1 1,2 1,3 0,0 0,0 0,0l-2 6z"/>
  <path class="fil13" d="M458 190l-3 -7c0,-1 0,-1 0,-2 -1,0 -1,0 -1,0 -1,0 -1,0 -1,0l0 -1 2 -1 1 0 3 9 2 -4c0,-1 0,-1 0,-2 0,0 0,0 0,-1 0,0 0,0 0,-1 0,0 0,-1 1,-1 1,0 1,1 1,1 0,1 -1,2 -2,4l-3 6 0 0z"/>
  <path id="1" class="fil11 str0" d="M458 190l-3 -7c0,-1 0,-1 0,-2 -1,0 -1,0 -1,0 -1,0 -1,0 -1,0l0 -1 2 -1 1 0 3 9 2 -4c0,-1 0,-1 0,-2 0,0 0,0 0,-1 0,0 0,0 0,-1 0,0 0,-1 1,-1 1,0 1,1 1,1 0,1 -1,2 -2,4l-3 6 0 0z"/>
  <path class="fil13" d="M448 206c0,0 -1,0 -1,0 -2,0 -2,0 -2,-1 0,0 0,0 0,0l5 -19c0,0 0,0 0,0 0,0 0,0 0,0 -1,0 -2,1 -2,2 -1,-1 -2,-2 -3,-2 -4,0 -8,5 -8,10 0,2 2,5 4,5 1,0 3,-1 4,-2 -1,3 -1,3 -2,5 0,2 0,2 -2,2 -1,0 -1,0 -1,0 0,1 0,1 0,1 2,0 3,0 4,0 1,0 2,0 3,0 0,0 1,0 1,-1zm-3 -10c0,1 -2,4 -4,4 -1,0 -2,-2 -2,-3 0,-2 1,-6 2,-7 1,-2 2,-4 4,-4 0,0 1,0 1,1 1,1 1,2 1,2 0,1 0,1 0,1l-2 6z"/>
  <path id="1" class="fil11 str0" d="M448 206c0,0 -1,0 -1,0 -2,0 -2,0 -2,-1 0,0 0,0 0,0l5 -19c0,0 0,0 0,0 0,0 0,0 0,0 -1,0 -2,1 -2,2 -1,-1 -2,-2 -3,-2 -4,0 -8,5 -8,10 0,2 2,5 4,5 1,0 3,-1 4,-2 -1,3 -1,3 -2,5 0,2 0,2 -2,2 -1,0 -1,0 -1,0 0,1 0,1 0,1 2,0 3,0 4,0 1,0 2,0 3,0 0,0 1,0 1,-1zm-3 -10c0,1 -2,4 -4,4 -1,0 -2,-2 -2,-3 0,-2 1,-6 2,-7 1,-2 2,-4 4,-4 0,0 1,0 1,1 1,1 1,2 1,2 0,1 0,1 0,1l-2 6z"/>
  <path class="fil13" d="M459 200c2,0 3,1 3,4 0,1 0,3 -1,5 -1,2 -2,4 -3,5 -1,1 -2,1 -3,1 -1,0 -2,0 -2,-1 -1,-1 -1,-2 -1,-3 0,-1 0,-2 1,-3 0,-1 0,-3 1,-4 1,-1 1,-2 2,-3 1,-1 2,-1 3,-1zm1 7c0,-2 1,-3 1,-5 0,-1 -1,-2 -2,-2 -1,0 -1,1 -2,2 -1,1 -2,3 -2,5l5 0zm-5 1c-1,2 -1,3 -1,4 0,1 0,2 0,2 0,0 1,1 1,1 1,0 1,0 2,-1 0,0 1,-1 1,-2 1,-1 1,-3 2,-4l-5 0z"/>
  <path id="1" class="fil11 str0" d="M459 200c2,0 3,1 3,4 0,1 0,3 -1,5 -1,2 -2,4 -3,5 -1,1 -2,1 -3,1 -1,0 -2,0 -2,-1 -1,-1 -1,-2 -1,-3 0,-1 0,-2 1,-3 0,-1 0,-3 1,-4 1,-1 1,-2 2,-3 1,-1 2,-1 3,-1zm1 7c0,-2 1,-3 1,-5 0,-1 -1,-2 -2,-2 -1,0 -1,1 -2,2 -1,1 -2,3 -2,5l5 0zm-5 1c-1,2 -1,3 -1,4 0,1 0,2 0,2 0,0 1,1 1,1 1,0 1,0 2,-1 0,0 1,-1 1,-2 1,-1 1,-3 2,-4l-5 0z"/>
  <path class="fil13" d="M557 230l-3 -7c0,-1 0,-1 0,-1 -1,-1 -1,-1 -2,-1 0,0 0,0 0,0l0 0 2 -2 1 0 3 9 1 -4c1,0 1,-1 1,-1 0,-1 0,-1 0,-2 0,0 0,0 0,0 0,-1 0,-2 1,-2 0,0 1,1 1,1 0,1 -1,2 -2,4l-3 6 0 0z"/>
  <path id="1" class="fil11 str0" d="M557 230l-3 -7c0,-1 0,-1 0,-1 -1,-1 -1,-1 -2,-1 0,0 0,0 0,0l0 0 2 -2 1 0 3 9 1 -4c1,0 1,-1 1,-1 0,-1 0,-1 0,-2 0,0 0,0 0,0 0,-1 0,-2 1,-2 0,0 1,1 1,1 0,1 -1,2 -2,4l-3 6 0 0z"/>
  <path class="fil13" d="M547 246c0,0 -1,0 -1,0 -2,0 -2,0 -2,-1 0,0 0,0 0,0l5 -18c0,0 0,-1 0,-1 0,0 0,0 0,0 -1,0 -2,1 -3,2 0,-1 -1,-2 -2,-2 -4,0 -8,5 -8,10 0,3 1,5 4,5 1,0 3,-1 4,-2 -1,3 -1,3 -2,5 0,2 0,2 -2,2 -1,0 -1,0 -1,1 0,0 0,0 0,0 1,0 3,0 4,0 1,0 2,0 3,0 0,0 1,0 1,-1zm-3 -10c0,2 -2,4 -4,4 -2,0 -2,-2 -2,-3 0,-1 1,-5 2,-7 1,-2 2,-3 4,-3 0,0 1,0 1,1 1,0 1,1 1,2 0,0 0,0 0,0l-2 6z"/>
  <path id="1" class="fil11 str0" d="M547 246c0,0 -1,0 -1,0 -2,0 -2,0 -2,-1 0,0 0,0 0,0l5 -18c0,0 0,-1 0,-1 0,0 0,0 0,0 -1,0 -2,1 -3,2 0,-1 -1,-2 -2,-2 -4,0 -8,5 -8,10 0,3 1,5 4,5 1,0 3,-1 4,-2 -1,3 -1,3 -2,5 0,2 0,2 -2,2 -1,0 -1,0 -1,1 0,0 0,0 0,0 1,0 3,0 4,0 1,0 2,0 3,0 0,0 1,0 1,-1zm-3 -10c0,2 -2,4 -4,4 -2,0 -2,-2 -2,-3 0,-1 1,-5 2,-7 1,-2 2,-3 4,-3 0,0 1,0 1,1 1,0 1,1 1,2 0,0 0,0 0,0l-2 6z"/>
  <path class="fil13" d="M558 240c2,0 3,1 3,4 0,1 0,3 -1,5 -1,2 -2,4 -3,5 -1,1 -2,1 -3,1 -1,0 -2,0 -2,-1 -1,-1 -1,-2 -1,-3 0,0 0,-1 0,-3 1,-1 1,-2 2,-4 0,-1 1,-2 2,-3 1,-1 2,-1 3,-1zm1 7c0,-1 1,-3 1,-4 0,-2 -1,-3 -2,-3 -1,0 -1,1 -2,2 -1,1 -2,3 -2,5l5 0zm-6 1c0,2 -1,3 -1,4 0,1 1,2 1,2 0,1 1,1 1,1 1,0 1,0 2,-1 0,0 0,-1 1,-2 1,-1 1,-3 2,-4l-6 0z"/>
  <path id="1" class="fil11 str0" d="M558 240c2,0 3,1 3,4 0,1 0,3 -1,5 -1,2 -2,4 -3,5 -1,1 -2,1 -3,1 -1,0 -2,0 -2,-1 -1,-1 -1,-2 -1,-3 0,0 0,-1 0,-3 1,-1 1,-2 2,-4 0,-1 1,-2 2,-3 1,-1 2,-1 3,-1zm1 7c0,-1 1,-3 1,-4 0,-2 -1,-3 -2,-3 -1,0 -1,1 -2,2 -1,1 -2,3 -2,5l5 0zm-6 1c0,2 -1,3 -1,4 0,1 1,2 1,2 0,1 1,1 1,1 1,0 1,0 2,-1 0,0 0,-1 1,-2 1,-1 1,-3 2,-4l-6 0z"/>
  <path class="fil13" d="M553 150l-2 -7c0,0 0,-1 -1,-1 0,-1 0,-1 -1,-1 0,0 0,0 0,0l-1 0 3 -1 1 0 3 8 1 -4c1,0 1,-1 1,-1 0,0 0,-1 0,-1 -1,-1 -1,-1 -1,-1 0,-1 1,-1 2,-1 0,0 1,0 1,1 0,0 -1,2 -2,3l-3 6 -1 0z"/>
  <path id="1" class="fil11 str0" d="M553 150l-2 -7c0,0 0,-1 -1,-1 0,-1 0,-1 -1,-1 0,0 0,0 0,0l-1 0 3 -1 1 0 3 8 1 -4c1,0 1,-1 1,-1 0,0 0,-1 0,-1 -1,-1 -1,-1 -1,-1 0,-1 1,-1 2,-1 0,0 1,0 1,1 0,0 -1,2 -2,3l-3 6 -1 0z"/>
  <path class="fil13" d="M544 167c0,-1 -1,-1 -1,-1 -2,0 -2,0 -2,0 0,-1 0,-1 0,-1l5 -18c0,0 0,-1 0,-1 0,0 0,0 -1,0 0,0 -1,1 -2,2 0,-1 -1,-2 -3,-2 -3,0 -7,5 -7,10 0,3 1,5 4,5 1,0 2,-1 3,-2 0,3 0,3 -1,6 0,1 0,1 -2,1 -1,0 -1,0 -1,1 0,0 0,0 0,0 1,0 2,0 4,0 1,0 2,0 3,0 0,0 1,0 1,0zm-3 -10c0,1 -2,3 -4,3 -2,0 -2,-2 -2,-3 0,-1 1,-5 2,-7 1,-2 2,-3 3,-3 1,0 1,0 2,1 0,0 1,1 1,2 0,0 0,0 0,0l-2 7z"/>
  <path id="1" class="fil11 str0" d="M544 167c0,-1 -1,-1 -1,-1 -2,0 -2,0 -2,0 0,-1 0,-1 0,-1l5 -18c0,0 0,-1 0,-1 0,0 0,0 -1,0 0,0 -1,1 -2,2 0,-1 -1,-2 -3,-2 -3,0 -7,5 -7,10 0,3 1,5 4,5 1,0 2,-1 3,-2 0,3 0,3 -1,6 0,1 0,1 -2,1 -1,0 -1,0 -1,1 0,0 0,0 0,0 1,0 2,0 4,0 1,0 2,0 3,0 0,0 1,0 1,0zm-3 -10c0,1 -2,3 -4,3 -2,0 -2,-2 -2,-3 0,-1 1,-5 2,-7 1,-2 2,-3 3,-3 1,0 1,0 2,1 0,0 1,1 1,2 0,0 0,0 0,0l-2 7z"/>
  <path class="fil13" d="M555 160c2,0 3,1 3,4 0,2 0,4 -1,6 -1,2 -2,3 -3,4 -1,1 -2,2 -3,2 -1,0 -2,-1 -2,-2 -1,0 -1,-1 -1,-2 0,-1 0,-2 0,-3 1,-2 1,-3 2,-4 0,-2 1,-3 2,-4 1,-1 2,-1 3,-1zm1 7c0,-1 0,-3 0,-4 0,-2 0,-3 -1,-3 -1,0 -2,1 -2,2 -1,1 -2,3 -3,5l6 0zm-6 1c0,2 -1,4 -1,5 0,0 0,1 1,1 0,1 0,1 1,1 1,0 1,0 1,0 1,-1 1,-2 2,-3 0,-1 1,-2 1,-4l-5 0z"/>
  <path id="1" class="fil11 str0" d="M555 160c2,0 3,1 3,4 0,2 0,4 -1,6 -1,2 -2,3 -3,4 -1,1 -2,2 -3,2 -1,0 -2,-1 -2,-2 -1,0 -1,-1 -1,-2 0,-1 0,-2 0,-3 1,-2 1,-3 2,-4 0,-2 1,-3 2,-4 1,-1 2,-1 3,-1zm1 7c0,-1 0,-3 0,-4 0,-2 0,-3 -1,-3 -1,0 -2,1 -2,2 -1,1 -2,3 -3,5l6 0zm-6 1c0,2 -1,4 -1,5 0,0 0,1 1,1 0,1 0,1 1,1 1,0 1,0 1,0 1,-1 1,-2 2,-3 0,-1 1,-2 1,-4l-5 0z"/>
  <path class="fil13" d="M530 178l2 0 0 0 0 1 -1 2 -1 1 -1 1 0 1 -2 1 -1 1 -1 0 -1 1 -1 1 -2 0 -1 0 -2 0 -1 1 -1 0 -2 0 -1 -1 -2 0 -1 0 -1 -1 -1 0 -1 -1 -1 0 -1 -1 -1 -1 -1 -1 0 -1 0 -1 0 -2 0 -1 0 -1 1 -2 1 1 0 1 0 1 -1 2 1 0 0 1 0 1 0 1 1 1 1 0 1 1 1 0 1 1 1 0 1 0 1 1 1 0 2 0 1 0 1 0 1 -1 2 0 1 0 1 -1 1 0 1 -1 1 0 1 -1 1 -1 1 -1 0 -1 1 -1 0 -1 0 0zm-1 -5l2 -1 0 0 0 1 0 0 0 0 0 0 1 0 0 0 0 1 0 0 0 0 0 0 0 0 0 1 0 0 0 0 0 0 0 0 0 0 0 1 0 0 0 0 0 0 0 0 0 1 0 0 0 0 0 0 0 0 0 0 0 1 0 0 0 0 -2 0 0 0 0 -1 0 0 0 0 0 0 0 0 0 0 0 0 0 -1 0 0 0 0 0 0 0 0 0 0 0 0 0 -1 0 0 0 0 0 0 0 0 0 0 0 -1 0 0 0 0 0 0 0 0 0 0 0 0 0 -1 0 0 0 0 -1 0zm-2 -8l8 7 0 0 -1 0 0 0 0 0 -1 0 0 0 0 0 0 0 -1 0 0 1 0 0 -1 0 0 0 0 0 0 0 -1 0 0 0 0 0 0 0 0 1 -1 0 0 0 0 0 0 0 -1 0 0 1 0 0 0 0 0 0 -1 0 0 1 0 0 0 0 0 -11z"/>
  <path class="fil13" d="M546 196l-2 -2 0 0 1 0 1 -1 0 0 1 -1 1 0 1 0 0 -1 1 0 1 0 1 0 0 0 1 -1 1 0 1 0 0 0 1 0 1 0 1 0 0 0 1 0 1 1 0 0 1 0 1 0 0 1 1 0 0 0 1 1 0 0 0 1 1 0 0 1 -2 1 0 -1 0 0 0 -1 -1 0 0 0 0 0 -1 -1 0 0 -1 0 0 0 -1 -1 0 0 -1 0 -1 0 0 0 -1 0 -1 0 0 0 -1 0 -1 0 0 0 -1 1 -1 0 0 0 -1 0 -1 0 0 1 -1 0 -1 0 0 1 -1 0 0 1zm-2 21l-1 1 -1 0 0 -1 -1 -1 0 0 -1 -1 0 -1 -1 0 0 -1 -1 -1 0 -1 0 0 0 -1 0 -1 -1 -1 0 -1 0 0 0 -1 0 -1 1 -1 0 -1 0 0 0 -1 1 -1 0 -1 1 -1 0 0 1 -1 0 -1 1 -1 1 0 1 -1 0 -1 2 2 -1 0 -1 1 -1 1 0 0 -1 1 0 1 -1 0 0 1 -1 1 0 1 0 0 0 1 -1 1 0 0 0 1 0 1 0 0 0 1 0 1 0 0 1 1 0 1 0 0 0 1 1 1 0 0 1 1 0 1 1 0 0 1 1 0 0 1zm6 7l-10 -4 0 0 0 0 0 -1 1 0 0 0 0 0 0 0 1 0 0 0 0 -1 0 0 1 0 0 0 0 0 0 0 0 -1 1 0 0 0 0 0 0 0 0 -1 0 0 1 0 0 0 0 0 0 -1 0 0 0 0 0 -1 0 0 1 0 0 0 0 0 4 10z"/>
  <path class="fil18" d="M417 160c0,0 0,0 0,0 -1,0 -1,0 -1,0 0,1 -1,3 -2,3 0,0 0,-1 0,-1 0,-1 0,-1 0,-2 0,0 0,0 0,0 0,-2 -1,-2 -3,-3 1,0 1,0 2,-1 1,-1 2,-2 3,-2 0,0 0,0 0,0 0,0 -1,1 -1,1 0,0 1,1 1,1 1,0 1,-1 1,-2 0,0 0,-1 -1,-1 -1,0 -2,1 -3,2 -1,1 -2,2 -2,2l2 -9c0,0 0,0 0,0 0,0 0,0 0,0 0,0 -1,0 -1,0l-2 0c0,0 0,0 0,0 0,0 0,0 0,0 1,0 1,1 1,1 0,0 0,0 0,0l-3 13c0,0 0,1 0,1 0,0 0,0 0,0 1,0 1,0 1,-1l1 -4c1,0 3,0 3,2 0,0 0,0 0,0 0,1 0,1 0,1 0,2 1,2 1,2 1,0 2,-1 2,-1 1,-1 1,-2 1,-2z"/>
  <path id="1" class="fil11 str0" d="M417 160c0,0 0,0 0,0 -1,0 -1,0 -1,0 0,1 -1,3 -2,3 0,0 0,-1 0,-1 0,-1 0,-1 0,-2 0,0 0,0 0,0 0,-2 -1,-2 -3,-3 1,0 1,0 2,-1 1,-1 2,-2 3,-2 0,0 0,0 0,0 0,0 -1,1 -1,1 0,0 1,1 1,1 1,0 1,-1 1,-2 0,0 0,-1 -1,-1 -1,0 -2,1 -3,2 -1,1 -2,2 -2,2l2 -9c0,0 0,0 0,0 0,0 0,0 0,0 0,0 -1,0 -1,0l-2 0c0,0 0,0 0,0 0,0 0,0 0,0 1,0 1,1 1,1 0,0 0,0 0,0l-3 13c0,0 0,1 0,1 0,0 0,0 0,0 1,0 1,0 1,-1l1 -4c1,0 3,0 3,2 0,0 0,0 0,0 0,1 0,1 0,1 0,2 1,2 1,2 1,0 2,-1 2,-1 1,-1 1,-2 1,-2z"/>
  <path class="fil18" d="M405 164c0,-2 -2,-3 -4,-3 -1,0 -3,0 -4,2 -1,-1 -2,-2 -4,-2 -1,0 -2,1 -3,2 0,1 -1,3 -1,3 0,1 1,1 1,1 1,0 1,0 1,-1 0,-1 1,-4 2,-4 0,0 1,1 1,1 0,1 0,1 -1,2l-2 9c0,1 0,1 0,1 0,1 1,1 2,1 0,0 1,0 2,-1l2 -9c0,-1 2,-4 4,-4 0,0 1,0 2,1 -2,1 -2,2 -2,2 0,1 1,2 2,2 1,0 2,-1 2,-3z"/>
  <path id="1" class="fil11 str0" d="M405 164c0,-2 -2,-3 -4,-3 -1,0 -3,0 -4,2 -1,-1 -2,-2 -4,-2 -1,0 -2,1 -3,2 0,1 -1,3 -1,3 0,1 1,1 1,1 1,0 1,0 1,-1 0,-1 1,-4 2,-4 0,0 1,1 1,1 0,1 0,1 -1,2l-2 9c0,1 0,1 0,1 0,1 1,1 2,1 0,0 1,0 2,-1l2 -9c0,-1 2,-4 4,-4 0,0 1,0 2,1 -2,1 -2,2 -2,2 0,1 1,2 2,2 1,0 2,-1 2,-3z"/>
  <path class="fil11 str1" d="M348 62c29,-25 50,-19 85,-27 20,-5 29,-7 49,-16"/>
  <path class="fil11 str4" d="M313 322c-38,-3 -117,-1 -155,3 -10,1 -45,1 -41,1"/>
  <path class="fil11 str4" d="M78 220c-1,1 -3,1 -4,1"/>
  <path class="fil13" d="M478 262c0,0 -1,0 -1,0 0,0 0,0 0,0 -1,3 -2,5 -6,5l-3 0 12 -14c0,0 0,0 0,0 0,-1 0,-1 -1,-1l-9 0c0,0 0,0 -1,1l-1 4c0,0 0,0 0,0 0,0 0,0 1,0 0,0 0,0 0,0 1,-2 2,-4 5,-4l4 0 -12 14c-1,0 -1,0 -1,0 0,1 0,1 1,1l9 0c1,0 1,0 1,-1l2 -5c0,0 0,0 0,0z"/>
  <path id="1" class="fil11 str0" d="M478 262c0,0 -1,0 -1,0 0,0 0,0 0,0 -1,3 -2,5 -6,5l-3 0 12 -14c0,0 0,0 0,0 0,-1 0,-1 -1,-1l-9 0c0,0 0,0 -1,1l-1 4c0,0 0,0 0,0 0,0 0,0 1,0 0,0 0,0 0,0 1,-2 2,-4 5,-4l4 0 -12 14c-1,0 -1,0 -1,0 0,1 0,1 1,1l9 0c1,0 1,0 1,-1l2 -5c0,0 0,0 0,0z"/>
  <path class="fil13" d="M573 263c0,-1 0,-1 -1,-1 0,0 -1,0 -1,0l-3 -7 4 -4c2,-2 3,-2 3,-2 1,0 1,0 1,-1 0,0 0,0 -1,0 0,0 0,0 -2,0 -1,0 -2,0 -2,0 0,0 0,0 0,0 0,1 0,1 0,1 0,0 1,0 1,0 0,0 0,1 0,1l-1 0c0,0 0,0 0,0l-3 4 -2 -4c0,-1 0,-1 0,-1 0,0 0,0 1,0 0,0 0,0 0,-1 0,0 0,0 0,0 0,0 -1,0 -3,0 -1,0 -2,0 -2,0 0,0 0,0 0,0 0,1 0,1 0,1 1,0 2,0 2,0l2 6 -5 6c-1,1 -2,1 -3,1 0,0 0,0 0,1 0,0 0,0 0,0 0,0 0,0 2,0 2,0 2,0 2,0 0,0 1,0 1,0 0,-1 -1,-1 -1,-1 0,0 0,0 0,0 0,0 0,-1 0,-1 0,0 0,0 0,0l5 -5 2 5c0,1 0,1 0,1 0,0 0,0 -1,0 0,0 0,0 0,1 0,0 0,0 0,0 1,0 2,0 2,0 2,0 2,0 3,0 0,0 0,0 0,0z"/>
  <path id="1" class="fil11 str0" d="M573 263c0,-1 0,-1 -1,-1 0,0 -1,0 -1,0l-3 -7 4 -4c2,-2 3,-2 3,-2 1,0 1,0 1,-1 0,0 0,0 -1,0 0,0 0,0 -2,0 -1,0 -2,0 -2,0 0,0 0,0 0,0 0,1 0,1 0,1 0,0 1,0 1,0 0,0 0,1 0,1l-1 0c0,0 0,0 0,0l-3 4 -2 -4c0,-1 0,-1 0,-1 0,0 0,0 1,0 0,0 0,0 0,-1 0,0 0,0 0,0 0,0 -1,0 -3,0 -1,0 -2,0 -2,0 0,0 0,0 0,0 0,1 0,1 0,1 1,0 2,0 2,0l2 6 -5 6c-1,1 -2,1 -3,1 0,0 0,0 0,1 0,0 0,0 0,0 0,0 0,0 2,0 2,0 2,0 2,0 0,0 1,0 1,0 0,-1 -1,-1 -1,-1 0,0 0,0 0,0 0,0 0,-1 0,-1 0,0 0,0 0,0l5 -5 2 5c0,1 0,1 0,1 0,0 0,0 -1,0 0,0 0,0 0,1 0,0 0,0 0,0 1,0 2,0 2,0 2,0 2,0 3,0 0,0 0,0 0,0z"/>
  <path class="fil13" d="M597 230c0,0 0,0 0,0 -1,0 -2,0 -2,0l-3 -7 4 -5c2,-1 3,-1 3,-2 1,0 1,0 1,0 0,0 0,0 0,0 -1,0 -1,0 -2,0 -2,0 -2,0 -3,0 0,0 0,0 0,0 0,0 0,0 0,0 1,1 1,1 1,1 0,0 0,0 0,1l0 0c0,0 0,0 -1,0l-3 4 -2 -5c0,0 0,0 0,0 0,0 0,0 1,-1 0,0 0,0 0,0 0,0 0,0 0,0 0,0 -1,0 -2,0 -2,0 -2,0 -3,0 0,0 0,0 0,0 0,0 0,0 0,0 1,0 2,1 2,1l3 6 -6 6c-1,1 -2,1 -3,1 0,0 0,0 0,1 0,0 0,0 0,0 1,0 1,0 2,0 2,0 2,0 3,0 0,0 0,0 0,-1 0,0 0,0 0,0 -1,0 -1,0 -1,0 0,-1 0,-1 0,-1 0,0 0,0 1,0l4 -5 2 5c0,0 0,1 0,1 0,0 0,0 -1,0 0,0 0,0 0,1 0,0 0,0 0,0 1,0 2,0 3,0 2,0 2,0 2,0 0,0 0,0 0,-1z"/>
  <path id="1" class="fil11 str0" d="M597 230c0,0 0,0 0,0 -1,0 -2,0 -2,0l-3 -7 4 -5c2,-1 3,-1 3,-2 1,0 1,0 1,0 0,0 0,0 0,0 -1,0 -1,0 -2,0 -2,0 -2,0 -3,0 0,0 0,0 0,0 0,0 0,0 0,0 1,1 1,1 1,1 0,0 0,0 0,1l0 0c0,0 0,0 -1,0l-3 4 -2 -5c0,0 0,0 0,0 0,0 0,0 1,-1 0,0 0,0 0,0 0,0 0,0 0,0 0,0 -1,0 -2,0 -2,0 -2,0 -3,0 0,0 0,0 0,0 0,0 0,0 0,0 1,0 2,1 2,1l3 6 -6 6c-1,1 -2,1 -3,1 0,0 0,0 0,1 0,0 0,0 0,0 1,0 1,0 2,0 2,0 2,0 3,0 0,0 0,0 0,-1 0,0 0,0 0,0 -1,0 -1,0 -1,0 0,-1 0,-1 0,-1 0,0 0,0 1,0l4 -5 2 5c0,0 0,1 0,1 0,0 0,0 -1,0 0,0 0,0 0,1 0,0 0,0 0,0 1,0 2,0 3,0 2,0 2,0 2,0 0,0 0,0 0,-1z"/>
  <path class="fil13" d="M514 154c0,0 0,0 0,0 -1,0 0,0 -2,0 -1,0 -2,0 -2,0 0,0 -1,0 -1,0 0,0 1,0 1,0 0,0 0,1 0,1 0,0 0,0 0,1 0,0 0,0 0,0 0,0 0,0 0,0l-5 6 -3 -7c0,0 0,0 0,0 0,-1 1,-1 1,-1 1,0 1,0 1,0 0,0 0,0 -1,0 0,0 -1,0 -2,0 -2,0 -2,0 -2,0 0,0 -1,0 -1,0 0,0 1,0 1,0 1,0 1,1 1,1l3 8c0,0 0,0 0,0 0,0 -1,3 -1,4 0,1 0,1 -2,1 0,0 0,0 0,1 0,0 0,0 0,0 0,0 1,0 1,0l1 0c2,0 3,0 3,0 0,0 0,0 0,-1 0,0 0,0 0,0 -1,0 -1,0 -1,0 0,0 0,-1 0,-1l1 -4 6 -7c1,-1 2,-1 3,-2 0,0 0,0 0,0z"/>
  <path id="1" class="fil11 str0" d="M514 154c0,0 0,0 0,0 -1,0 0,0 -2,0 -1,0 -2,0 -2,0 0,0 -1,0 -1,0 0,0 1,0 1,0 0,0 0,1 0,1 0,0 0,0 0,1 0,0 0,0 0,0 0,0 0,0 0,0l-5 6 -3 -7c0,0 0,0 0,0 0,-1 1,-1 1,-1 1,0 1,0 1,0 0,0 0,0 -1,0 0,0 -1,0 -2,0 -2,0 -2,0 -2,0 0,0 -1,0 -1,0 0,0 1,0 1,0 1,0 1,1 1,1l3 8c0,0 0,0 0,0 0,0 -1,3 -1,4 0,1 0,1 -2,1 0,0 0,0 0,1 0,0 0,0 0,0 0,0 1,0 1,0l1 0c2,0 3,0 3,0 0,0 0,0 0,-1 0,0 0,0 0,0 -1,0 -1,0 -1,0 0,0 0,-1 0,-1l1 -4 6 -7c1,-1 2,-1 3,-2 0,0 0,0 0,0z"/>
  <path class="fil13" d="M575 168c0,-1 0,-1 0,-1 -1,0 -1,0 -2,0 -2,0 -2,0 -2,0 0,0 -1,0 -1,1 0,0 1,0 1,0 0,0 0,0 0,0 0,0 0,1 0,1 0,0 0,0 0,0 0,0 0,0 0,1l-5 5 -3 -6c0,0 0,0 0,-1 0,0 1,0 1,0 0,0 1,0 1,0 0,-1 0,-1 -1,-1 0,0 -1,0 -2,0 -2,0 -2,0 -2,0 -1,0 -1,0 -1,1 0,0 0,0 1,0 1,0 1,0 1,1l3 7c0,0 0,0 0,0 0,0 -1,4 -1,4 0,2 0,2 -2,2 0,0 -1,0 -1,0 0,0 1,0 1,0 0,0 1,0 1,0l1 0c2,0 3,0 3,0 0,0 0,0 0,0 0,0 0,0 0,0 -1,0 -2,0 -2,-1 0,0 1,0 1,-1l1 -4 6 -6c1,-2 2,-2 2,-2 1,0 1,0 1,0z"/>
  <path id="1" class="fil11 str0" d="M575 168c0,-1 0,-1 0,-1 -1,0 -1,0 -2,0 -2,0 -2,0 -2,0 0,0 -1,0 -1,1 0,0 1,0 1,0 0,0 0,0 0,0 0,0 0,1 0,1 0,0 0,0 0,0 0,0 0,0 0,1l-5 5 -3 -6c0,0 0,0 0,-1 0,0 1,0 1,0 0,0 1,0 1,0 0,-1 0,-1 -1,-1 0,0 -1,0 -2,0 -2,0 -2,0 -2,0 -1,0 -1,0 -1,1 0,0 0,0 1,0 1,0 1,0 1,1l3 7c0,0 0,0 0,0 0,0 -1,4 -1,4 0,2 0,2 -2,2 0,0 -1,0 -1,0 0,0 1,0 1,0 0,0 1,0 1,0l1 0c2,0 3,0 3,0 0,0 0,0 0,0 0,0 0,0 0,0 -1,0 -2,0 -2,-1 0,0 1,0 1,-1l1 -4 6 -6c1,-2 2,-2 2,-2 1,0 1,0 1,0z"/>
  <path class="fil13" d="M471 218c0,0 0,0 -1,0 0,0 0,0 0,1 -1,2 -2,4 -6,4l-3 0 12 -13c0,0 0,-1 0,-1 0,0 0,0 -1,0l-9 0c0,0 0,0 0,0l-2 4c0,1 0,1 0,1 0,0 1,0 1,0 0,0 0,0 0,0 1,-3 2,-4 5,-4l4 0 -12 13c0,1 0,1 0,1 0,0 0,0 0,0l10 0c0,0 0,0 0,0l2 -5c0,0 0,-1 0,-1z"/>
  <path id="1" class="fil11 str0" d="M471 218c0,0 0,0 -1,0 0,0 0,0 0,1 -1,2 -2,4 -6,4l-3 0 12 -13c0,0 0,-1 0,-1 0,0 0,0 -1,0l-9 0c0,0 0,0 0,0l-2 4c0,1 0,1 0,1 0,0 1,0 1,0 0,0 0,0 0,0 1,-3 2,-4 5,-4l4 0 -12 13c0,1 0,1 0,1 0,0 0,0 0,0l10 0c0,0 0,0 0,0l2 -5c0,0 0,-1 0,-1z"/>
  <path class="fil15" d="M303 112l19 -20 1 1 -18 21 -2 -2zm-5 7l4 -10 0 0 0 1 0 0 0 0 1 0 0 1 0 0 0 0 0 0 0 1 0 0 1 0 0 0 0 0 0 1 0 0 1 0 0 0 0 0 0 0 0 1 1 0 0 0 0 0 0 0 1 0 0 0 0 1 0 0 1 0 0 0 0 0 0 0 -10 4z"/>
  <path class="fil15" d="M323 45l4 10 0 0 0 0 -1 0 0 -1 0 0 0 0 -1 0 0 0 0 0 0 0 -1 0 0 0 0 0 -1 0 0 0 0 0 0 0 -1 0 0 0 0 0 0 0 -1 0 0 0 0 0 -1 0 0 0 0 0 0 0 -1 0 0 0 0 1 0 0 -1 0 5 -10zm-1 48l0 -40 2 0 0 40 -1 1 -1 -1zm1 1l-1 0 0 -1 1 1zm37 0l-37 0 0 -2 37 0 0 2zm9 -1l-10 4 0 0 0 -1 0 0 0 0 1 0 0 -1 0 0 0 0 0 0 0 -1 0 0 0 0 0 -1 0 0 0 0 0 0 0 -1 0 0 0 0 0 0 0 -1 0 0 0 0 0 0 0 -1 0 0 0 0 -1 -1 0 0 0 0 0 0 0 -1 0 0 10 5z"/>
  <path class="fil18" d="M330 96l188 108 -1 1 -188 -107 1 -2zm-8 -3l10 1 0 0 0 0 0 0 0 0 -1 1 0 0 0 0 0 0 0 0 -1 1 0 0 0 0 0 0 0 1 0 0 -1 0 0 0 0 0 0 1 0 0 0 0 0 0 0 1 0 0 0 0 -1 1 0 0 0 0 0 0 0 1 0 0 0 0 0 0 -6 -8z"/>
  <path class="fil12" d="M433 68c0,0 -1,0 -1,0 0,0 0,0 0,0 0,2 -1,3 -2,3 0,0 0,0 0,-1 0,0 0,-1 0,-1 0,-1 0,-1 0,-1 0,-1 -2,-2 -3,-2 0,0 1,-1 1,-2 2,-1 2,-2 4,-2 0,0 0,0 0,0 -1,0 -1,1 -1,1 0,1 0,1 1,1 0,0 1,0 1,-1 0,-1 0,-1 -1,-1 -2,0 -2,1 -3,1 -1,2 -2,2 -3,3l3 -9c0,-1 0,-1 0,-1 0,0 0,0 -1,0 0,0 0,0 0,0l-2 0c0,0 -1,0 -1,1 0,0 1,0 1,0 1,0 1,0 1,0 0,0 0,1 0,1l-3 13c0,0 0,0 0,0 0,0 0,1 0,1 1,0 1,-1 1,-1l1 -5c1,0 2,1 2,2 0,0 0,0 0,1 0,0 0,0 0,0 0,2 1,3 2,3 1,0 2,-1 2,-2 0,0 1,-2 1,-2z"/>
  <path id="1" class="fil11 str7" d="M433 68c0,0 -1,0 -1,0 0,0 0,0 0,0 0,2 -1,3 -2,3 0,0 0,0 0,-1 0,0 0,-1 0,-1 0,-1 0,-1 0,-1 0,-1 -2,-2 -3,-2 0,0 1,-1 1,-2 2,-1 2,-2 4,-2 0,0 0,0 0,0 -1,0 -1,1 -1,1 0,1 0,1 1,1 0,0 1,0 1,-1 0,-1 0,-1 -1,-1 -2,0 -2,1 -3,1 -1,2 -2,2 -3,3l3 -9c0,-1 0,-1 0,-1 0,0 0,0 -1,0 0,0 0,0 0,0l-2 0c0,0 -1,0 -1,1 0,0 1,0 1,0 1,0 1,0 1,0 0,0 0,1 0,1l-3 13c0,0 0,0 0,0 0,0 0,1 0,1 1,0 1,-1 1,-1l1 -5c1,0 2,1 2,2 0,0 0,0 0,1 0,0 0,0 0,0 0,2 1,3 2,3 1,0 2,-1 2,-2 0,0 1,-2 1,-2z"/>
  <path class="fil12" d="M419 78c0,0 0,0 0,0 -1,0 -1,0 -1,1 0,2 -1,4 -2,4 -1,0 -1,-1 -1,-2 0,0 0,0 0,-1l3 -10c0,0 0,0 0,0 0,-1 -1,-1 -1,-1 -1,0 -2,1 -2,1l-2 10c0,0 0,0 0,1 -1,1 -2,2 -4,2 -1,0 -1,-2 -1,-3 0,-2 1,-5 2,-7 0,-1 0,-1 0,-2 0,-2 -1,-3 -2,-3 -4,0 -5,5 -5,6 0,0 1,0 1,0 0,0 0,0 0,-1 1,-1 2,-4 3,-4 1,0 1,0 1,1 0,1 0,2 -1,3 0,2 -1,5 -1,7 0,3 2,4 3,4 2,0 3,-1 4,-2 1,1 2,2 3,2 1,0 2,-1 2,-2 1,-2 1,-4 1,-4z"/>
  <path id="1" class="fil11 str7" d="M419 78c0,0 0,0 0,0 -1,0 -1,0 -1,1 0,2 -1,4 -2,4 -1,0 -1,-1 -1,-2 0,0 0,0 0,-1l3 -10c0,0 0,0 0,0 0,-1 -1,-1 -1,-1 -1,0 -2,1 -2,1l-2 10c0,0 0,0 0,1 -1,1 -2,2 -4,2 -1,0 -1,-2 -1,-3 0,-2 1,-5 2,-7 0,-1 0,-1 0,-2 0,-2 -1,-3 -2,-3 -4,0 -5,5 -5,6 0,0 1,0 1,0 0,0 0,0 0,-1 1,-1 2,-4 3,-4 1,0 1,0 1,1 0,1 0,2 -1,3 0,2 -1,5 -1,7 0,3 2,4 3,4 2,0 3,-1 4,-2 1,1 2,2 3,2 1,0 2,-1 2,-2 1,-2 1,-4 1,-4z"/>
  <path class="fil12" d="M431 88l2 -8c0,-1 0,-1 0,-1 0,0 0,0 -1,0 0,0 0,0 -1,1l-1 6c0,1 -1,2 -3,2 0,0 -1,-1 -1,-2 0,-1 1,-3 2,-5 0,0 0,0 0,-1 0,-1 -1,-2 -2,-2 -2,0 -3,4 -3,4 0,0 1,0 1,0 0,0 0,0 0,0 0,-1 1,-3 2,-3 0,0 1,0 1,1 0,0 -1,1 -1,2 0,1 -1,3 -1,4 0,2 1,3 2,3 1,0 2,-1 2,-1 0,3 -2,4 -3,4 -1,0 -2,-1 -2,-1 0,0 0,0 1,0 0,0 1,0 1,-1 0,0 -1,0 -1,0 0,0 -1,0 -1,1 0,1 1,2 2,2 2,0 4,-2 5,-5l0 0z"/>
  <path id="1" class="fil11 str7" d="M431 88l2 -8c0,-1 0,-1 0,-1 0,0 0,0 -1,0 0,0 0,0 -1,1l-1 6c0,1 -1,2 -3,2 0,0 -1,-1 -1,-2 0,-1 1,-3 2,-5 0,0 0,0 0,-1 0,-1 -1,-2 -2,-2 -2,0 -3,4 -3,4 0,0 1,0 1,0 0,0 0,0 0,0 0,-1 1,-3 2,-3 0,0 1,0 1,1 0,0 -1,1 -1,2 0,1 -1,3 -1,4 0,2 1,3 2,3 1,0 2,-1 2,-1 0,3 -2,4 -3,4 -1,0 -2,-1 -2,-1 0,0 0,0 1,0 0,0 1,0 1,-1 0,0 -1,0 -1,0 0,0 -1,0 -1,1 0,1 1,2 2,2 2,0 4,-2 5,-5l0 0z"/>
  <path class="fil12" d="M358 13c0,-1 0,-1 0,-1 0,0 0,0 0,1 -1,1 -1,3 -2,3 -1,0 -1,-1 -1,-1 0,-1 1,-2 1,-2 0,0 0,0 0,0 0,-2 -2,-3 -3,-3 0,0 1,-1 1,-1 1,-2 2,-3 3,-3 1,0 1,1 1,1 -1,0 -1,1 -1,1 0,0 0,1 1,1 0,0 1,-1 1,-2 0,0 -1,-1 -2,-1 -1,0 -2,1 -2,2 -2,1 -2,2 -3,2l2 -9c0,0 1,0 1,0 0,-1 -1,-1 -1,-1 0,0 0,0 0,0l-2 1c-1,0 -1,0 -1,0 0,0 0,0 1,0 1,0 1,0 1,1 0,0 0,0 0,0l-4 13c0,0 0,0 0,0 0,1 1,1 1,1 1,0 1,-1 1,-1l1 -4c1,0 2,0 2,2 0,0 0,0 0,0 0,0 0,1 0,1 0,1 1,2 2,2 1,0 1,-1 2,-1 0,-1 0,-2 0,-2z"/>
  <path id="1" class="fil11 str7" d="M358 13c0,-1 0,-1 0,-1 0,0 0,0 0,1 -1,1 -1,3 -2,3 -1,0 -1,-1 -1,-1 0,-1 1,-2 1,-2 0,0 0,0 0,0 0,-2 -2,-3 -3,-3 0,0 1,-1 1,-1 1,-2 2,-3 3,-3 1,0 1,1 1,1 -1,0 -1,1 -1,1 0,0 0,1 1,1 0,0 1,-1 1,-2 0,0 -1,-1 -2,-1 -1,0 -2,1 -2,2 -2,1 -2,2 -3,2l2 -9c0,0 1,0 1,0 0,-1 -1,-1 -1,-1 0,0 0,0 0,0l-2 1c-1,0 -1,0 -1,0 0,0 0,0 1,0 1,0 1,0 1,1 0,0 0,0 0,0l-4 13c0,0 0,0 0,0 0,1 1,1 1,1 1,0 1,-1 1,-1l1 -4c1,0 2,0 2,2 0,0 0,0 0,0 0,0 0,1 0,1 0,1 1,2 2,2 1,0 1,-1 2,-1 0,-1 0,-2 0,-2z"/>
  <path class="fil12" d="M345 23c0,-1 0,-1 -1,-1 0,0 0,0 0,1 -1,2 -1,4 -2,4 -1,0 -1,-1 -1,-1 0,0 0,-1 0,-2l2 -9c0,-1 0,-1 0,-1 0,0 0,-1 0,-1 -1,0 -2,1 -2,1l-2 10c0,1 0,1 -1,1 0,1 -1,2 -3,2 -1,0 -1,-1 -1,-2 0,-2 1,-5 1,-8 1,0 1,-1 1,-1 0,-2 -1,-3 -3,-3 -3,0 -4,5 -4,5 0,0 0,0 1,0 0,0 0,0 0,0 0,-1 1,-4 3,-4 1,0 1,0 1,1 0,0 0,1 -1,3 -1,2 -2,4 -2,6 0,3 2,4 4,4 2,0 3,-1 4,-2 0,2 2,2 3,2 1,0 1,-1 2,-2 1,-1 1,-3 1,-3z"/>
  <path id="1" class="fil11 str7" d="M345 23c0,-1 0,-1 -1,-1 0,0 0,0 0,1 -1,2 -1,4 -2,4 -1,0 -1,-1 -1,-1 0,0 0,-1 0,-2l2 -9c0,-1 0,-1 0,-1 0,0 0,-1 0,-1 -1,0 -2,1 -2,1l-2 10c0,1 0,1 -1,1 0,1 -1,2 -3,2 -1,0 -1,-1 -1,-2 0,-2 1,-5 1,-8 1,0 1,-1 1,-1 0,-2 -1,-3 -3,-3 -3,0 -4,5 -4,5 0,0 0,0 1,0 0,0 0,0 0,0 0,-1 1,-4 3,-4 1,0 1,0 1,1 0,0 0,1 -1,3 -1,2 -2,4 -2,6 0,3 2,4 4,4 2,0 3,-1 4,-2 0,2 2,2 3,2 1,0 1,-1 2,-2 1,-1 1,-3 1,-3z"/>
  <path class="fil12" d="M358 30c0,-1 0,-1 0,-1 0,0 0,0 -1,1 0,2 -1,2 -2,2 -1,0 -1,0 -1,-1 0,-1 0,-1 0,-2l1 -3c0,-1 1,-3 2,-3 0,0 0,0 1,1 -1,0 -1,1 -1,1 0,0 0,0 1,0 0,0 1,0 1,-1 0,-1 -1,-1 -2,-1 -1,0 -2,1 -2,1 -1,-1 -2,-1 -2,-1 -3,0 -4,3 -4,3 0,1 0,1 1,1 0,0 0,-1 0,-1 1,-2 2,-3 3,-3 0,0 1,1 1,2 0,0 -1,1 -1,2l0 2c-1,2 -1,3 -3,3 0,0 0,0 0,0 0,0 0,-1 0,-1 0,-1 0,-1 0,-1 -1,0 -1,1 -1,2 0,0 0,1 1,1 2,0 2,-1 3,-2 0,2 1,2 2,2 2,0 3,-3 3,-3z"/>
  <path id="1" class="fil11 str7" d="M358 30c0,-1 0,-1 0,-1 0,0 0,0 -1,1 0,2 -1,2 -2,2 -1,0 -1,0 -1,-1 0,-1 0,-1 0,-2l1 -3c0,-1 1,-3 2,-3 0,0 0,0 1,1 -1,0 -1,1 -1,1 0,0 0,0 1,0 0,0 1,0 1,-1 0,-1 -1,-1 -2,-1 -1,0 -2,1 -2,1 -1,-1 -2,-1 -2,-1 -3,0 -4,3 -4,3 0,1 0,1 1,1 0,0 0,-1 0,-1 1,-2 2,-3 3,-3 0,0 1,1 1,2 0,0 -1,1 -1,2l0 2c-1,2 -1,3 -3,3 0,0 0,0 0,0 0,0 0,-1 0,-1 0,-1 0,-1 0,-1 -1,0 -1,1 -1,2 0,0 0,1 1,1 2,0 2,-1 3,-2 0,2 1,2 2,2 2,0 3,-3 3,-3z"/>
  <path class="fil16 str4" d="M37 149c2,0 5,-2 5,-5 0,-3 -3,-5 -5,-5 -3,0 -6,2 -6,5 0,3 3,5 6,5z"/>
  <path class="fil5" d="M37 78l4 10 0 0 0 0 -1 0 0 0 0 0 0 0 -1 0 0 0 0 0 -1 0 0 -1 0 0 0 0 -1 0 0 0 0 0 0 0 -1 0 0 0 0 0 -1 0 0 0 0 0 0 1 -1 0 0 0 0 0 0 0 -1 0 0 0 0 0 0 0 -1 0 5 -10zm-1 66l0 -57 1 0 0 57 0 1 -1 -1zm1 1l-1 0 0 -1 1 1zm57 0l-57 0 0 -2 57 0 0 2zm8 -1l-10 4 1 0 0 0 0 0 0 -1 0 0 0 0 0 0 0 -1 0 0 0 0 0 -1 0 0 0 0 0 0 0 -1 0 0 0 0 0 0 0 -1 0 0 0 0 0 0 0 -1 0 0 0 0 0 -1 0 0 0 0 0 0 0 -1 0 0 -1 0 0 0 10 4z"/>
  <path class="fil5" d="M5 180l31 -36 1 1 -31 36 -1 -1zm-5 7l3 -10 0 0 0 0 1 1 0 0 0 0 0 0 0 1 0 0 1 0 0 0 0 0 0 1 0 0 0 0 1 0 0 0 0 1 0 0 0 0 1 0 0 0 0 0 0 0 1 1 0 0 0 0 0 0 1 0 0 0 0 0 0 0 1 0 0 0 -10 5z"/>
 </g>
</svg>
